digraph "TIM1_DMA_Source_Requests"
{
  edge [fontname="Helvetica",fontsize="10",labelfontname="Helvetica",labelfontsize="10"];
  node [fontname="Helvetica",fontsize="10",shape=record];
  rankdir=LR;
  Node1 [label="TIM1_Exported_Types",height=0.2,width=0.4,color="black", fillcolor="white", style="filled",URL="$group___t_i_m1___exported___types.html"];
  Node0 [label="TIM1_DMA_Source_Requests",height=0.2,width=0.4,color="black", fillcolor="grey75", style="filled", fontcolor="black"];
  Node1->Node0 [shape=plaintext, dir="back", style="solid"];
}
