digraph "SPI_Cmd"
{
  edge [fontname="Helvetica",fontsize="10",labelfontname="Helvetica",labelfontsize="10"];
  node [fontname="Helvetica",fontsize="10",shape=record];
  rankdir="LR";
  Node3 [label="SPI_Cmd",height=0.2,width=0.4,color="black", fillcolor="grey75", style="filled", fontcolor="black"];
  Node3 -> Node4 [dir="back",color="midnightblue",fontsize="10",style="solid",fontname="Helvetica"];
  Node4 [label="SPI_CalculateCRCCmd",height=0.2,width=0.4,color="black", fillcolor="white", style="filled",URL="$group___s_p_i___group3.html#gaa936b41c6f1c8010749991a7f1014d9b",tooltip="Enables or disables the CRC value calculation of the transferred bytes. "];
  Node4 -> Node5 [dir="back",color="midnightblue",fontsize="10",style="solid",fontname="Helvetica"];
  Node5 [label="SPI_ResetCRC",height=0.2,width=0.4,color="black", fillcolor="white", style="filled",URL="$group___s_p_i___group3.html#ga27ad061b3ab8e3492bfde4e9d573e1db",tooltip="Reset the Rx CRCR and Tx CRCR registers. "];
}
