digraph "FLASH_Exported_Types"
{
  edge [fontname="Helvetica",fontsize="10",labelfontname="Helvetica",labelfontsize="10"];
  node [fontname="Helvetica",fontsize="10",shape=record];
  rankdir=LR;
  Node2 [label="FLASH_Memory_Type",height=0.2,width=0.4,color="black", fillcolor="white", style="filled",URL="$group___f_l_a_s_h___memory___type.html"];
  Node3 [label="FLASH_Programming_Mode",height=0.2,width=0.4,color="black", fillcolor="white", style="filled",URL="$group___f_l_a_s_h___programming___mode.html"];
  Node4 [label="FLASH_Programming_Time",height=0.2,width=0.4,color="black", fillcolor="white", style="filled",URL="$group___f_l_a_s_h___programming___time.html"];
  Node8 [label="FLASH_Flags",height=0.2,width=0.4,color="black", fillcolor="white", style="filled",URL="$group___f_l_a_s_h___flags.html"];
  Node6 [label="FLASH_Status",height=0.2,width=0.4,color="black", fillcolor="white", style="filled",URL="$group___f_l_a_s_h___status.html"];
  Node0 [label="FLASH_Exported_Types",height=0.2,width=0.4,color="black", fillcolor="grey75", style="filled", fontcolor="black"];
  Node7 [label="FLASH_Power_Status",height=0.2,width=0.4,color="black", fillcolor="white", style="filled",URL="$group___f_l_a_s_h___power___status.html"];
  Node5 [label="FLASH_Power_Mode",height=0.2,width=0.4,color="black", fillcolor="white", style="filled",URL="$group___f_l_a_s_h___power___mode.html"];
  Node1 [label="FLASH",height=0.2,width=0.4,color="black", fillcolor="white", style="filled",URL="$group___f_l_a_s_h.html",tooltip="FLASH driver modules. "];
  Node1->Node0 [shape=plaintext, dir="back", style="solid"];
  Node0->Node2 [shape=plaintext, dir="back", style="solid"];
  Node0->Node3 [shape=plaintext, dir="back", style="solid"];
  Node0->Node4 [shape=plaintext, dir="back", style="solid"];
  Node0->Node5 [shape=plaintext, dir="back", style="solid"];
  Node0->Node6 [shape=plaintext, dir="back", style="solid"];
  Node0->Node7 [shape=plaintext, dir="back", style="solid"];
  Node0->Node8 [shape=plaintext, dir="back", style="solid"];
}
