digraph "IRTIM_Registers_Bits_Definition"
{
  edge [fontname="Helvetica",fontsize="10",labelfontname="Helvetica",labelfontsize="10"];
  node [fontname="Helvetica",fontsize="10",shape=record];
  rankdir=LR;
  Node1 [label="MAP_FILE_Exported_Types\l_and_Constants",height=0.2,width=0.4,color="black", fillcolor="white", style="filled",URL="$group___m_a_p___f_i_l_e___exported___types__and___constants.html"];
  Node0 [label="IRTIM_Registers_Bits\l_Definition",height=0.2,width=0.4,color="black", fillcolor="grey75", style="filled", fontcolor="black"];
  Node1->Node0 [shape=plaintext, dir="back", style="solid"];
}
