digraph "ADC_Group_Channel_Definition"
{
  edge [fontname="Helvetica",fontsize="10",labelfontname="Helvetica",labelfontsize="10"];
  node [fontname="Helvetica",fontsize="10",shape=record];
  rankdir=LR;
  Node1 [label="ADC_Exported_Types",height=0.2,width=0.4,color="black", fillcolor="white", style="filled",URL="$group___a_d_c___exported___types.html"];
  Node0 [label="ADC_Group_Channel_Definition",height=0.2,width=0.4,color="black", fillcolor="grey75", style="filled", fontcolor="black"];
  Node1->Node0 [shape=plaintext, dir="back", style="solid"];
}
