digraph "Interrupt sensitivity of GPIO ports/pins configuration"
{
  edge [fontname="Helvetica",fontsize="10",labelfontname="Helvetica",labelfontsize="10"];
  node [fontname="Helvetica",fontsize="10",shape=record];
  rankdir=LR;
  Node0 [label="Interrupt sensitivity\l of GPIO ports/pins configuration",height=0.2,width=0.4,color="black", fillcolor="grey75", style="filled", fontcolor="black"];
  Node1 [label="EXTI_Private_Functions",height=0.2,width=0.4,color="black", fillcolor="white", style="filled",URL="$group___e_x_t_i___private___functions.html"];
  Node1->Node0 [shape=plaintext, dir="back", style="solid"];
}
