digraph "DAC_Exported_types"
{
  edge [fontname="Helvetica",fontsize="10",labelfontname="Helvetica",labelfontsize="10"];
  node [fontname="Helvetica",fontsize="10",shape=record];
  rankdir=LR;
  Node8 [label="DAC_flags_definition",height=0.2,width=0.4,color="black", fillcolor="white", style="filled",URL="$group___d_a_c__flags__definition.html"];
  Node6 [label="DAC_output_buffer",height=0.2,width=0.4,color="black", fillcolor="white", style="filled",URL="$group___d_a_c__output__buffer.html"];
  Node10 [label="DAC_triangleamplitude",height=0.2,width=0.4,color="black", fillcolor="white", style="filled",URL="$group___d_a_c__triangleamplitude.html"];
  Node0 [label="DAC_Exported_types",height=0.2,width=0.4,color="black", fillcolor="grey75", style="filled", fontcolor="black"];
  Node4 [label="DAC_Channel_selection",height=0.2,width=0.4,color="black", fillcolor="white", style="filled",URL="$group___d_a_c___channel__selection.html"];
  Node5 [label="DAC_wave_generation",height=0.2,width=0.4,color="black", fillcolor="white", style="filled",URL="$group___d_a_c__wave__generation.html"];
  Node1 [label="DAC",height=0.2,width=0.4,color="black", fillcolor="white", style="filled",URL="$group___d_a_c.html",tooltip="DAC driver modules. "];
  Node3 [label="DAC_data_alignment",height=0.2,width=0.4,color="black", fillcolor="white", style="filled",URL="$group___d_a_c__data__alignment.html"];
  Node7 [label="DAC_interrupts_definition",height=0.2,width=0.4,color="black", fillcolor="white", style="filled",URL="$group___d_a_c__interrupts__definition.html"];
  Node2 [label="DAC_trigger_selection",height=0.2,width=0.4,color="black", fillcolor="white", style="filled",URL="$group___d_a_c__trigger__selection.html"];
  Node9 [label="DAC_lfsrunmask",height=0.2,width=0.4,color="black", fillcolor="white", style="filled",URL="$group___d_a_c__lfsrunmask.html"];
  Node1->Node0 [shape=plaintext, dir="back", style="solid"];
  Node0->Node2 [shape=plaintext, dir="back", style="solid"];
  Node0->Node3 [shape=plaintext, dir="back", style="solid"];
  Node0->Node4 [shape=plaintext, dir="back", style="solid"];
  Node0->Node5 [shape=plaintext, dir="back", style="solid"];
  Node0->Node6 [shape=plaintext, dir="back", style="solid"];
  Node0->Node7 [shape=plaintext, dir="back", style="solid"];
  Node0->Node8 [shape=plaintext, dir="back", style="solid"];
  Node0->Node9 [shape=plaintext, dir="back", style="solid"];
  Node0->Node10 [shape=plaintext, dir="back", style="solid"];
}
