digraph "TIM1_ETRClockMode2Config"
{
  edge [fontname="Helvetica",fontsize="10",labelfontname="Helvetica",labelfontsize="10"];
  node [fontname="Helvetica",fontsize="10",shape=record];
  rankdir="LR";
  Node39 [label="TIM1_ETRClockMode2Config",height=0.2,width=0.4,color="black", fillcolor="grey75", style="filled", fontcolor="black"];
  Node39 -> Node40 [color="midnightblue",fontsize="10",style="solid",fontname="Helvetica"];
  Node40 [label="TIM1_ETRConfig",height=0.2,width=0.4,color="black", fillcolor="white", style="filled",URL="$group___t_i_m1___group6.html#ga0b416dc27ca3ed92cbfc997c4dc55e50",tooltip="Configures the TIM1 External Trigger. "];
}
