digraph "TIM3_ETRClockMode2Config"
{
  edge [fontname="Helvetica",fontsize="10",labelfontname="Helvetica",labelfontsize="10"];
  node [fontname="Helvetica",fontsize="10",shape=record];
  rankdir="LR";
  Node38 [label="TIM3_ETRClockMode2Config",height=0.2,width=0.4,color="black", fillcolor="grey75", style="filled", fontcolor="black"];
  Node38 -> Node39 [color="midnightblue",fontsize="10",style="solid",fontname="Helvetica"];
  Node39 [label="TIM3_ETRConfig",height=0.2,width=0.4,color="black", fillcolor="white", style="filled",URL="$group___t_i_m3___group6.html#ga70d0ed0045fb555c0f460cfbf1ea3463",tooltip="Configures the TIM3 External Trigger. "];
}
