digraph "Interrupts and flags management functions"
{
  edge [fontname="Helvetica",fontsize="10",labelfontname="Helvetica",labelfontsize="10"];
  node [fontname="Helvetica",fontsize="10",shape=record];
  rankdir=LR;
  Node0 [label="Interrupts and flags\l management functions",height=0.2,width=0.4,color="black", fillcolor="grey75", style="filled", fontcolor="black"];
  Node1 [label="COMP_Private_Functions",height=0.2,width=0.4,color="black", fillcolor="white", style="filled",URL="$group___c_o_m_p___private___functions.html"];
  Node1->Node0 [shape=plaintext, dir="back", style="solid"];
}
