digraph "AES_Registers_Bits_Definition"
{
  edge [fontname="Helvetica",fontsize="10",labelfontname="Helvetica",labelfontsize="10"];
  node [fontname="Helvetica",fontsize="10",shape=record];
  rankdir=LR;
  Node0 [label="AES_Registers_Bits\l_Definition",height=0.2,width=0.4,color="black", fillcolor="grey75", style="filled", fontcolor="black"];
  Node1 [label="DMA_Channels_Registers\l_Reset_Value",height=0.2,width=0.4,color="black", fillcolor="white", style="filled",URL="$group___d_m_a___channels___registers___reset___value.html"];
  Node1->Node0 [shape=plaintext, dir="back", style="solid"];
}
