digraph "TIM1_Exported_Macros"
{
  edge [fontname="Helvetica",fontsize="10",labelfontname="Helvetica",labelfontsize="10"];
  node [fontname="Helvetica",fontsize="10",shape=record];
  rankdir=LR;
  Node0 [label="TIM1_Exported_Macros",height=0.2,width=0.4,color="black", fillcolor="grey75", style="filled", fontcolor="black"];
  Node1 [label="TIM1",height=0.2,width=0.4,color="black", fillcolor="white", style="filled",URL="$group___t_i_m1.html",tooltip="TIM1 driver modules. "];
  Node1->Node0 [shape=plaintext, dir="back", style="solid"];
}
