digraph "GPIO_DeInit"
{
  edge [fontname="Helvetica",fontsize="10",labelfontname="Helvetica",labelfontsize="10"];
  node [fontname="Helvetica",fontsize="10",shape=record];
  rankdir="LR";
  Node1 [label="GPIO_DeInit",height=0.2,width=0.4,color="black", fillcolor="grey75", style="filled", fontcolor="black"];
  Node1 -> Node2 [dir="back",color="midnightblue",fontsize="10",style="solid",fontname="Helvetica"];
  Node2 [label="GPIOConf",height=0.2,width=0.4,color="black", fillcolor="white", style="filled",URL="$main_8c.html#ae93dd88059f261c15c4422e804d2335f",tooltip="Initialises the GPIO peripherals for the project. "];
  Node2 -> Node3 [dir="back",color="midnightblue",fontsize="10",style="solid",fontname="Helvetica"];
  Node3 [label="SetUpPeripherals",height=0.2,width=0.4,color="black", fillcolor="white", style="filled",URL="$main_8c.html#a4296683b82a63e25c468950d76f30019",tooltip="Sets up the associated peripherals for the project. "];
  Node3 -> Node4 [dir="back",color="midnightblue",fontsize="10",style="solid",fontname="Helvetica"];
  Node4 [label="main",height=0.2,width=0.4,color="black", fillcolor="white", style="filled",URL="$main_8c.html#acdef7a1fd863a6d3770c1268cb06add3",tooltip="Program execution starts here. "];
  Node2 -> Node4 [dir="back",color="midnightblue",fontsize="10",style="solid",fontname="Helvetica"];
}
