digraph "ITC_Exported_Constants"
{
  edge [fontname="Helvetica",fontsize="10",labelfontname="Helvetica",labelfontsize="10"];
  node [fontname="Helvetica",fontsize="10",shape=record];
  rankdir=LR;
  Node0 [label="ITC_Exported_Constants",height=0.2,width=0.4,color="black", fillcolor="grey75", style="filled", fontcolor="black"];
  Node1 [label="ITC",height=0.2,width=0.4,color="black", fillcolor="white", style="filled",URL="$group___i_t_c.html",tooltip="ITC driver modules. "];
  Node1->Node0 [shape=plaintext, dir="back", style="solid"];
}
