digraph "RTC"
{
  edge [fontname="Helvetica",fontsize="10",labelfontname="Helvetica",labelfontsize="10"];
  node [fontname="Helvetica",fontsize="10",shape=record];
  rankdir=LR;
  Node1 [label="STM8L15x_StdPeriph\l_Driver",height=0.2,width=0.4,color="black", fillcolor="white", style="filled",URL="$group___s_t_m8_l15x___std_periph___driver.html"];
  Node0 [label="RTC",height=0.2,width=0.4,color="black", fillcolor="grey75", style="filled", fontcolor="black"];
  Node2 [label="RTC_Exported_Types",height=0.2,width=0.4,color="black", fillcolor="white", style="filled",URL="$group___r_t_c___exported___types.html"];
  Node5 [label="RTC_Private_Functions",height=0.2,width=0.4,color="black", fillcolor="white", style="filled",URL="$group___r_t_c___private___functions.html"];
  Node4 [label="RTC_Private_Functions\l_Prototype",height=0.2,width=0.4,color="black", fillcolor="white", style="filled",URL="$group___r_t_c___private___functions___prototype.html"];
  Node3 [label="RTC_Exported_Macros",height=0.2,width=0.4,color="black", fillcolor="white", style="filled",URL="$group___r_t_c___exported___macros.html"];
  Node1->Node0 [shape=plaintext, dir="back", style="solid"];
  Node0->Node2 [shape=plaintext, dir="back", style="solid"];
  Node0->Node3 [shape=plaintext, dir="back", style="solid"];
  Node0->Node4 [shape=plaintext, dir="back", style="solid"];
  Node0->Node5 [shape=plaintext, dir="back", style="solid"];
}
