digraph "TIM2_Private_Functions"
{
  edge [fontname="Helvetica",fontsize="10",labelfontname="Helvetica",labelfontsize="10"];
  node [fontname="Helvetica",fontsize="10",shape=record];
  rankdir=LR;
  Node1 [label="TIM2",height=0.2,width=0.4,color="black", fillcolor="white", style="filled",URL="$group___t_i_m2.html",tooltip="TIM2 driver modules. "];
  Node2 [label="TimeBase management\l functions",height=0.2,width=0.4,color="black", fillcolor="white", style="filled",URL="$group___t_i_m2___group1.html",tooltip="TimeBase management functions. "];
  Node3 [label="Output Compare management\l functions",height=0.2,width=0.4,color="black", fillcolor="white", style="filled",URL="$group___t_i_m2___group2.html",tooltip="Output Compare management functions. "];
  Node0 [label="TIM2_Private_Functions",height=0.2,width=0.4,color="black", fillcolor="grey75", style="filled", fontcolor="black"];
  Node1->Node0 [shape=plaintext, dir="back", style="solid"];
  Node0->Node2 [shape=plaintext, dir="back", style="solid"];
  Node0->Node3 [shape=plaintext, dir="back", style="solid"];
}
