digraph "Output Compare management functions"
{
  edge [fontname="Helvetica",fontsize="10",labelfontname="Helvetica",labelfontsize="10"];
  node [fontname="Helvetica",fontsize="10",shape=record];
  rankdir=LR;
  Node0 [label="Output Compare management\l functions",height=0.2,width=0.4,color="black", fillcolor="grey75", style="filled", fontcolor="black"];
  Node2 [label="Input Capture management\l functions",height=0.2,width=0.4,color="black", fillcolor="white", style="filled",URL="$group___t_i_m2___group3.html",tooltip="Input Capture management functions. "];
  Node3 [label="Interrupts DMA and\l flags management functions",height=0.2,width=0.4,color="black", fillcolor="white", style="filled",URL="$group___t_i_m2___group4.html",tooltip="Interrupts, DMA and flags management functions. "];
  Node4 [label="Clocks management functions",height=0.2,width=0.4,color="black", fillcolor="white", style="filled",URL="$group___t_i_m2___group5.html",tooltip="Clocks management functions. "];
  Node5 [label="Synchronization management\l functions",height=0.2,width=0.4,color="black", fillcolor="white", style="filled",URL="$group___t_i_m2___group6.html",tooltip="Synchronization management functions. "];
  Node6 [label="Specific interface\l management functions",height=0.2,width=0.4,color="black", fillcolor="white", style="filled",URL="$group___t_i_m2___group7.html",tooltip="Specific interface management functions. "];
  Node1 [label="TIM2_Private_Functions",height=0.2,width=0.4,color="black", fillcolor="white", style="filled",URL="$group___t_i_m2___private___functions.html"];
  Node1->Node0 [shape=plaintext, dir="back", style="solid"];
  Node0->Node2 [shape=plaintext, dir="back", style="solid"];
  Node0->Node3 [shape=plaintext, dir="back", style="solid"];
  Node0->Node4 [shape=plaintext, dir="back", style="solid"];
  Node0->Node5 [shape=plaintext, dir="back", style="solid"];
  Node0->Node6 [shape=plaintext, dir="back", style="solid"];
}
