digraph "CLK_Private_Functions"
{
  edge [fontname="Helvetica",fontsize="10",labelfontname="Helvetica",labelfontsize="10"];
  node [fontname="Helvetica",fontsize="10",shape=record];
  rankdir=LR;
  Node1 [label="CLK",height=0.2,width=0.4,color="black", fillcolor="white", style="filled",URL="$group___c_l_k.html",tooltip="CLK driver modules. "];
  Node2 [label="Internal and external\l clocks, CSS and CCO\l configuration functions",height=0.2,width=0.4,color="black", fillcolor="white", style="filled",URL="$group___c_l_k___group1.html",tooltip="Internal and external clocks, CSS and CCO configuration functions. "];
  Node3 [label="System clock configuration\l functions",height=0.2,width=0.4,color="black", fillcolor="white", style="filled",URL="$group___c_l_k___group2.html",tooltip="System clock configuration functions. "];
  Node4 [label="Peripheral clocks configuration\l functions",height=0.2,width=0.4,color="black", fillcolor="white", style="filled",URL="$group___c_l_k___group3.html",tooltip="Peripheral clocks configuration functions. "];
  Node5 [label="CSS on LSE configuration\l functions",height=0.2,width=0.4,color="black", fillcolor="white", style="filled",URL="$group___c_l_k___group4.html",tooltip="CSS on LSE configuration functions. "];
  Node6 [label="Low power clock configuration\l functions",height=0.2,width=0.4,color="black", fillcolor="white", style="filled",URL="$group___c_l_k___group5.html",tooltip="Low power clock configuration functions. "];
  Node7 [label="Interrupts and flags\l management functions",height=0.2,width=0.4,color="black", fillcolor="white", style="filled",URL="$group___c_l_k___group6.html",tooltip="Interrupts and flags management functions. "];
  Node0 [label="CLK_Private_Functions",height=0.2,width=0.4,color="black", fillcolor="grey75", style="filled", fontcolor="black"];
  Node1->Node0 [shape=plaintext, dir="back", style="solid"];
  Node0->Node2 [shape=plaintext, dir="back", style="solid"];
  Node0->Node3 [shape=plaintext, dir="back", style="solid"];
  Node0->Node4 [shape=plaintext, dir="back", style="solid"];
  Node0->Node5 [shape=plaintext, dir="back", style="solid"];
  Node0->Node6 [shape=plaintext, dir="back", style="solid"];
  Node0->Node7 [shape=plaintext, dir="back", style="solid"];
}
