digraph "SPI_SendData"
{
  edge [fontname="Helvetica",fontsize="10",labelfontname="Helvetica",labelfontsize="10"];
  node [fontname="Helvetica",fontsize="10",shape=record];
  rankdir="LR";
  Node55 [label="SPI_SendData",height=0.2,width=0.4,color="black", fillcolor="grey75", style="filled", fontcolor="black"];
  Node55 -> Node56 [dir="back",color="midnightblue",fontsize="10",style="solid",fontname="Helvetica"];
  Node56 [label="RFM69_Read",height=0.2,width=0.4,color="black", fillcolor="white", style="filled",URL="$rfm69fsk_8c.html#abfe80bd0a3c4a4c0acf43c266f9cce55",tooltip="Reads an 8-bit value from RFM69HW via SPI peripheral. "];
  Node56 -> Node57 [dir="back",color="midnightblue",fontsize="10",style="solid",fontname="Helvetica"];
  Node57 [label="RFM69_CheckDevice",height=0.2,width=0.4,color="black", fillcolor="white", style="filled",URL="$rfm69fsk_8c.html#acf789acc52491d6d07de8cbb321c9300",tooltip="Checks if communication between STM8L and RFM69HW via SPI is working properly. "];
  Node56 -> Node58 [dir="back",color="midnightblue",fontsize="10",style="solid",fontname="Helvetica"];
  Node58 [label="RFM69_Tx_Mode",height=0.2,width=0.4,color="black", fillcolor="white", style="filled",URL="$rfm69fskutils_8c.html#ac54cd72e73274e014d13bf8569993176",tooltip="Set RFM69HW to Transmit mode. "];
  Node56 -> Node59 [dir="back",color="midnightblue",fontsize="10",style="solid",fontname="Helvetica"];
  Node59 [label="RFM69_Rx_Mode",height=0.2,width=0.4,color="black", fillcolor="white", style="filled",URL="$rfm69fskutils_8c.html#a977eab47b7f55aa1b726006070594577",tooltip="Set RFM69HW to Transmit mode. "];
  Node56 -> Node60 [dir="back",color="midnightblue",fontsize="10",style="solid",fontname="Helvetica"];
  Node60 [label="RFM69_ChangeMode",height=0.2,width=0.4,color="black", fillcolor="white", style="filled",URL="$rfm69fskutils_8c.html#ae34b67fd81345f1dc8cf3a0e796d2bf1",tooltip="Changes RFM69HW mode with the required delays. "];
  Node60 -> Node61 [dir="back",color="midnightblue",fontsize="10",style="solid",fontname="Helvetica"];
  Node61 [label="RFM69_TransmitPacket",height=0.2,width=0.4,color="black", fillcolor="white", style="filled",URL="$rfm69fskutils_8c.html#a633d58e2fba940fdd7fa6b6876f25637",tooltip="Transmits a packet of data RFM69HW to Standby mode. "];
  Node56 -> Node62 [dir="back",color="midnightblue",fontsize="10",style="solid",fontname="Helvetica"];
  Node62 [label="RFM69_ReceivePacket",height=0.2,width=0.4,color="black", fillcolor="white", style="filled",URL="$rfm69fskutils_8c.html#ac06acf95c396602d268e8a71ebb4ed6c",tooltip="Receives a data packet. "];
}
