digraph "RTC_Shift_Add_1s"
{
  edge [fontname="Helvetica",fontsize="10",labelfontname="Helvetica",labelfontsize="10"];
  node [fontname="Helvetica",fontsize="10",shape=record];
  rankdir=LR;
  Node0 [label="RTC_Shift_Add_1s",height=0.2,width=0.4,color="black", fillcolor="grey75", style="filled", fontcolor="black"];
  Node1 [label="RTC_Exported_Types",height=0.2,width=0.4,color="black", fillcolor="white", style="filled",URL="$group___r_t_c___exported___types.html"];
  Node1->Node0 [shape=plaintext, dir="back", style="solid"];
}
