digraph "BEEP_Private_Functions"
{
  edge [fontname="Helvetica",fontsize="10",labelfontname="Helvetica",labelfontsize="10"];
  node [fontname="Helvetica",fontsize="10",shape=record];
  rankdir=LR;
  Node0 [label="BEEP_Private_Functions",height=0.2,width=0.4,color="black", fillcolor="grey75", style="filled", fontcolor="black"];
  Node1 [label="BEEP",height=0.2,width=0.4,color="black", fillcolor="white", style="filled",URL="$group___b_e_e_p.html",tooltip="BEEP driver modules. "];
  Node2 [label="Initialization and\l Configuration functions",height=0.2,width=0.4,color="black", fillcolor="white", style="filled",URL="$group___b_e_e_p___group1.html",tooltip="Initialization and Configuration functions. "];
  Node3 [label="Low Speed Internal\l Clock(LSI) Calibration\l functions",height=0.2,width=0.4,color="black", fillcolor="white", style="filled",URL="$group___b_e_e_p___group2.html",tooltip="Low Speed Internal Clock(LSI) Calibration functions. "];
  Node1->Node0 [shape=plaintext, dir="back", style="solid"];
  Node0->Node2 [shape=plaintext, dir="back", style="solid"];
  Node0->Node3 [shape=plaintext, dir="back", style="solid"];
}
