digraph "RTC_Exported_Macros"
{
  edge [fontname="Helvetica",fontsize="10",labelfontname="Helvetica",labelfontsize="10"];
  node [fontname="Helvetica",fontsize="10",shape=record];
  rankdir=LR;
  Node1 [label="RTC",height=0.2,width=0.4,color="black", fillcolor="white", style="filled",URL="$group___r_t_c.html",tooltip="RTC driver modules. "];
  Node0 [label="RTC_Exported_Macros",height=0.2,width=0.4,color="black", fillcolor="grey75", style="filled", fontcolor="black"];
  Node1->Node0 [shape=plaintext, dir="back", style="solid"];
}
