digraph "FLASH_Private_Define"
{
  edge [fontname="Helvetica",fontsize="10",labelfontname="Helvetica",labelfontsize="10"];
  node [fontname="Helvetica",fontsize="10",shape=record];
  rankdir=LR;
  Node0 [label="FLASH_Private_Define",height=0.2,width=0.4,color="black", fillcolor="grey75", style="filled", fontcolor="black"];
  Node1 [label="FLASH",height=0.2,width=0.4,color="black", fillcolor="white", style="filled",URL="$group___f_l_a_s_h.html",tooltip="FLASH driver modules. "];
  Node1->Node0 [shape=plaintext, dir="back", style="solid"];
}
