digraph "CLK_DeInit"
{
  edge [fontname="Helvetica",fontsize="10",labelfontname="Helvetica",labelfontsize="10"];
  node [fontname="Helvetica",fontsize="10",shape=record];
  rankdir="LR";
  Node9 [label="CLK_DeInit",height=0.2,width=0.4,color="black", fillcolor="grey75", style="filled", fontcolor="black"];
  Node9 -> Node10 [dir="back",color="midnightblue",fontsize="10",style="solid",fontname="Helvetica"];
  Node10 [label="ClockConf",height=0.2,width=0.4,color="black", fillcolor="white", style="filled",URL="$stm8l15x__clockutils_8c.html#a2ab453aeadf33fe2d2fb0b8eafa7e265",tooltip="Initialises the STM8L clock. "];
  Node10 -> Node11 [dir="back",color="midnightblue",fontsize="10",style="solid",fontname="Helvetica"];
  Node11 [label="SetUpPeripherals",height=0.2,width=0.4,color="black", fillcolor="white", style="filled",URL="$main_8c.html#a4296683b82a63e25c468950d76f30019",tooltip="Sets up the associated peripherals for the project. "];
  Node11 -> Node12 [dir="back",color="midnightblue",fontsize="10",style="solid",fontname="Helvetica"];
  Node12 [label="main",height=0.2,width=0.4,color="black", fillcolor="white", style="filled",URL="$main_8c.html#acdef7a1fd863a6d3770c1268cb06add3",tooltip="Program execution starts here. "];
  Node10 -> Node12 [dir="back",color="midnightblue",fontsize="10",style="solid",fontname="Helvetica"];
}
