digraph "TIM5_ETRConfig"
{
  edge [fontname="Helvetica",fontsize="10",labelfontname="Helvetica",labelfontsize="10"];
  node [fontname="Helvetica",fontsize="10",shape=record];
  rankdir="LR";
  Node29 [label="TIM5_ETRConfig",height=0.2,width=0.4,color="black", fillcolor="grey75", style="filled", fontcolor="black"];
  Node29 -> Node30 [dir="back",color="midnightblue",fontsize="10",style="solid",fontname="Helvetica"];
  Node30 [label="TIM5_ETRClockMode1Config",height=0.2,width=0.4,color="black", fillcolor="white", style="filled",URL="$group___t_i_m5___group5.html#ga6688e6d33bd0b5bcf85e86f963163ab5",tooltip="Configures the TIM5 External clock Mode1. "];
  Node29 -> Node31 [dir="back",color="midnightblue",fontsize="10",style="solid",fontname="Helvetica"];
  Node31 [label="TIM5_ETRClockMode2Config",height=0.2,width=0.4,color="black", fillcolor="white", style="filled",URL="$group___t_i_m5___group5.html#ga33f527e86554fa2bb8e4bf5278e8c8f5",tooltip="Configures the TIM5 External clock Mode2. "];
}
