digraph "GPIOConf"
{
  edge [fontname="Helvetica",fontsize="10",labelfontname="Helvetica",labelfontsize="10"];
  node [fontname="Helvetica",fontsize="10",shape=record];
  rankdir="LR";
  Node19 [label="GPIOConf",height=0.2,width=0.4,color="black", fillcolor="grey75", style="filled", fontcolor="black"];
  Node19 -> Node20 [dir="back",color="midnightblue",fontsize="10",style="solid",fontname="Helvetica"];
  Node20 [label="SetUpPeripherals",height=0.2,width=0.4,color="black", fillcolor="white", style="filled",URL="$main_8c.html#a4296683b82a63e25c468950d76f30019",tooltip="Sets up the associated peripherals for the project. "];
  Node20 -> Node21 [dir="back",color="midnightblue",fontsize="10",style="solid",fontname="Helvetica"];
  Node21 [label="main",height=0.2,width=0.4,color="black", fillcolor="white", style="filled",URL="$main_8c.html#acdef7a1fd863a6d3770c1268cb06add3",tooltip="Program execution starts here. "];
  Node19 -> Node21 [dir="back",color="midnightblue",fontsize="10",style="solid",fontname="Helvetica"];
}
