digraph "HTU20DPowerUp"
{
  edge [fontname="Helvetica",fontsize="10",labelfontname="Helvetica",labelfontsize="10"];
  node [fontname="Helvetica",fontsize="10",shape=record];
  rankdir="LR";
  Node17 [label="HTU20DPowerUp",height=0.2,width=0.4,color="black", fillcolor="grey75", style="filled", fontcolor="black"];
  Node17 -> Node18 [dir="back",color="midnightblue",fontsize="10",style="solid",fontname="Helvetica"];
  Node18 [label="SetUpPeripherals",height=0.2,width=0.4,color="black", fillcolor="white", style="filled",URL="$main_8c.html#a4296683b82a63e25c468950d76f30019",tooltip="Sets up the associated peripherals for the project. "];
  Node18 -> Node19 [dir="back",color="midnightblue",fontsize="10",style="solid",fontname="Helvetica"];
  Node19 [label="main",height=0.2,width=0.4,color="black", fillcolor="white", style="filled",URL="$main_8c.html#acdef7a1fd863a6d3770c1268cb06add3",tooltip="Program execution starts here. "];
}
