digraph "main"
{
  edge [fontname="Helvetica",fontsize="10",labelfontname="Helvetica",labelfontsize="10"];
  node [fontname="Helvetica",fontsize="10",shape=record];
  rankdir="LR";
  Node18 [label="main",height=0.2,width=0.4,color="black", fillcolor="grey75", style="filled", fontcolor="black"];
  Node18 -> Node19 [color="midnightblue",fontsize="10",style="solid",fontname="Helvetica"];
  Node19 [label="ClockConf",height=0.2,width=0.4,color="black", fillcolor="white", style="filled",URL="$header_8h.html#a2ab453aeadf33fe2d2fb0b8eafa7e265",tooltip="Initialises the STM8L clock. "];
  Node18 -> Node20 [color="midnightblue",fontsize="10",style="solid",fontname="Helvetica"];
  Node20 [label="GPIOConf",height=0.2,width=0.4,color="black", fillcolor="white", style="filled",URL="$main_8c.html#ae93dd88059f261c15c4422e804d2335f",tooltip="Initialises the GPIO peripherals for the project. "];
  Node20 -> Node21 [color="midnightblue",fontsize="10",style="solid",fontname="Helvetica"];
  Node21 [label="GPIO_DeInit",height=0.2,width=0.4,color="black", fillcolor="white", style="filled",URL="$group___i2_c.html#gaa60bdf3182c44b5fa818f237042f52ee",tooltip="Deinitializes the GPIOx peripheral registers to their default reset values. "];
  Node20 -> Node22 [color="midnightblue",fontsize="10",style="solid",fontname="Helvetica"];
  Node22 [label="EXTI_DeInit",height=0.2,width=0.4,color="black", fillcolor="white", style="filled",URL="$group___e_x_t_i.html#ga07072e339cb9ecb9cd9d4b94afc9f317",tooltip="Deinitializes the EXTI registers to their default reset value. "];
  Node20 -> Node23 [color="midnightblue",fontsize="10",style="solid",fontname="Helvetica"];
  Node23 [label="GPIOSPIConf",height=0.2,width=0.4,color="black", fillcolor="white", style="filled",URL="$stm8l15x__spiutils_8h.html#a080e49d2df684a04668f713f8fe83a2f",tooltip="Initialises the GPIO pins connected to SPI peripheral. "];
  Node23 -> Node24 [color="midnightblue",fontsize="10",style="solid",fontname="Helvetica"];
  Node24 [label="GPIO_Init",height=0.2,width=0.4,color="black", fillcolor="white", style="filled",URL="$group___i2_c.html#gabbe6b3e8dde475c60a5dbaa51712e6a2",tooltip="Initializes the GPIOx according to the specified parameters. "];
  Node20 -> Node25 [color="midnightblue",fontsize="10",style="solid",fontname="Helvetica"];
  Node25 [label="GPIORFM69",height=0.2,width=0.4,color="black", fillcolor="white", style="filled",URL="$rfm69fskutils_8h.html#a10eccc443695c80b3cdf27a8522599bf",tooltip="Initialises GPIO pins connected to RFM69HW. "];
  Node25 -> Node24 [color="midnightblue",fontsize="10",style="solid",fontname="Helvetica"];
  Node20 -> Node26 [color="midnightblue",fontsize="10",style="solid",fontname="Helvetica"];
  Node26 [label="GPIOHTU20D",height=0.2,width=0.4,color="black", fillcolor="white", style="filled",URL="$htu20dutils_8h.html#a2ada47875f5bc0abfa580200fe39c801",tooltip="Initialises GPIO pins connected to HTU20D. "];
  Node26 -> Node24 [color="midnightblue",fontsize="10",style="solid",fontname="Helvetica"];
  Node20 -> Node27 [color="midnightblue",fontsize="10",style="solid",fontname="Helvetica"];
  Node27 [label="GPIOExtiConf",height=0.2,width=0.4,color="black", fillcolor="white", style="filled",URL="$stm8l15x__extiutils_8h.html#a84cd64e7e7ac43e3c14c2d3f5fcd2fab",tooltip="Sets up GPIO pins connected to external interrupts. "];
  Node27 -> Node24 [color="midnightblue",fontsize="10",style="solid",fontname="Helvetica"];
  Node27 -> Node28 [color="midnightblue",fontsize="10",style="solid",fontname="Helvetica"];
  Node28 [label="EXTI_SetPinSensitivity",height=0.2,width=0.4,color="black", fillcolor="white", style="filled",URL="$group___e_x_t_i.html#ga8f029d674a76fd8edb12ae19a9e206db",tooltip="Sets the external interrupt sensitivity of the selected pin. "];
  Node27 -> Node29 [color="midnightblue",fontsize="10",style="solid",fontname="Helvetica"];
  Node29 [label="EXTI_GetPinSensitivity",height=0.2,width=0.4,color="black", fillcolor="white", style="filled",URL="$group___e_x_t_i.html#gac9b6909533b203fedbd784d4ce9040fa",tooltip="Gets the external interrupt sensitivity of the selected pin. "];
  Node20 -> Node30 [color="midnightblue",fontsize="10",style="solid",fontname="Helvetica"];
  Node30 [label="GPIOUSARTConf",height=0.2,width=0.4,color="black", fillcolor="white", style="filled",URL="$stm8l15x__usartutils_8h.html#a4be9ab70032cc86a75a9abe6ae9a25cb",tooltip="Initialises the GPIO pins connected to USART peripheral. "];
  Node30 -> Node24 [color="midnightblue",fontsize="10",style="solid",fontname="Helvetica"];
  Node20 -> Node31 [color="midnightblue",fontsize="10",style="solid",fontname="Helvetica"];
  Node31 [label="GPIOLEDInit",height=0.2,width=0.4,color="black", fillcolor="white", style="filled",URL="$header_8h.html#a258e5187088222f47bb9e7ac11cafd41",tooltip="Initialises GPIO pins connected to Green and Yellow LED. "];
  Node18 -> Node32 [color="midnightblue",fontsize="10",style="solid",fontname="Helvetica"];
  Node32 [label="SetUpPeripherals",height=0.2,width=0.4,color="black", fillcolor="white", style="filled",URL="$main_8c.html#a4296683b82a63e25c468950d76f30019",tooltip="Sets up the associated peripherals for the project. "];
  Node32 -> Node19 [color="midnightblue",fontsize="10",style="solid",fontname="Helvetica"];
  Node32 -> Node20 [color="midnightblue",fontsize="10",style="solid",fontname="Helvetica"];
  Node32 -> Node33 [color="midnightblue",fontsize="10",style="solid",fontname="Helvetica"];
  Node33 [label="SetUpTimer3",height=0.2,width=0.4,color="black", fillcolor="white", style="filled",URL="$stm8l15x__timer3utils_8h.html#a2fc3ca7dac44e32e4129879460d78bcd",tooltip="Sets up Timer 3 peripheral with the required settings. "];
  Node33 -> Node34 [color="midnightblue",fontsize="10",style="solid",fontname="Helvetica"];
  Node34 [label="Timer3ClockConfig",height=0.2,width=0.4,color="black", fillcolor="white", style="filled",URL="$stm8l15x__timer3utils_8c.html#a4c2a017a4eb9521e13b7b96324eeb3d4",tooltip="Gates Timer 3 peripheral clock. "];
  Node34 -> Node35 [color="midnightblue",fontsize="10",style="solid",fontname="Helvetica"];
  Node35 [label="CLK_PeripheralClockConfig",height=0.2,width=0.4,color="black", fillcolor="white", style="filled",URL="$group___c_l_k.html#gabbb45bdfac7093a30d73b714322322b2",tooltip="Enables or disables the specified peripheral clock. "];
  Node33 -> Node36 [color="midnightblue",fontsize="10",style="solid",fontname="Helvetica"];
  Node36 [label="Timer3Init",height=0.2,width=0.4,color="black", fillcolor="white", style="filled",URL="$stm8l15x__timer3utils_8c.html#a485dce2b811bb4e120daef32b6a6c024",tooltip="Configures Timer 3 peripheral. "];
  Node36 -> Node37 [color="midnightblue",fontsize="10",style="solid",fontname="Helvetica"];
  Node37 [label="TIM3_TimeBaseInit",height=0.2,width=0.4,color="black", fillcolor="white", style="filled",URL="$group___t_i_m3.html#gac974e817a95e9dbcad021e92a0ff6a88",tooltip="Initializes the TIM3 Time Base Unit according to the specified parameters. "];
  Node36 -> Node38 [color="midnightblue",fontsize="10",style="solid",fontname="Helvetica"];
  Node38 [label="TIM3_PrescalerConfig",height=0.2,width=0.4,color="black", fillcolor="white", style="filled",URL="$group___t_i_m3.html#gaead9a5eae10e682b062a1597a56a696d",tooltip="Configures the TIM3 Prescaler. "];
  Node36 -> Node39 [color="midnightblue",fontsize="10",style="solid",fontname="Helvetica"];
  Node39 [label="TIM3_ARRPreloadConfig",height=0.2,width=0.4,color="black", fillcolor="white", style="filled",URL="$group___t_i_m3.html#ga82d7a8293971f61e397c94adf19b9545",tooltip="Enables or disables TIM3 peripheral Preload register on ARR. "];
  Node32 -> Node40 [color="midnightblue",fontsize="10",style="solid",fontname="Helvetica"];
  Node40 [label="HTU20DPowerUp",height=0.2,width=0.4,color="black", fillcolor="white", style="filled",URL="$htu20dutils_8h.html#aeef55e6e08ed8d506d9464c9b6d598d6",tooltip="Powers Up HTU20D. "];
  Node32 -> Node41 [color="midnightblue",fontsize="10",style="solid",fontname="Helvetica"];
  Node41 [label="PWR_FastWakeUpCmd",height=0.2,width=0.4,color="black", fillcolor="white", style="filled",URL="$group___p_w_r.html#ga548792d51d227ff55f475bcb9d67573f",tooltip="Enables or disables the Fast WakeUp from Ultra Low Power mode. "];
  Node18 -> Node42 [color="midnightblue",fontsize="10",style="solid",fontname="Helvetica"];
  Node42 [label="USART_String",height=0.2,width=0.4,color="black", fillcolor="white", style="filled",URL="$stm8l15x__usartutils_8h.html#afca3b613d9619f648a25ed10aa0394d2",tooltip="Sends the character array refered to by &#39;line&#39; to the USART pin. "];
  Node42 -> Node43 [color="midnightblue",fontsize="10",style="solid",fontname="Helvetica"];
  Node43 [label="USART_GetFlagStatus",height=0.2,width=0.4,color="black", fillcolor="white", style="filled",URL="$group___u_s_a_r_t.html#gaf4f4002a7ac5a8dd577e750d6700e013",tooltip="Checks whether the specified USART flag is set or not. "];
  Node18 -> Node44 [color="midnightblue",fontsize="10",style="solid",fontname="Helvetica"];
  Node44 [label="ChangePowerMode",height=0.2,width=0.4,color="black", fillcolor="white", style="filled",URL="$stm8l15x__clockutils_8h.html#a71dc9c8c25508ab34891a231902cc09c",tooltip="Changes the mode of operation of STM8L micro controller. "];
  Node18 -> Node45 [color="midnightblue",fontsize="10",style="solid",fontname="Helvetica"];
  Node45 [label="SendData",height=0.2,width=0.4,color="black", fillcolor="white", style="filled",URL="$rfm69fskutils_8h.html#a3d7322e78f097d02d476f17a6306997c",tooltip="Acquires data and sends it via RFM69HW. If in debug mode, it will wait for an acknowledgement and ver..."];
  Node18 -> Node46 [color="midnightblue",fontsize="10",style="solid",fontname="Helvetica"];
  Node46 [label="ReceiveData",height=0.2,width=0.4,color="black", fillcolor="white", style="filled",URL="$rfm69fskutils_8h.html#a28e4f0c7d3fd8947c3b162266d9dc8fc",tooltip="Receives data from RFM69HW, processes it, checks for request for acknowledgement and responds to an a..."];
  Node46 -> Node47 [color="midnightblue",fontsize="10",style="solid",fontname="Helvetica"];
  Node47 [label="GPIO_ReadInputDataBit",height=0.2,width=0.4,color="black", fillcolor="white", style="filled",URL="$group___i2_c.html#ga311bfdc6d733a0eae0055562d5aa563d",tooltip="Reads the specified GPIO input data pin. "];
}
