digraph "SetUpPeripherals"
{
  edge [fontname="Helvetica",fontsize="10",labelfontname="Helvetica",labelfontsize="10"];
  node [fontname="Helvetica",fontsize="10",shape=record];
  rankdir="LR";
  Node49 [label="SetUpPeripherals",height=0.2,width=0.4,color="black", fillcolor="grey75", style="filled", fontcolor="black"];
  Node49 -> Node50 [color="midnightblue",fontsize="10",style="solid",fontname="Helvetica"];
  Node50 [label="ClockConf",height=0.2,width=0.4,color="black", fillcolor="white", style="filled",URL="$header_8h.html#a2ab453aeadf33fe2d2fb0b8eafa7e265",tooltip="Initialises the STM8L clock. "];
  Node49 -> Node51 [color="midnightblue",fontsize="10",style="solid",fontname="Helvetica"];
  Node51 [label="GPIOConf",height=0.2,width=0.4,color="black", fillcolor="white", style="filled",URL="$main_8c.html#ae93dd88059f261c15c4422e804d2335f",tooltip="Initialises the GPIO peripherals for the project. "];
  Node51 -> Node52 [color="midnightblue",fontsize="10",style="solid",fontname="Helvetica"];
  Node52 [label="GPIO_DeInit",height=0.2,width=0.4,color="black", fillcolor="white", style="filled",URL="$group___i2_c.html#gaa60bdf3182c44b5fa818f237042f52ee",tooltip="Deinitializes the GPIOx peripheral registers to their default reset values. "];
  Node51 -> Node53 [color="midnightblue",fontsize="10",style="solid",fontname="Helvetica"];
  Node53 [label="EXTI_DeInit",height=0.2,width=0.4,color="black", fillcolor="white", style="filled",URL="$group___e_x_t_i.html#ga07072e339cb9ecb9cd9d4b94afc9f317",tooltip="Deinitializes the EXTI registers to their default reset value. "];
  Node51 -> Node54 [color="midnightblue",fontsize="10",style="solid",fontname="Helvetica"];
  Node54 [label="GPIOSPIConf",height=0.2,width=0.4,color="black", fillcolor="white", style="filled",URL="$stm8l15x__spiutils_8h.html#a080e49d2df684a04668f713f8fe83a2f",tooltip="Initialises the GPIO pins connected to SPI peripheral. "];
  Node54 -> Node55 [color="midnightblue",fontsize="10",style="solid",fontname="Helvetica"];
  Node55 [label="GPIO_Init",height=0.2,width=0.4,color="black", fillcolor="white", style="filled",URL="$group___i2_c.html#gabbe6b3e8dde475c60a5dbaa51712e6a2",tooltip="Initializes the GPIOx according to the specified parameters. "];
  Node51 -> Node56 [color="midnightblue",fontsize="10",style="solid",fontname="Helvetica"];
  Node56 [label="GPIORFM69",height=0.2,width=0.4,color="black", fillcolor="white", style="filled",URL="$rfm69fskutils_8h.html#a10eccc443695c80b3cdf27a8522599bf",tooltip="Initialises GPIO pins connected to RFM69HW. "];
  Node56 -> Node55 [color="midnightblue",fontsize="10",style="solid",fontname="Helvetica"];
  Node51 -> Node57 [color="midnightblue",fontsize="10",style="solid",fontname="Helvetica"];
  Node57 [label="GPIOHTU20D",height=0.2,width=0.4,color="black", fillcolor="white", style="filled",URL="$htu20dutils_8h.html#a2ada47875f5bc0abfa580200fe39c801",tooltip="Initialises GPIO pins connected to HTU20D. "];
  Node57 -> Node55 [color="midnightblue",fontsize="10",style="solid",fontname="Helvetica"];
  Node51 -> Node58 [color="midnightblue",fontsize="10",style="solid",fontname="Helvetica"];
  Node58 [label="GPIOExtiConf",height=0.2,width=0.4,color="black", fillcolor="white", style="filled",URL="$stm8l15x__extiutils_8h.html#a84cd64e7e7ac43e3c14c2d3f5fcd2fab",tooltip="Sets up GPIO pins connected to external interrupts. "];
  Node58 -> Node55 [color="midnightblue",fontsize="10",style="solid",fontname="Helvetica"];
  Node58 -> Node59 [color="midnightblue",fontsize="10",style="solid",fontname="Helvetica"];
  Node59 [label="EXTI_SetPinSensitivity",height=0.2,width=0.4,color="black", fillcolor="white", style="filled",URL="$group___e_x_t_i.html#ga8f029d674a76fd8edb12ae19a9e206db",tooltip="Sets the external interrupt sensitivity of the selected pin. "];
  Node58 -> Node60 [color="midnightblue",fontsize="10",style="solid",fontname="Helvetica"];
  Node60 [label="EXTI_GetPinSensitivity",height=0.2,width=0.4,color="black", fillcolor="white", style="filled",URL="$group___e_x_t_i.html#gac9b6909533b203fedbd784d4ce9040fa",tooltip="Gets the external interrupt sensitivity of the selected pin. "];
  Node51 -> Node61 [color="midnightblue",fontsize="10",style="solid",fontname="Helvetica"];
  Node61 [label="GPIOUSARTConf",height=0.2,width=0.4,color="black", fillcolor="white", style="filled",URL="$stm8l15x__usartutils_8h.html#a4be9ab70032cc86a75a9abe6ae9a25cb",tooltip="Initialises the GPIO pins connected to USART peripheral. "];
  Node61 -> Node55 [color="midnightblue",fontsize="10",style="solid",fontname="Helvetica"];
  Node51 -> Node62 [color="midnightblue",fontsize="10",style="solid",fontname="Helvetica"];
  Node62 [label="GPIOLEDInit",height=0.2,width=0.4,color="black", fillcolor="white", style="filled",URL="$header_8h.html#a258e5187088222f47bb9e7ac11cafd41",tooltip="Initialises GPIO pins connected to Green and Yellow LED. "];
  Node49 -> Node63 [color="midnightblue",fontsize="10",style="solid",fontname="Helvetica"];
  Node63 [label="SetUpTimer3",height=0.2,width=0.4,color="black", fillcolor="white", style="filled",URL="$stm8l15x__timer3utils_8h.html#a2fc3ca7dac44e32e4129879460d78bcd",tooltip="Sets up Timer 3 peripheral with the required settings. "];
  Node63 -> Node64 [color="midnightblue",fontsize="10",style="solid",fontname="Helvetica"];
  Node64 [label="Timer3ClockConfig",height=0.2,width=0.4,color="black", fillcolor="white", style="filled",URL="$stm8l15x__timer3utils_8c.html#a4c2a017a4eb9521e13b7b96324eeb3d4",tooltip="Gates Timer 3 peripheral clock. "];
  Node64 -> Node65 [color="midnightblue",fontsize="10",style="solid",fontname="Helvetica"];
  Node65 [label="CLK_PeripheralClockConfig",height=0.2,width=0.4,color="black", fillcolor="white", style="filled",URL="$group___c_l_k.html#gabbb45bdfac7093a30d73b714322322b2",tooltip="Enables or disables the specified peripheral clock. "];
  Node63 -> Node66 [color="midnightblue",fontsize="10",style="solid",fontname="Helvetica"];
  Node66 [label="Timer3Init",height=0.2,width=0.4,color="black", fillcolor="white", style="filled",URL="$stm8l15x__timer3utils_8c.html#a485dce2b811bb4e120daef32b6a6c024",tooltip="Configures Timer 3 peripheral. "];
  Node66 -> Node67 [color="midnightblue",fontsize="10",style="solid",fontname="Helvetica"];
  Node67 [label="TIM3_TimeBaseInit",height=0.2,width=0.4,color="black", fillcolor="white", style="filled",URL="$group___t_i_m3.html#gac974e817a95e9dbcad021e92a0ff6a88",tooltip="Initializes the TIM3 Time Base Unit according to the specified parameters. "];
  Node66 -> Node68 [color="midnightblue",fontsize="10",style="solid",fontname="Helvetica"];
  Node68 [label="TIM3_PrescalerConfig",height=0.2,width=0.4,color="black", fillcolor="white", style="filled",URL="$group___t_i_m3.html#gaead9a5eae10e682b062a1597a56a696d",tooltip="Configures the TIM3 Prescaler. "];
  Node66 -> Node69 [color="midnightblue",fontsize="10",style="solid",fontname="Helvetica"];
  Node69 [label="TIM3_ARRPreloadConfig",height=0.2,width=0.4,color="black", fillcolor="white", style="filled",URL="$group___t_i_m3.html#ga82d7a8293971f61e397c94adf19b9545",tooltip="Enables or disables TIM3 peripheral Preload register on ARR. "];
  Node49 -> Node70 [color="midnightblue",fontsize="10",style="solid",fontname="Helvetica"];
  Node70 [label="HTU20DPowerUp",height=0.2,width=0.4,color="black", fillcolor="white", style="filled",URL="$htu20dutils_8h.html#aeef55e6e08ed8d506d9464c9b6d598d6",tooltip="Powers Up HTU20D. "];
  Node49 -> Node71 [color="midnightblue",fontsize="10",style="solid",fontname="Helvetica"];
  Node71 [label="PWR_FastWakeUpCmd",height=0.2,width=0.4,color="black", fillcolor="white", style="filled",URL="$group___p_w_r.html#ga548792d51d227ff55f475bcb9d67573f",tooltip="Enables or disables the Fast WakeUp from Ultra Low Power mode. "];
}
