digraph "RFM69_BurstRead"
{
  edge [fontname="Helvetica",fontsize="10",labelfontname="Helvetica",labelfontsize="10"];
  node [fontname="Helvetica",fontsize="10",shape=record];
  rankdir="LR";
  Node0 [label="RFM69_BurstRead",height=0.2,width=0.4,color="black", fillcolor="grey75", style="filled", fontcolor="black"];
  Node0 -> Node1 [color="midnightblue",fontsize="10",style="solid",fontname="Helvetica"];
  Node1 [label="RFM69_SlaveEnable",height=0.2,width=0.4,color="black", fillcolor="white", style="filled",URL="$rfm69fsk_8c.html#af74f2f3e0eaa73299b4226065b9b44ad",tooltip="Enable RFM69HW. "];
  Node1 -> Node2 [color="midnightblue",fontsize="10",style="solid",fontname="Helvetica"];
  Node2 [label="GPIO_WriteBit",height=0.2,width=0.4,color="black", fillcolor="white", style="filled",URL="$group___i2_c.html#gac890a5a6ad87ce678b223cd2ceefdb2f",tooltip="Sets or clears the selected data port bit. "];
  Node0 -> Node3 [color="midnightblue",fontsize="10",style="solid",fontname="Helvetica"];
  Node3 [label="SPI_GetFlagStatus",height=0.2,width=0.4,color="black", fillcolor="white", style="filled",URL="$group___s_p_i.html#gabf038f294dae6cce6bec69363efbbbbe",tooltip="Checks whether the specified SPI flag is set or not. "];
}
