digraph "RFM69_Read"
{
  edge [fontname="Helvetica",fontsize="10",labelfontname="Helvetica",labelfontsize="10"];
  node [fontname="Helvetica",fontsize="10",shape=record];
  rankdir="LR";
  Node40 [label="RFM69_Read",height=0.2,width=0.4,color="black", fillcolor="grey75", style="filled", fontcolor="black"];
  Node40 -> Node41 [dir="back",color="midnightblue",fontsize="10",style="solid",fontname="Helvetica"];
  Node41 [label="RFM69_CheckDevice",height=0.2,width=0.4,color="black", fillcolor="white", style="filled",URL="$rfm69fsk_8c.html#acf789acc52491d6d07de8cbb321c9300",tooltip="Checks if communication between STM8L and RFM69HW via SPI is working properly. "];
  Node40 -> Node42 [dir="back",color="midnightblue",fontsize="10",style="solid",fontname="Helvetica"];
  Node42 [label="RFM69_Tx_Mode",height=0.2,width=0.4,color="black", fillcolor="white", style="filled",URL="$rfm69fskutils_8c.html#ac54cd72e73274e014d13bf8569993176",tooltip="Set RFM69HW to Transmit mode. "];
  Node40 -> Node43 [dir="back",color="midnightblue",fontsize="10",style="solid",fontname="Helvetica"];
  Node43 [label="RFM69_Rx_Mode",height=0.2,width=0.4,color="black", fillcolor="white", style="filled",URL="$rfm69fskutils_8c.html#a977eab47b7f55aa1b726006070594577",tooltip="Set RFM69HW to Transmit mode. "];
  Node40 -> Node44 [dir="back",color="midnightblue",fontsize="10",style="solid",fontname="Helvetica"];
  Node44 [label="RFM69_ChangeMode",height=0.2,width=0.4,color="black", fillcolor="white", style="filled",URL="$rfm69fskutils_8c.html#ae34b67fd81345f1dc8cf3a0e796d2bf1",tooltip="Changes RFM69HW mode with the required delays. "];
  Node44 -> Node45 [dir="back",color="midnightblue",fontsize="10",style="solid",fontname="Helvetica"];
  Node45 [label="RFM69_TransmitPacket",height=0.2,width=0.4,color="black", fillcolor="white", style="filled",URL="$rfm69fskutils_8c.html#a633d58e2fba940fdd7fa6b6876f25637",tooltip="Transmits a packet of data RFM69HW to Standby mode. "];
  Node40 -> Node46 [dir="back",color="midnightblue",fontsize="10",style="solid",fontname="Helvetica"];
  Node46 [label="RFM69_ReceivePacket",height=0.2,width=0.4,color="black", fillcolor="white", style="filled",URL="$rfm69fskutils_8c.html#ac06acf95c396602d268e8a71ebb4ed6c",tooltip="Receives a data packet. "];
}
