digraph "RFM69_ChangeMode"
{
  edge [fontname="Helvetica",fontsize="10",labelfontname="Helvetica",labelfontsize="10"];
  node [fontname="Helvetica",fontsize="10",shape=record];
  rankdir="LR";
  Node29 [label="RFM69_ChangeMode",height=0.2,width=0.4,color="black", fillcolor="grey75", style="filled", fontcolor="black"];
  Node29 -> Node30 [dir="back",color="midnightblue",fontsize="10",style="solid",fontname="Helvetica"];
  Node30 [label="RFM69_TransmitPacket",height=0.2,width=0.4,color="black", fillcolor="white", style="filled",URL="$rfm69fskutils_8c.html#a633d58e2fba940fdd7fa6b6876f25637",tooltip="Transmits a packet of data RFM69HW to Standby mode. "];
}
