digraph "RFM69_ClearFIFO"
{
  edge [fontname="Helvetica",fontsize="10",labelfontname="Helvetica",labelfontsize="10"];
  node [fontname="Helvetica",fontsize="10",shape=record];
  rankdir="LR";
  Node12 [label="RFM69_ClearFIFO",height=0.2,width=0.4,color="black", fillcolor="grey75", style="filled", fontcolor="black"];
  Node12 -> Node13 [dir="back",color="midnightblue",fontsize="10",style="solid",fontname="Helvetica"];
  Node13 [label="RFM69_ChangeMode",height=0.2,width=0.4,color="black", fillcolor="white", style="filled",URL="$rfm69fskutils_8c.html#ae34b67fd81345f1dc8cf3a0e796d2bf1",tooltip="Changes RFM69HW mode with the required delays. "];
  Node13 -> Node14 [dir="back",color="midnightblue",fontsize="10",style="solid",fontname="Helvetica"];
  Node14 [label="RFM69_TransmitPacket",height=0.2,width=0.4,color="black", fillcolor="white", style="filled",URL="$rfm69fskutils_8c.html#a633d58e2fba940fdd7fa6b6876f25637",tooltip="Transmits a packet of data RFM69HW to Standby mode. "];
  Node12 -> Node15 [dir="back",color="midnightblue",fontsize="10",style="solid",fontname="Helvetica"];
  Node15 [label="RFM69_ReceivePacket",height=0.2,width=0.4,color="black", fillcolor="white", style="filled",URL="$rfm69fskutils_8c.html#ac06acf95c396602d268e8a71ebb4ed6c",tooltip="Receives a data packet. "];
}
