digraph "RFM69_Config"
{
  edge [fontname="Helvetica",fontsize="10",labelfontname="Helvetica",labelfontsize="10"];
  node [fontname="Helvetica",fontsize="10",shape=record];
  rankdir="LR";
  Node20 [label="RFM69_Config",height=0.2,width=0.4,color="black", fillcolor="grey75", style="filled", fontcolor="black"];
  Node20 -> Node21 [color="midnightblue",fontsize="10",style="solid",fontname="Helvetica"];
  Node21 [label="RFM69_Write",height=0.2,width=0.4,color="black", fillcolor="white", style="filled",URL="$rfm69fsk_8c.html#a3b4e05d563f86b40358f83528e0585e0",tooltip="Writes an 8-bit value to the specified register of RFM69HW via SPI peripheral. "];
}
