digraph "SPIClock"
{
  edge [fontname="Helvetica",fontsize="10",labelfontname="Helvetica",labelfontsize="10"];
  node [fontname="Helvetica",fontsize="10",shape=record];
  rankdir="LR";
  Node11 [label="SPIClock",height=0.2,width=0.4,color="black", fillcolor="grey75", style="filled", fontcolor="black"];
  Node11 -> Node12 [dir="back",color="midnightblue",fontsize="10",style="solid",fontname="Helvetica"];
  Node12 [label="SetUpSPI",height=0.2,width=0.4,color="black", fillcolor="white", style="filled",URL="$stm8l15x__spiutils_8c.html#ad64fd2b0e33ccaac7ae9beea577faae7",tooltip="Sets up SPI peripheral with the required settings. "];
}
