digraph "delay_us"
{
  edge [fontname="Helvetica",fontsize="10",labelfontname="Helvetica",labelfontsize="10"];
  node [fontname="Helvetica",fontsize="10",shape=record];
  rankdir="LR";
  Node20 [label="delay_us",height=0.2,width=0.4,color="black", fillcolor="grey75", style="filled", fontcolor="black"];
  Node20 -> Node21 [dir="back",color="midnightblue",fontsize="10",style="solid",fontname="Helvetica"];
  Node21 [label="HTU20D_CheckDevice",height=0.2,width=0.4,color="black", fillcolor="white", style="filled",URL="$htu20dutils_8c.html#a78428a980dc469ee012f961b0efaf2ec",tooltip="Checks the I2C device by reading a register from the device via I2C protocol. "];
  Node20 -> Node22 [dir="back",color="midnightblue",fontsize="10",style="solid",fontname="Helvetica"];
  Node22 [label="ADC_VRef_Measure",height=0.2,width=0.4,color="black", fillcolor="white", style="filled",URL="$stm8l15x__adcutils_8c.html#a9269e5b48670e69cd51b5ead017ee77d",tooltip="Measure the value of internal reference voltage with respect to the supply voltage. "];
  Node20 -> Node23 [dir="back",color="midnightblue",fontsize="10",style="solid",fontname="Helvetica"];
  Node23 [label="I2CRead",height=0.2,width=0.4,color="black", fillcolor="white", style="filled",URL="$stm8l15x__i2cutils_8c.html#af97522afc448e629022cb1000c0aa61f",tooltip="Reads a 16-bit value from any device via I2C protocol. "];
  Node20 -> Node24 [dir="back",color="midnightblue",fontsize="10",style="solid",fontname="Helvetica"];
  Node24 [label="delay_ms",height=0.2,width=0.4,color="black", fillcolor="white", style="filled",URL="$stm8l15x__timer3utils_8c.html#aa0dce6d249d81fb85b082273270ba710",tooltip="Delays the execution of the micro controller by the specified value (in milli seconds). "];
  Node24 -> Node25 [dir="back",color="midnightblue",fontsize="10",style="solid",fontname="Helvetica"];
  Node25 [label="RFM69Restart",height=0.2,width=0.4,color="black", fillcolor="white", style="filled",URL="$rfm69fskutils_8c.html#a59648a28d1621636e6649a569c12e0af",tooltip="Restarts RFM69HW. "];
  Node24 -> Node26 [dir="back",color="midnightblue",fontsize="10",style="solid",fontname="Helvetica"];
  Node26 [label="StartUpBlinkLED",height=0.2,width=0.4,color="black", fillcolor="white", style="filled",URL="$stm8l15x__ledutils_8c.html#af127a13defb4ac6f8c24917cc90ca1b1",tooltip="Switches on and off a both LEDs (ideally to indicate a power on). "];
  Node24 -> Node27 [dir="back",color="midnightblue",fontsize="10",style="solid",fontname="Helvetica"];
  Node27 [label="NotifyYellowLED",height=0.2,width=0.4,color="black", fillcolor="white", style="filled",URL="$stm8l15x__ledutils_8c.html#a54026a4d3091f64d623ab41a189e7098",tooltip="Blinks Yellow LED to notify (typically to indicate an event). "];
  Node24 -> Node28 [dir="back",color="midnightblue",fontsize="10",style="solid",fontname="Helvetica"];
  Node28 [label="NotifyGreenLED",height=0.2,width=0.4,color="black", fillcolor="white", style="filled",URL="$stm8l15x__ledutils_8c.html#a529b629824e4fefb54cd9d68df2f3bef",tooltip="Blinks Green LED to notify (typically to indicate an event). "];
  Node24 -> Node29 [dir="back",color="midnightblue",fontsize="10",style="solid",fontname="Helvetica"];
  Node29 [label="delay_us",height=0.2,width=0.4,color="black", fillcolor="white", style="filled",URL="$stm8l15x__timer3utils_8c.html#a58f9378c36dbb864c00f8c964c652173",tooltip="Delays the execution of the micro controller by the specified value (in micro seconds). "];
  Node29 -> Node21 [dir="back",color="midnightblue",fontsize="10",style="solid",fontname="Helvetica"];
  Node29 -> Node22 [dir="back",color="midnightblue",fontsize="10",style="solid",fontname="Helvetica"];
  Node29 -> Node23 [dir="back",color="midnightblue",fontsize="10",style="solid",fontname="Helvetica"];
  Node29 -> Node24 [dir="back",color="midnightblue",fontsize="10",style="solid",fontname="Helvetica"];
}
