digraph "USARTReMapPin"
{
  edge [fontname="Helvetica",fontsize="10",labelfontname="Helvetica",labelfontsize="10"];
  node [fontname="Helvetica",fontsize="10",shape=record];
  rankdir="LR";
  Node39 [label="USARTReMapPin",height=0.2,width=0.4,color="black", fillcolor="grey75", style="filled", fontcolor="black"];
  Node39 -> Node40 [dir="back",color="midnightblue",fontsize="10",style="solid",fontname="Helvetica"];
  Node40 [label="SetUpUSART",height=0.2,width=0.4,color="black", fillcolor="white", style="filled",URL="$stm8l15x__usartutils_8c.html#a42f88ece905511e93a06e2d797258ffa",tooltip="Sets up USART peripheral with the required settings. "];
}
