digraph "GPIOI2CConf"
{
  edge [fontname="Helvetica",fontsize="10",labelfontname="Helvetica",labelfontsize="10"];
  node [fontname="Helvetica",fontsize="10",shape=record];
  rankdir="LR";
  Node0 [label="GPIOI2CConf",height=0.2,width=0.4,color="black", fillcolor="grey75", style="filled", fontcolor="black"];
  Node0 -> Node1 [color="midnightblue",fontsize="10",style="solid",fontname="Helvetica"];
  Node1 [label="GPIO_Init",height=0.2,width=0.4,color="black", fillcolor="white", style="filled",URL="$group___i2_c.html#gabbe6b3e8dde475c60a5dbaa51712e6a2",tooltip="Initializes the GPIOx according to the specified parameters. "];
}
