digraph "SetUpUSART"
{
  edge [fontname="Helvetica",fontsize="10",labelfontname="Helvetica",labelfontsize="10"];
  node [fontname="Helvetica",fontsize="10",shape=record];
  rankdir="LR";
  Node12 [label="SetUpUSART",height=0.2,width=0.4,color="black", fillcolor="grey75", style="filled", fontcolor="black"];
  Node12 -> Node13 [color="midnightblue",fontsize="10",style="solid",fontname="Helvetica"];
  Node13 [label="USARTClockConf",height=0.2,width=0.4,color="black", fillcolor="white", style="filled",URL="$stm8l15x__usartutils_8c.html#a59cbcfb9fe626f2fcea12c2aa5fed8f9",tooltip="Gates USART peripheral clock. "];
  Node13 -> Node14 [color="midnightblue",fontsize="10",style="solid",fontname="Helvetica"];
  Node14 [label="CLK_PeripheralClockConfig",height=0.2,width=0.4,color="black", fillcolor="white", style="filled",URL="$group___c_l_k.html#gabbb45bdfac7093a30d73b714322322b2",tooltip="Enables or disables the specified peripheral clock. "];
  Node12 -> Node15 [color="midnightblue",fontsize="10",style="solid",fontname="Helvetica"];
  Node15 [label="USARTReMapPin",height=0.2,width=0.4,color="black", fillcolor="white", style="filled",URL="$stm8l15x__usartutils_8c.html#ad5bd7b7b164971f0fae1c141fb6480f6",tooltip="Remaps the USART output pins to PORT A, Pins 2 and 3. "];
  Node15 -> Node16 [color="midnightblue",fontsize="10",style="solid",fontname="Helvetica"];
  Node16 [label="SYSCFG_REMAPPinConfig",height=0.2,width=0.4,color="black", fillcolor="white", style="filled",URL="$group___s_y_s_c_f_g.html#ga79ea5bb15ac56cc379bc42f0d8869d03",tooltip="Changes the mapping of the specified pins. "];
  Node12 -> Node17 [color="midnightblue",fontsize="10",style="solid",fontname="Helvetica"];
  Node17 [label="USARTInit",height=0.2,width=0.4,color="black", fillcolor="white", style="filled",URL="$stm8l15x__usartutils_8c.html#a194c3d3eb59206cdb8666a5faa67873c",tooltip="Configures USART peripheral. "];
  Node17 -> Node18 [color="midnightblue",fontsize="10",style="solid",fontname="Helvetica"];
  Node18 [label="USART_Init",height=0.2,width=0.4,color="black", fillcolor="white", style="filled",URL="$group___u_s_a_r_t.html#ga2520f8243eb041f6fa8912de0a8a2f92",tooltip="Initializes the USART according to the specified parameters. "];
  Node17 -> Node19 [color="midnightblue",fontsize="10",style="solid",fontname="Helvetica"];
  Node19 [label="USART_ITConfig",height=0.2,width=0.4,color="black", fillcolor="white", style="filled",URL="$group___u_s_a_r_t.html#ga67e8617b198cdca2658ecea82d1fd102",tooltip="Enables or disables the specified USART interrupts. "];
  Node12 -> Node20 [color="midnightblue",fontsize="10",style="solid",fontname="Helvetica"];
  Node20 [label="USARTEnable",height=0.2,width=0.4,color="black", fillcolor="white", style="filled",URL="$stm8l15x__usartutils_8c.html#a23810d765e245289185de8b1369a0b83",tooltip="Enables USART peripheral. "];
  Node20 -> Node21 [color="midnightblue",fontsize="10",style="solid",fontname="Helvetica"];
  Node21 [label="USART_Cmd",height=0.2,width=0.4,color="black", fillcolor="white", style="filled",URL="$group___u_s_a_r_t.html#ga45e51626739c5f22a6567c8a85d1d85e",tooltip="Enable the USART peripheral. "];
}
