digraph "USARTInit"
{
  edge [fontname="Helvetica",fontsize="10",labelfontname="Helvetica",labelfontsize="10"];
  node [fontname="Helvetica",fontsize="10",shape=record];
  rankdir="LR";
  Node32 [label="USARTInit",height=0.2,width=0.4,color="black", fillcolor="grey75", style="filled", fontcolor="black"];
  Node32 -> Node33 [color="midnightblue",fontsize="10",style="solid",fontname="Helvetica"];
  Node33 [label="USART_Init",height=0.2,width=0.4,color="black", fillcolor="white", style="filled",URL="$group___u_s_a_r_t.html#ga2520f8243eb041f6fa8912de0a8a2f92",tooltip="Initializes the USART according to the specified parameters. "];
  Node32 -> Node34 [color="midnightblue",fontsize="10",style="solid",fontname="Helvetica"];
  Node34 [label="USART_ITConfig",height=0.2,width=0.4,color="black", fillcolor="white", style="filled",URL="$group___u_s_a_r_t.html#ga67e8617b198cdca2658ecea82d1fd102",tooltip="Enables or disables the specified USART interrupts. "];
}
