digraph "NotifyGreenLED"
{
  edge [fontname="Helvetica",fontsize="10",labelfontname="Helvetica",labelfontsize="10"];
  node [fontname="Helvetica",fontsize="10",shape=record];
  rankdir="LR";
  Node10 [label="NotifyGreenLED",height=0.2,width=0.4,color="black", fillcolor="grey75", style="filled", fontcolor="black"];
  Node10 -> Node11 [color="midnightblue",fontsize="10",style="solid",fontname="Helvetica"];
  Node11 [label="delay_ms",height=0.2,width=0.4,color="black", fillcolor="white", style="filled",URL="$stm8l15x__timer3utils_8h.html#aa0dce6d249d81fb85b082273270ba710",tooltip="Delays the execution of the micro controller by the specified value (in milli seconds). "];
  Node11 -> Node12 [color="midnightblue",fontsize="10",style="solid",fontname="Helvetica"];
  Node12 [label="delay_us",height=0.2,width=0.4,color="black", fillcolor="white", style="filled",URL="$stm8l15x__timer3utils_8c.html#a58f9378c36dbb864c00f8c964c652173",tooltip="Delays the execution of the micro controller by the specified value (in micro seconds). "];
  Node12 -> Node13 [color="midnightblue",fontsize="10",style="solid",fontname="Helvetica"];
  Node13 [label="delay_ms",height=0.2,width=0.4,color="black", fillcolor="white", style="filled",URL="$stm8l15x__timer3utils_8c.html#aa0dce6d249d81fb85b082273270ba710",tooltip="Delays the execution of the micro controller by the specified value (in milli seconds). "];
  Node13 -> Node12 [color="midnightblue",fontsize="10",style="solid",fontname="Helvetica"];
  Node12 -> Node14 [color="midnightblue",fontsize="10",style="solid",fontname="Helvetica"];
  Node14 [label="TIM3_SetAutoreload",height=0.2,width=0.4,color="black", fillcolor="white", style="filled",URL="$group___t_i_m3.html#ga36911f2ee2a1fe6c0e45854986373629",tooltip="Sets the TIM3 Autoreload Register value. "];
  Node12 -> Node15 [color="midnightblue",fontsize="10",style="solid",fontname="Helvetica"];
  Node15 [label="TIM3_Cmd",height=0.2,width=0.4,color="black", fillcolor="white", style="filled",URL="$group___t_i_m3.html#ga20e045b0cbe41f2b883507ea7093ed4b",tooltip="Enables or disables the TIM3 peripheral. "];
}
