digraph "I2CWrite"
{
  edge [fontname="Helvetica",fontsize="10",labelfontname="Helvetica",labelfontsize="10"];
  node [fontname="Helvetica",fontsize="10",shape=record];
  rankdir="LR";
  Node14 [label="I2CWrite",height=0.2,width=0.4,color="black", fillcolor="grey75", style="filled", fontcolor="black"];
  Node14 -> Node15 [color="midnightblue",fontsize="10",style="solid",fontname="Helvetica"];
  Node15 [label="I2C_CheckEvent",height=0.2,width=0.4,color="black", fillcolor="white", style="filled",URL="$group___i2_c.html#ga521444fcd698cb72c6a1de082fa74bfa",tooltip="Checks whether the last I2Cx Event is equal to the one passed as parameter. "];
}
