digraph "SetUpSPI"
{
  edge [fontname="Helvetica",fontsize="10",labelfontname="Helvetica",labelfontsize="10"];
  node [fontname="Helvetica",fontsize="10",shape=record];
  rankdir="LR";
  Node6 [label="SetUpSPI",height=0.2,width=0.4,color="black", fillcolor="grey75", style="filled", fontcolor="black"];
  Node6 -> Node7 [color="midnightblue",fontsize="10",style="solid",fontname="Helvetica"];
  Node7 [label="SPIClock",height=0.2,width=0.4,color="black", fillcolor="white", style="filled",URL="$stm8l15x__spiutils_8c.html#a2bffec73b96f65f6fb19fe8fc113cd2d",tooltip="Gates SPI peripheral clock. "];
  Node6 -> Node8 [color="midnightblue",fontsize="10",style="solid",fontname="Helvetica"];
  Node8 [label="SPIConf",height=0.2,width=0.4,color="black", fillcolor="white", style="filled",URL="$stm8l15x__spiutils_8c.html#a7726c095a105ff90a8af03f52b12f96a",tooltip="Configures SPI peripheral. "];
}
