digraph "SetUpRTC"
{
  edge [fontname="Helvetica",fontsize="10",labelfontname="Helvetica",labelfontsize="10"];
  node [fontname="Helvetica",fontsize="10",shape=record];
  rankdir="LR";
  Node25 [label="SetUpRTC",height=0.2,width=0.4,color="black", fillcolor="grey75", style="filled", fontcolor="black"];
  Node25 -> Node26 [color="midnightblue",fontsize="10",style="solid",fontname="Helvetica"];
  Node26 [label="RTC_DeInit",height=0.2,width=0.4,color="black", fillcolor="white", style="filled",URL="$group___r_t_c.html#ga9777c6cc4a99c339ebc527a791b2ebe7",tooltip="Deinitializes the RTC registers to their default reset values. "];
}
