digraph "CheckForAcknowledgementRequest"
{
  edge [fontname="Helvetica",fontsize="10",labelfontname="Helvetica",labelfontsize="10"];
  node [fontname="Helvetica",fontsize="10",shape=record];
  rankdir="LR";
  Node12 [label="CheckForAcknowledgementRequest",height=0.2,width=0.4,color="black", fillcolor="grey75", style="filled", fontcolor="black"];
  Node12 -> Node13 [color="midnightblue",fontsize="10",style="solid",fontname="Helvetica"];
  Node13 [label="CalculateOffset",height=0.2,width=0.4,color="black", fillcolor="white", style="filled",URL="$stm8l15x__stringutils_8c.html#a6887c1b8f75074ea0571f2840078d281",tooltip="Calculates the offset required to synchronise the received packet data. If the offset is not an accep..."];
}
