digraph "ADC_VRef_Disable"
{
  edge [fontname="Helvetica",fontsize="10",labelfontname="Helvetica",labelfontsize="10"];
  node [fontname="Helvetica",fontsize="10",shape=record];
  rankdir="LR";
  Node1 [label="ADC_VRef_Disable",height=0.2,width=0.4,color="black", fillcolor="grey75", style="filled", fontcolor="black"];
  Node1 -> Node2 [dir="back",color="midnightblue",fontsize="10",style="solid",fontname="Helvetica"];
  Node2 [label="LowPowerConf",height=0.2,width=0.4,color="black", fillcolor="white", style="filled",URL="$stm8l15x__clockutils_8c.html#a67cd29077a733959c8c963e62d184e6e",tooltip="Configures the STM8L for low power (active-halt) mode. "];
  Node2 -> Node3 [dir="back",color="midnightblue",fontsize="10",style="solid",fontname="Helvetica"];
  Node3 [label="EnterLowPowerMode",height=0.2,width=0.4,color="black", fillcolor="white", style="filled",URL="$stm8l15x__clockutils_8c.html#a169fef07ca6facb52c300178811d52b3",tooltip="Sets wake up counter and enters the low power mode. "];
}
