%
M48
M72
T01C0.0120
T02C0.0200
T03C0.0280
T04C0.0315
T05C0.0320
T06C0.0354
T07C0.0360
T08C0.0394
T09C0.0400
T10C0.0591
T11C0.0620
T12C0.0630
T13C0.0900
T14C0.0910
T15C0.1000
T16C0.1260
T17C0.1360
%
T01
X28920Y17020
X29620Y16920
X28120Y16720
X26220Y16320
X23820Y15120
X25120Y13020
X26020Y13220
X29920Y13820
X30220Y14120
X55820Y27020
X53820Y25800
X63420Y26320
X51320Y34620
X50820Y35420
X50920Y35920
X49720Y36720
X48620Y14020
X50820Y13920
X51520Y13920
X53820Y14020
T02
X43220Y36720
X43720Y36720
X44220Y36720
X44720Y36720
X45220Y36720
X45720Y36720
X46220Y36720
X46720Y36720
X47220Y36720
X47220Y37220
X47220Y37720
X47220Y39720
X47220Y40220
X43220Y40220
X43220Y39720
X43220Y39220
X43220Y38720
X43220Y38220
X43220Y37720
X43220Y37220
T03
X52020Y28320
X60520Y23020
X60520Y21555
X64020Y23320
X59720Y17820
X55120Y16920
X55020Y14520
X59020Y12320
X55220Y10420
X48620Y14820
X37020Y14920
X34420Y7320
X25620Y10120
X22520Y8920
X23020Y12420
T04
X45606Y7220
X43834Y7220
T05
X41220Y7720
X40220Y7720
X38220Y7720
X37220Y7720
X36220Y7720
T06
X24240Y8020
X25043Y8020
X25846Y8020
X25445Y9020
X26248Y9020
X24642Y9020
X30590Y8020
X29790Y8020
X28990Y8020
X29390Y9020
X30190Y9020
X30990Y9020
T07
X51990Y27345
X51990Y26365
X51990Y25575
X51990Y24595
X60112Y9300
X60112Y8520
X59128Y8520
X59128Y9300
T08
X53070Y11920
X52070Y11920
X51070Y11920
X50070Y11920
X49570Y10920
X50570Y10920
X51570Y10920
X52570Y10920
X53810Y7089
X52810Y6491
X49830Y7089
X48830Y6491
T09
X67120Y33620
X67120Y32620
X67120Y31620
X67120Y30620
X67120Y29620
X67120Y28620
X67120Y27620
X67120Y26620
X67120Y25620
X67120Y24620
X67120Y23620
X67120Y22620
X67120Y21620
X67120Y20620
X67120Y19620
X67120Y18620
X67120Y17620
X67120Y16620
X63320Y12320
X62320Y12320
X61320Y12320
X58120Y16620
X58120Y17620
X58120Y18620
X58120Y19620
X58120Y20620
X58120Y21620
X58120Y22620
X58120Y23620
X58120Y24620
X58120Y25620
X58120Y26620
X58120Y27620
X58120Y28620
X58120Y29620
X58120Y30620
X58120Y31620
X58120Y32620
X58120Y33620
X18120Y12820
X18120Y13820
X18120Y14820
X18120Y15820
T10
X45120Y38820
X46098Y8220
X43342Y8220
T11
X31870Y8420
X23370Y8420
T12
X44120Y37820
X46120Y37820
X46120Y39820
X44120Y39820
X54304Y9621
X48320Y9621
T13
X61990Y7450
X57250Y7450
T14
X50920Y28555
X50920Y23385
T15
X64595Y36345
X20845Y36345
X64595Y10095
X20845Y10095
T16
X53570Y8420
X49070Y8420
T17
X31870Y6820
X23370Y6820
M30
