%
M48
M72
T01C0.0120
T02C0.0180
T03C0.0260
T04C0.0320
T05C0.0400
T06C0.0402
T07C0.1181
%
T01
X6770Y8920
X7370Y9370
X13220Y9820
X13620Y9620
X15020Y11520
X15320Y11820
X23620Y11020
X24920Y11020
X25370Y8170
X24870Y7970
X24670Y7120
X25070Y6520
X25870Y5920
X26770Y5870
X27570Y5870
X27720Y7870
X27220Y8120
X26720Y8120
X26070Y8170
X21120Y3620
T02
X13620Y3720
X13120Y4620
X11820Y6220
X13570Y7020
T03
X15820Y9120
X17020Y10120
X18120Y13020
X16520Y13120
X16920Y16670
X15620Y16670
X9020Y9120
X17820Y6420
X20520Y4920
X22320Y6420
X24120Y6220
T04
X7320Y6620
X6320Y6620
X5320Y6620
T05
X8530Y5340
X10310Y5340
X10420Y2920
X9420Y2920
X14720Y2920
X15720Y2920
X16720Y2920
X17720Y2920
X17220Y4620
X16220Y4620
X15220Y4620
X15220Y5620
X16220Y5620
X17220Y5620
X17220Y7620
X16220Y7620
X15220Y7620
X10310Y7900
X8530Y7900
X20820Y2920
X21820Y2920
X22820Y2920
X23820Y2920
X27220Y7020
T06
X5519Y12067
X5519Y17969
T07
X6377Y3846
X26063Y3846
X26063Y19594
X6377Y19594
M30
