<?xml version="1.0" encoding="utf-8"?>
<!DOCTYPE eagle SYSTEM "eagle.dtd">
<eagle version="7.4.0">
<drawing>
<settings>
<setting alwaysvectorfont="no"/>
<setting verticaltext="up"/>
</settings>
<grid distance="0.1" unitdist="inch" unit="inch" style="lines" multiple="1" display="no" altdistance="0.01" altunitdist="inch" altunit="inch"/>
<layers>
<layer number="1" name="Top" color="4" fill="1" visible="no" active="no"/>
<layer number="2" name="Route2" color="1" fill="3" visible="no" active="no"/>
<layer number="3" name="Route3" color="4" fill="3" visible="no" active="no"/>
<layer number="4" name="Route4" color="1" fill="4" visible="no" active="no"/>
<layer number="5" name="Route5" color="4" fill="4" visible="no" active="no"/>
<layer number="6" name="Route6" color="1" fill="8" visible="no" active="no"/>
<layer number="7" name="Route7" color="4" fill="8" visible="no" active="no"/>
<layer number="8" name="Route8" color="1" fill="2" visible="no" active="no"/>
<layer number="9" name="Route9" color="4" fill="2" visible="no" active="no"/>
<layer number="10" name="Route10" color="1" fill="7" visible="no" active="no"/>
<layer number="11" name="Route11" color="4" fill="7" visible="no" active="no"/>
<layer number="12" name="Route12" color="1" fill="5" visible="no" active="no"/>
<layer number="13" name="Route13" color="4" fill="5" visible="no" active="no"/>
<layer number="14" name="Route14" color="1" fill="6" visible="no" active="no"/>
<layer number="15" name="Route15" color="4" fill="6" visible="no" active="no"/>
<layer number="16" name="Bottom" color="1" fill="1" visible="no" active="no"/>
<layer number="17" name="Pads" color="2" fill="1" visible="no" active="no"/>
<layer number="18" name="Vias" color="2" fill="1" visible="no" active="no"/>
<layer number="19" name="Unrouted" color="6" fill="1" visible="no" active="no"/>
<layer number="20" name="Dimension" color="15" fill="1" visible="no" active="no"/>
<layer number="21" name="tPlace" color="7" fill="1" visible="no" active="no"/>
<layer number="22" name="bPlace" color="7" fill="1" visible="no" active="no"/>
<layer number="23" name="tOrigins" color="15" fill="1" visible="no" active="no"/>
<layer number="24" name="bOrigins" color="15" fill="1" visible="no" active="no"/>
<layer number="25" name="tNames" color="7" fill="1" visible="no" active="no"/>
<layer number="26" name="bNames" color="7" fill="1" visible="no" active="no"/>
<layer number="27" name="tValues" color="7" fill="1" visible="no" active="no"/>
<layer number="28" name="bValues" color="7" fill="1" visible="no" active="no"/>
<layer number="29" name="tStop" color="7" fill="3" visible="no" active="no"/>
<layer number="30" name="bStop" color="7" fill="6" visible="no" active="no"/>
<layer number="31" name="tCream" color="7" fill="4" visible="no" active="no"/>
<layer number="32" name="bCream" color="7" fill="5" visible="no" active="no"/>
<layer number="33" name="tFinish" color="6" fill="3" visible="no" active="no"/>
<layer number="34" name="bFinish" color="6" fill="6" visible="no" active="no"/>
<layer number="35" name="tGlue" color="7" fill="4" visible="no" active="no"/>
<layer number="36" name="bGlue" color="7" fill="5" visible="no" active="no"/>
<layer number="37" name="tTest" color="7" fill="1" visible="no" active="no"/>
<layer number="38" name="bTest" color="7" fill="1" visible="no" active="no"/>
<layer number="39" name="tKeepout" color="4" fill="11" visible="no" active="no"/>
<layer number="40" name="bKeepout" color="1" fill="11" visible="no" active="no"/>
<layer number="41" name="tRestrict" color="4" fill="10" visible="no" active="no"/>
<layer number="42" name="bRestrict" color="1" fill="10" visible="no" active="no"/>
<layer number="43" name="vRestrict" color="2" fill="10" visible="no" active="no"/>
<layer number="44" name="Drills" color="7" fill="1" visible="no" active="no"/>
<layer number="45" name="Holes" color="7" fill="1" visible="no" active="no"/>
<layer number="46" name="Milling" color="3" fill="1" visible="no" active="no"/>
<layer number="47" name="Measures" color="7" fill="1" visible="no" active="no"/>
<layer number="48" name="Document" color="7" fill="1" visible="no" active="no"/>
<layer number="49" name="Reference" color="7" fill="1" visible="no" active="no"/>
<layer number="50" name="dxf" color="7" fill="1" visible="no" active="no"/>
<layer number="51" name="tDocu" color="7" fill="1" visible="no" active="no"/>
<layer number="52" name="bDocu" color="7" fill="1" visible="no" active="no"/>
<layer number="53" name="tGND_GNDA" color="7" fill="9" visible="no" active="no"/>
<layer number="54" name="bGND_GNDA" color="1" fill="9" visible="no" active="no"/>
<layer number="56" name="wert" color="7" fill="1" visible="no" active="no"/>
<layer number="57" name="tCAD" color="7" fill="1" visible="no" active="no"/>
<layer number="59" name="tCarbon" color="7" fill="1" visible="no" active="no"/>
<layer number="60" name="bCarbon" color="7" fill="1" visible="no" active="no"/>
<layer number="90" name="Modules" color="5" fill="1" visible="yes" active="yes"/>
<layer number="91" name="Nets" color="2" fill="1" visible="yes" active="yes"/>
<layer number="92" name="Busses" color="1" fill="1" visible="yes" active="yes"/>
<layer number="93" name="Pins" color="2" fill="1" visible="no" active="yes"/>
<layer number="94" name="Symbols" color="4" fill="1" visible="yes" active="yes"/>
<layer number="95" name="Names" color="7" fill="1" visible="yes" active="yes"/>
<layer number="96" name="Values" color="7" fill="1" visible="yes" active="yes"/>
<layer number="97" name="Info" color="7" fill="1" visible="yes" active="yes"/>
<layer number="98" name="Guide" color="6" fill="1" visible="yes" active="yes"/>
<layer number="99" name="SpiceOrder" color="5" fill="1" visible="no" active="no"/>
<layer number="100" name="Muster" color="7" fill="1" visible="yes" active="yes"/>
<layer number="101" name="Patch_Top" color="12" fill="4" visible="yes" active="yes"/>
<layer number="102" name="Vscore" color="7" fill="1" visible="yes" active="yes"/>
<layer number="103" name="tMap" color="7" fill="1" visible="yes" active="yes"/>
<layer number="104" name="Name" color="16" fill="1" visible="yes" active="yes"/>
<layer number="105" name="tPlate" color="7" fill="1" visible="yes" active="yes"/>
<layer number="106" name="bPlate" color="7" fill="1" visible="yes" active="yes"/>
<layer number="107" name="Crop" color="7" fill="1" visible="yes" active="yes"/>
<layer number="108" name="fp8" color="7" fill="1" visible="yes" active="yes"/>
<layer number="109" name="fp9" color="7" fill="1" visible="yes" active="yes"/>
<layer number="110" name="fp0" color="7" fill="1" visible="yes" active="yes"/>
<layer number="111" name="LPC17xx" color="7" fill="1" visible="yes" active="yes"/>
<layer number="112" name="tSilk" color="7" fill="1" visible="yes" active="yes"/>
<layer number="113" name="IDFDebug" color="4" fill="1" visible="yes" active="yes"/>
<layer number="116" name="Patch_BOT" color="9" fill="4" visible="yes" active="yes"/>
<layer number="118" name="Rect_Pads" color="7" fill="1" visible="yes" active="yes"/>
<layer number="120" name="120" color="7" fill="1" visible="yes" active="yes"/>
<layer number="121" name="_tsilk" color="7" fill="1" visible="yes" active="yes"/>
<layer number="122" name="_bsilk" color="7" fill="1" visible="yes" active="yes"/>
<layer number="123" name="tTestmark" color="7" fill="1" visible="yes" active="yes"/>
<layer number="124" name="bTestmark" color="7" fill="1" visible="yes" active="yes"/>
<layer number="125" name="_tNames" color="7" fill="1" visible="yes" active="yes"/>
<layer number="126" name="_bNames" color="7" fill="1" visible="yes" active="yes"/>
<layer number="127" name="_tValues" color="7" fill="1" visible="yes" active="yes"/>
<layer number="128" name="_bValues" color="7" fill="1" visible="yes" active="yes"/>
<layer number="129" name="Mask" color="7" fill="1" visible="yes" active="yes"/>
<layer number="131" name="tAdjust" color="7" fill="1" visible="yes" active="yes"/>
<layer number="132" name="bAdjust" color="7" fill="1" visible="yes" active="yes"/>
<layer number="144" name="Drill_legend" color="7" fill="1" visible="yes" active="yes"/>
<layer number="150" name="Notes" color="7" fill="1" visible="yes" active="yes"/>
<layer number="151" name="HeatSink" color="7" fill="1" visible="yes" active="yes"/>
<layer number="152" name="_bDocu" color="7" fill="1" visible="yes" active="yes"/>
<layer number="153" name="FabDoc1" color="6" fill="1" visible="no" active="no"/>
<layer number="154" name="FabDoc2" color="2" fill="1" visible="no" active="no"/>
<layer number="155" name="FabDoc3" color="7" fill="15" visible="no" active="no"/>
<layer number="199" name="Contour" color="7" fill="1" visible="yes" active="yes"/>
<layer number="200" name="200bmp" color="1" fill="10" visible="yes" active="yes"/>
<layer number="201" name="201bmp" color="2" fill="10" visible="yes" active="yes"/>
<layer number="202" name="202bmp" color="3" fill="10" visible="yes" active="yes"/>
<layer number="203" name="203bmp" color="4" fill="10" visible="yes" active="yes"/>
<layer number="204" name="204bmp" color="5" fill="10" visible="yes" active="yes"/>
<layer number="205" name="205bmp" color="6" fill="10" visible="yes" active="yes"/>
<layer number="206" name="206bmp" color="7" fill="10" visible="yes" active="yes"/>
<layer number="207" name="207bmp" color="8" fill="10" visible="yes" active="yes"/>
<layer number="208" name="208bmp" color="9" fill="10" visible="yes" active="yes"/>
<layer number="209" name="209bmp" color="7" fill="1" visible="yes" active="yes"/>
<layer number="210" name="210bmp" color="7" fill="1" visible="yes" active="yes"/>
<layer number="211" name="211bmp" color="7" fill="1" visible="yes" active="yes"/>
<layer number="212" name="212bmp" color="7" fill="1" visible="yes" active="yes"/>
<layer number="213" name="213bmp" color="7" fill="1" visible="yes" active="yes"/>
<layer number="214" name="214bmp" color="7" fill="1" visible="yes" active="yes"/>
<layer number="215" name="215bmp" color="7" fill="1" visible="yes" active="yes"/>
<layer number="216" name="216bmp" color="7" fill="1" visible="yes" active="yes"/>
<layer number="217" name="217bmp" color="18" fill="1" visible="yes" active="yes"/>
<layer number="218" name="218bmp" color="19" fill="1" visible="yes" active="yes"/>
<layer number="219" name="219bmp" color="20" fill="1" visible="yes" active="yes"/>
<layer number="220" name="220bmp" color="21" fill="1" visible="yes" active="yes"/>
<layer number="221" name="221bmp" color="22" fill="1" visible="yes" active="yes"/>
<layer number="222" name="222bmp" color="23" fill="1" visible="yes" active="yes"/>
<layer number="223" name="223bmp" color="24" fill="1" visible="yes" active="yes"/>
<layer number="224" name="224bmp" color="25" fill="1" visible="yes" active="yes"/>
<layer number="225" name="225bmp" color="7" fill="1" visible="yes" active="yes"/>
<layer number="226" name="226bmp" color="7" fill="1" visible="yes" active="yes"/>
<layer number="227" name="227bmp" color="7" fill="1" visible="yes" active="yes"/>
<layer number="228" name="228bmp" color="7" fill="1" visible="yes" active="yes"/>
<layer number="229" name="229bmp" color="7" fill="1" visible="yes" active="yes"/>
<layer number="230" name="230bmp" color="7" fill="1" visible="yes" active="yes"/>
<layer number="231" name="231bmp" color="7" fill="1" visible="yes" active="yes"/>
<layer number="232" name="Eagle3D_PG2" color="7" fill="1" visible="no" active="no"/>
<layer number="233" name="Eagle3D_PG3" color="7" fill="1" visible="no" active="no"/>
<layer number="248" name="Housing" color="7" fill="1" visible="yes" active="yes"/>
<layer number="249" name="Edge" color="7" fill="1" visible="yes" active="yes"/>
<layer number="250" name="Descript" color="3" fill="1" visible="yes" active="yes"/>
<layer number="251" name="SMDround" color="12" fill="11" visible="yes" active="yes"/>
<layer number="254" name="cooling" color="7" fill="1" visible="yes" active="yes"/>
<layer number="255" name="routoute" color="7" fill="1" visible="yes" active="yes"/>
</layers>
<schematic xreflabel="%F%N/%S.%C%R" xrefpart="/%S.%C%R">
<libraries>
<library name="passives">
<packages>
<package name="HTU21D">
<description>&lt;b&gt;Description:&lt;/b&gt; HTU21D is a very small, low cost, I2C digital humidity and temperature sensor.</description>
<wire x1="1.5" y1="1.5" x2="1.5" y2="-1.5" width="0.127" layer="51"/>
<wire x1="1.5" y1="-1.5" x2="-1.5" y2="-1.5" width="0.127" layer="51"/>
<wire x1="-1.5" y1="1.5" x2="-1.5" y2="-1.5" width="0.127" layer="51"/>
<wire x1="1.5" y1="1.5" x2="-1.5" y2="1.5" width="0.127" layer="51"/>
<wire x1="-1.5" y1="1.5" x2="1.5" y2="1.5" width="0.2032" layer="21"/>
<smd name="NC@6" x="1.5" y="1" dx="0.5" dy="0.8" layer="1" rot="R270"/>
<smd name="GND" x="1.5" y="0" dx="0.5" dy="0.8" layer="1" rot="R270"/>
<smd name="DATA" x="1.5" y="-1" dx="0.5" dy="0.8" layer="1" rot="R270"/>
<smd name="SCK" x="-1.5" y="-1" dx="0.5" dy="0.8" layer="1" rot="R270"/>
<smd name="VDD" x="-1.5" y="0" dx="0.5" dy="0.8" layer="1" rot="R270"/>
<smd name="NC@1" x="-1.5" y="1" dx="0.5" dy="0.8" layer="1" rot="R270"/>
<smd name="7" x="0" y="0" dx="0.2" dy="0.2" layer="1"/>
<polygon width="0.127" layer="1">
<vertex x="-0.7" y="1.25"/>
<vertex x="0.75" y="1.25"/>
<vertex x="0.75" y="-0.8"/>
<vertex x="0.3" y="-1.25"/>
<vertex x="-0.7" y="-1.25"/>
</polygon>
<polygon width="0.127" layer="31">
<vertex x="-0.55" y="1.05"/>
<vertex x="0.55" y="1.05"/>
<vertex x="0.55" y="-0.65"/>
<vertex x="0.1" y="-1.1"/>
<vertex x="-0.55" y="-1.1"/>
</polygon>
<wire x1="-0.7" y1="-1.5" x2="0.7" y2="-1.5" width="0.2032" layer="21"/>
<wire x1="-0.5" y1="1.2" x2="0.5" y2="1.2" width="0.127" layer="51"/>
<wire x1="0.5" y1="1.2" x2="0.5" y2="0.5" width="0.127" layer="51"/>
<wire x1="0.5" y1="0.5" x2="-0.5" y2="0.5" width="0.127" layer="51"/>
<wire x1="-0.5" y1="0.5" x2="-0.5" y2="1.2" width="0.127" layer="51"/>
<polygon width="0.127" layer="29">
<vertex x="-0.775" y="1.325"/>
<vertex x="-0.775" y="-1.3"/>
<vertex x="0.375" y="-1.3"/>
<vertex x="0.825" y="-0.85"/>
<vertex x="0.825" y="1.325"/>
</polygon>
<text x="-1.075" y="1.775" size="0.5" layer="25">&gt;Name</text>
<text x="-1.325" y="-2.2" size="0.5" layer="27">&gt;Value</text>
<wire x1="-0.508" y1="0.508" x2="0.508" y2="0.508" width="0.127" layer="21"/>
<wire x1="0.508" y1="0.508" x2="0.508" y2="1.1938" width="0.127" layer="21"/>
<wire x1="0.508" y1="1.1938" x2="-0.508" y2="1.1938" width="0.127" layer="21"/>
<wire x1="-0.508" y1="1.1938" x2="-0.508" y2="0.508" width="0.127" layer="21"/>
<circle x="1.778" y="-1.7272" radius="0.160640625" width="0.127" layer="21"/>
</package>
<package name="C0603">
<wire x1="-0.356" y1="0.432" x2="0.356" y2="0.432" width="0.1016" layer="51"/>
<wire x1="-0.356" y1="-0.419" x2="0.356" y2="-0.419" width="0.1016" layer="51"/>
<smd name="1" x="-0.85" y="0" dx="1" dy="1.1" layer="1"/>
<smd name="2" x="0.85" y="0" dx="1" dy="1.1" layer="1"/>
<text x="-1.905" y="0.835" size="1.27" layer="25">&gt;NAME</text>
<text x="-1.905" y="-2.105" size="1.016" layer="27">&gt;VALUE</text>
<rectangle x1="-0.8382" y1="-0.4699" x2="-0.3381" y2="0.4801" layer="51"/>
<rectangle x1="0.3302" y1="-0.4699" x2="0.8303" y2="0.4801" layer="51"/>
<wire x1="-1.7" y1="0.63" x2="-1.7" y2="-0.66" width="0.127" layer="21"/>
<wire x1="-1.7" y1="0.66" x2="1.7" y2="0.66" width="0.127" layer="21"/>
<wire x1="1.7" y1="0.63" x2="1.7" y2="-0.66" width="0.127" layer="21"/>
<wire x1="-1.7" y1="-0.66" x2="1.7" y2="-0.66" width="0.127" layer="21"/>
</package>
<package name="C0402">
<wire x1="-0.245" y1="0.224" x2="0.245" y2="0.224" width="0.1524" layer="51"/>
<wire x1="0.245" y1="-0.224" x2="-0.245" y2="-0.224" width="0.1524" layer="51"/>
<wire x1="-1.473" y1="0.483" x2="1.473" y2="0.483" width="0.0508" layer="39"/>
<wire x1="1.473" y1="0.483" x2="1.473" y2="-0.483" width="0.0508" layer="39"/>
<wire x1="1.473" y1="-0.483" x2="-1.473" y2="-0.483" width="0.0508" layer="39"/>
<wire x1="-1.473" y1="-0.483" x2="-1.473" y2="0.483" width="0.0508" layer="39"/>
<smd name="1" x="-0.65" y="0" dx="0.7" dy="0.9" layer="1"/>
<smd name="2" x="0.65" y="0" dx="0.7" dy="0.9" layer="1"/>
<text x="-0.635" y="0.635" size="1.27" layer="25">&gt;NAME</text>
<text x="-0.635" y="-1.905" size="1.27" layer="27">&gt;VALUE</text>
<rectangle x1="-0.554" y1="-0.3048" x2="-0.254" y2="0.2951" layer="51"/>
<rectangle x1="0.2588" y1="-0.3048" x2="0.5588" y2="0.2951" layer="51"/>
<rectangle x1="-0.1999" y1="-0.3" x2="0.1999" y2="0.3" layer="35"/>
<wire x1="-1.27" y1="0.508" x2="-1.27" y2="-0.508" width="0.127" layer="21"/>
<wire x1="-1.27" y1="-0.508" x2="1.27" y2="-0.508" width="0.127" layer="21"/>
<wire x1="1.27" y1="-0.508" x2="1.27" y2="0.508" width="0.127" layer="21"/>
<wire x1="1.27" y1="0.508" x2="-1.27" y2="0.508" width="0.127" layer="21"/>
</package>
<package name="FILM-CAPACITOR-0.47U/400V">
<wire x1="-9.25" y1="3.9" x2="9.25" y2="3.9" width="0.127" layer="21"/>
<wire x1="9.25" y1="3.9" x2="9.25" y2="-3.9" width="0.127" layer="21"/>
<wire x1="9.25" y1="-3.9" x2="-9.25" y2="-3.9" width="0.127" layer="21"/>
<wire x1="-9.25" y1="-3.9" x2="-9.25" y2="3.9" width="0.127" layer="21"/>
<pad name="P$1" x="-7.5" y="0" drill="0.9"/>
<pad name="P$2" x="7.5" y="0" drill="0.9"/>
<text x="-2.54" y="4.17" size="1.27" layer="25">&gt;NAME</text>
<text x="-2.54" y="-4.17" size="1.27" layer="27">&gt;VALUE</text>
</package>
<package name="C0805">
<wire x1="-0.3" y1="0.6" x2="0.3" y2="0.6" width="0.1524" layer="51"/>
<wire x1="-0.3" y1="-0.6" x2="0.3" y2="-0.6" width="0.1524" layer="51"/>
<smd name="1" x="-1.1" y="0" dx="1.2" dy="1.2" layer="1"/>
<smd name="2" x="1.1" y="0" dx="1.2" dy="1.2" layer="1"/>
<text x="-0.762" y="0.8255" size="1.27" layer="25">&gt;NAME</text>
<text x="-1.016" y="-1.397" size="1.27" layer="27">&gt;VALUE</text>
<wire x1="-2" y1="0.75" x2="-2" y2="-0.75" width="0.127" layer="21"/>
<wire x1="2" y1="0.75" x2="2" y2="-0.75" width="0.127" layer="21"/>
<wire x1="-2" y1="0.75" x2="2" y2="0.75" width="0.127" layer="21"/>
<wire x1="-2" y1="-0.75" x2="2" y2="-0.75" width="0.127" layer="21"/>
</package>
<package name="C1206">
<wire x1="-2.473" y1="0.983" x2="2.473" y2="0.983" width="0.0508" layer="39"/>
<wire x1="2.473" y1="-0.983" x2="-2.473" y2="-0.983" width="0.0508" layer="39"/>
<wire x1="-2.473" y1="-0.983" x2="-2.473" y2="0.983" width="0.0508" layer="39"/>
<wire x1="2.473" y1="0.983" x2="2.473" y2="-0.983" width="0.0508" layer="39"/>
<wire x1="-0.965" y1="0.787" x2="0.965" y2="0.787" width="0.1016" layer="51"/>
<wire x1="-0.965" y1="-0.787" x2="0.965" y2="-0.787" width="0.1016" layer="51"/>
<smd name="1" x="-1.4" y="0" dx="1.6" dy="1.8" layer="1"/>
<smd name="2" x="1.4" y="0" dx="1.6" dy="1.8" layer="1"/>
<text x="-1.27" y="1.143" size="1.27" layer="25">&gt;NAME</text>
<text x="-1.397" y="-1.524" size="0.4064" layer="27">&gt;VALUE</text>
<rectangle x1="-1.7018" y1="-0.8509" x2="-0.9517" y2="0.8491" layer="51"/>
<rectangle x1="0.9517" y1="-0.8491" x2="1.7018" y2="0.8509" layer="51"/>
<wire x1="-2.4" y1="1" x2="2.4" y2="1" width="0.127" layer="21"/>
<wire x1="2.4" y1="1" x2="2.4" y2="-1" width="0.127" layer="21"/>
<wire x1="2.4" y1="-1" x2="-2.4" y2="-1" width="0.127" layer="21"/>
<wire x1="-2.4" y1="-1" x2="-2.4" y2="1" width="0.127" layer="21"/>
</package>
<package name="C1210">
<smd name="P$1" x="-1.35" y="0" dx="1" dy="3" layer="1"/>
<smd name="P$2" x="1.35" y="0" dx="1" dy="3" layer="1"/>
<wire x1="-2" y1="1.7" x2="2" y2="1.7" width="0.127" layer="21"/>
<wire x1="2" y1="1.7" x2="2" y2="-1.7" width="0.127" layer="21"/>
<wire x1="2" y1="-1.7" x2="-2" y2="-1.7" width="0.127" layer="21"/>
<wire x1="-2" y1="-1.7" x2="-2" y2="1.7" width="0.127" layer="21"/>
<text x="-1.5" y="2" size="1.27" layer="25">&gt;NAME</text>
<text x="-1.5" y="-3" size="1.27" layer="27">&gt;VALUE</text>
</package>
<package name="C2312">
<wire x1="-3" y1="1.6" x2="3" y2="1.6" width="0.127" layer="21"/>
<wire x1="3" y1="-1.6" x2="-3" y2="-1.6" width="0.127" layer="21"/>
<wire x1="-4.2" y1="2" x2="4.2" y2="2" width="0.127" layer="39"/>
<wire x1="4.2" y1="2" x2="4.2" y2="-2" width="0.127" layer="39"/>
<wire x1="4.2" y1="-2" x2="-4.2" y2="-2" width="0.127" layer="39"/>
<wire x1="-4.2" y1="-2" x2="-4.2" y2="2" width="0.127" layer="39"/>
<wire x1="1.25" y1="-1.5" x2="1.25" y2="1.5" width="0.127" layer="21"/>
<circle x="-4.5" y="0" radius="0.2" width="0.3" layer="21"/>
<smd name="1" x="-2.7" y="0" dx="2.4" dy="2.7" layer="1"/>
<smd name="2" x="2.7" y="0" dx="2.4" dy="2.7" layer="1"/>
</package>
</packages>
<symbols>
<symbol name="HTU21D">
<description>&lt;b&gt;Description:&lt;/b&gt; The HTU21D is a very small, low cost, I2D digitally controlled humidity and temperature sensor.</description>
<wire x1="-7.62" y1="-5.08" x2="-7.62" y2="5.08" width="0.254" layer="94"/>
<wire x1="-7.62" y1="5.08" x2="7.62" y2="5.08" width="0.254" layer="94"/>
<wire x1="7.62" y1="5.08" x2="7.62" y2="-5.08" width="0.254" layer="94"/>
<wire x1="7.62" y1="-5.08" x2="-7.62" y2="-5.08" width="0.254" layer="94"/>
<text x="-7.62" y="5.588" size="1.778" layer="95">&gt;Name</text>
<text x="-7.62" y="-7.62" size="1.778" layer="95">&gt;Value</text>
<pin name="SCK" x="10.16" y="0" visible="pin" length="short" direction="in" rot="R180"/>
<pin name="DATA" x="10.16" y="2.54" visible="pin" length="short" rot="R180"/>
<pin name="GND@2" x="-10.16" y="0" visible="pin" length="short" direction="pwr"/>
<pin name="VDD" x="-10.16" y="2.54" visible="pin" length="short" direction="pwr"/>
<pin name="GND@7" x="-10.16" y="-2.54" visible="pin" length="short" direction="pwr"/>
</symbol>
<symbol name="CAPACITOR">
<text x="1.524" y="2.921" size="1.778" layer="95">&gt;NAME</text>
<text x="1.524" y="-2.159" size="1.778" layer="96">&gt;VALUE</text>
<rectangle x1="-2.032" y1="0.508" x2="2.032" y2="1.016" layer="94"/>
<rectangle x1="-2.032" y1="1.524" x2="2.032" y2="2.032" layer="94"/>
<pin name="1" x="0" y="5.08" visible="off" length="short" direction="pas" swaplevel="1" rot="R270"/>
<pin name="2" x="0" y="-2.54" visible="off" length="short" direction="pas" swaplevel="1" rot="R90"/>
<wire x1="0" y1="2.54" x2="0" y2="2.032" width="0.1524" layer="94"/>
<wire x1="0" y1="0" x2="0" y2="0.508" width="0.1524" layer="94"/>
<rectangle x1="-2.032" y1="0.508" x2="2.032" y2="1.016" layer="94"/>
<rectangle x1="-2.032" y1="1.524" x2="2.032" y2="2.032" layer="94"/>
</symbol>
</symbols>
<devicesets>
<deviceset name="HTU20D" prefix="U">
<gates>
<gate name="U$1" symbol="HTU21D" x="0" y="0"/>
</gates>
<devices>
<device name="SMD" package="HTU21D">
<connects>
<connect gate="U$1" pin="DATA" pad="DATA"/>
<connect gate="U$1" pin="GND@2" pad="GND"/>
<connect gate="U$1" pin="GND@7" pad="7"/>
<connect gate="U$1" pin="SCK" pad="SCK"/>
<connect gate="U$1" pin="VDD" pad="VDD"/>
</connects>
<technologies>
<technology name="">
<attribute name="DIGIKEY" value="223-1592-1-ND" constant="no"/>
<attribute name="PRICE_PER_UNIT" value="4.38" constant="no"/>
</technology>
</technologies>
</device>
</devices>
</deviceset>
<deviceset name="CAPACITOR" prefix="C" uservalue="yes">
<description>CAPACITOR</description>
<gates>
<gate name="G$1" symbol="CAPACITOR" x="0" y="0"/>
</gates>
<devices>
<device name="-0.1UF/10V" package="C0603">
<connects>
<connect gate="G$1" pin="1" pad="1"/>
<connect gate="G$1" pin="2" pad="2"/>
</connects>
<technologies>
<technology name="">
<attribute name="DIGIKEY" value="399-1095-1-ND"/>
<attribute name="PRICE_PER_UNIT" value="0.1"/>
</technology>
</technologies>
</device>
<device name="-0402" package="C0402">
<connects>
<connect gate="G$1" pin="1" pad="1"/>
<connect gate="G$1" pin="2" pad="2"/>
</connects>
<technologies>
<technology name=""/>
</technologies>
</device>
<device name="-FILM_AC-CAP" package="FILM-CAPACITOR-0.47U/400V">
<connects>
<connect gate="G$1" pin="1" pad="P$1"/>
<connect gate="G$1" pin="2" pad="P$2"/>
</connects>
<technologies>
<technology name=""/>
</technologies>
</device>
<device name="-1UF/10V" package="C0805">
<connects>
<connect gate="G$1" pin="1" pad="1"/>
<connect gate="G$1" pin="2" pad="2"/>
</connects>
<technologies>
<technology name="">
<attribute name="DIGIKEY" value="1276-1275-1-ND"/>
<attribute name="PRICE_PER_UNIT" value="0.1"/>
</technology>
</technologies>
</device>
<device name="-10UF/6.3V" package="C1206">
<connects>
<connect gate="G$1" pin="1" pad="1"/>
<connect gate="G$1" pin="2" pad="2"/>
</connects>
<technologies>
<technology name="">
<attribute name="DIGIKEY" value="1276-1079-1-ND"/>
<attribute name="PRICE_PER_UNIT" value="0.23"/>
</technology>
</technologies>
</device>
<device name="-33PF/50V" package="C0603">
<connects>
<connect gate="G$1" pin="1" pad="1"/>
<connect gate="G$1" pin="2" pad="2"/>
</connects>
<technologies>
<technology name="">
<attribute name="DIGIKEY" value="399-1055-1-ND"/>
<attribute name="PRICE_PER_UNIT" value="0.1"/>
</technology>
</technologies>
</device>
<device name="-18PF/50V" package="C0603">
<connects>
<connect gate="G$1" pin="1" pad="1"/>
<connect gate="G$1" pin="2" pad="2"/>
</connects>
<technologies>
<technology name="">
<attribute name="DIGIKEY" value="399-1052-1-ND"/>
<attribute name="PRICE_PER_UNIT" value="0.1"/>
</technology>
</technologies>
</device>
<device name="-DNP/NI" package="C0603">
<connects>
<connect gate="G$1" pin="1" pad="1"/>
<connect gate="G$1" pin="2" pad="2"/>
</connects>
<technologies>
<technology name="">
<attribute name="DIGIKEY" value="No Part" constant="no"/>
<attribute name="PRICE_PER_UNIT" value="0" constant="no"/>
</technology>
</technologies>
</device>
<device name="-4.7UF/6.3V" package="C0603">
<connects>
<connect gate="G$1" pin="1" pad="1"/>
<connect gate="G$1" pin="2" pad="2"/>
</connects>
<technologies>
<technology name="">
<attribute name="DIGIKEY" value="1276-2087-1-ND"/>
<attribute name="PRICE_PER_UNIT" value="0.1"/>
</technology>
</technologies>
</device>
<device name="-4.7UF/10V" package="C0805">
<connects>
<connect gate="G$1" pin="1" pad="1"/>
<connect gate="G$1" pin="2" pad="2"/>
</connects>
<technologies>
<technology name="">
<attribute name="DIGIKEY" value="1276-3022-1-ND"/>
<attribute name="PRICE_PER_UNIT" value="0.1"/>
</technology>
</technologies>
</device>
<device name="-2.2UF/6.3V" package="C0603">
<connects>
<connect gate="G$1" pin="1" pad="1"/>
<connect gate="G$1" pin="2" pad="2"/>
</connects>
<technologies>
<technology name="">
<attribute name="DIGIKEY" value="587-3386-1-ND"/>
<attribute name="PRICE_PER_UNIT" value="0.11"/>
</technology>
</technologies>
</device>
<device name="-2.2UF/10V" package="C0603">
<connects>
<connect gate="G$1" pin="1" pad="1"/>
<connect gate="G$1" pin="2" pad="2"/>
</connects>
<technologies>
<technology name="">
<attribute name="DIGIKEY" value="1276-1821-1-ND"/>
<attribute name="PRICE_PER_UNIT" value="0.12"/>
</technology>
</technologies>
</device>
<device name="-0.01UF/25V" package="C0603">
<connects>
<connect gate="G$1" pin="1" pad="1"/>
<connect gate="G$1" pin="2" pad="2"/>
</connects>
<technologies>
<technology name="">
<attribute name="DIGIKEY" value="1276-1132-1-ND"/>
<attribute name="PRICE_PER_UNIT" value="0.1"/>
</technology>
</technologies>
</device>
<device name="-4700PF/25V" package="C0603">
<connects>
<connect gate="G$1" pin="1" pad="1"/>
<connect gate="G$1" pin="2" pad="2"/>
</connects>
<technologies>
<technology name="">
<attribute name="DIGIKEY" value="1276-2062-1-ND"/>
<attribute name="PRICE_PER_UNIT" value="0.1"/>
</technology>
</technologies>
</device>
<device name="-0.1UF/25V" package="C0603">
<connects>
<connect gate="G$1" pin="1" pad="1"/>
<connect gate="G$1" pin="2" pad="2"/>
</connects>
<technologies>
<technology name="">
<attribute name="DIGIKEY" value="490-1524-1-ND" constant="no"/>
<attribute name="PRICE_PER_UNIT" value="0.1" constant="no"/>
</technology>
</technologies>
</device>
<device name="-10UF/10V" package="C0805">
<connects>
<connect gate="G$1" pin="1" pad="1"/>
<connect gate="G$1" pin="2" pad="2"/>
</connects>
<technologies>
<technology name="">
<attribute name="DIGIKEY" value="1276-3012-1-ND" constant="no"/>
<attribute name="PRICE_PER_UNIT" value="0.16" constant="no"/>
</technology>
</technologies>
</device>
<device name="-4.7UF/25V" package="C0805">
<connects>
<connect gate="G$1" pin="1" pad="1"/>
<connect gate="G$1" pin="2" pad="2"/>
</connects>
<technologies>
<technology name="">
<attribute name="DIGIKEY" value="490-3335-1-ND" constant="no"/>
<attribute name="PRICE_PER_UNIT" value="0.19" constant="no"/>
</technology>
</technologies>
</device>
<device name="-4.7NF/10V" package="C0603">
<connects>
<connect gate="G$1" pin="1" pad="1"/>
<connect gate="G$1" pin="2" pad="2"/>
</connects>
<technologies>
<technology name="">
<attribute name="DIGIKEY" value="399-9092-1-ND" constant="no"/>
<attribute name="PRICE_PER_UNIT" value="0.1" constant="no"/>
</technology>
</technologies>
</device>
<device name="-18PF/10V" package="C0805">
<connects>
<connect gate="G$1" pin="1" pad="1"/>
<connect gate="G$1" pin="2" pad="2"/>
</connects>
<technologies>
<technology name="">
<attribute name="MOUSER" value="77-VJ0805A180GXQCBC" constant="no"/>
<attribute name="PRICE_PER_UNIT" value="0.06" constant="no"/>
</technology>
</technologies>
</device>
<device name="-22UF/10V" package="C1206">
<connects>
<connect gate="G$1" pin="1" pad="1"/>
<connect gate="G$1" pin="2" pad="2"/>
</connects>
<technologies>
<technology name="">
<attribute name="DIGIKEY" value="587-1356-1-ND" constant="no"/>
<attribute name="PRICE_PER_UNIT" value="0.24" constant="no"/>
</technology>
</technologies>
</device>
<device name="-0.1UF/6.3V" package="C0603">
<connects>
<connect gate="G$1" pin="1" pad="1"/>
<connect gate="G$1" pin="2" pad="2"/>
</connects>
<technologies>
<technology name="">
<attribute name="DIGIKEY" value="490-9730-1-ND" constant="no"/>
<attribute name="PRICE_PER_UNIT" value="0.1" constant="no"/>
</technology>
</technologies>
</device>
<device name="-1UF/6.3V" package="C0603">
<connects>
<connect gate="G$1" pin="1" pad="1"/>
<connect gate="G$1" pin="2" pad="2"/>
</connects>
<technologies>
<technology name="">
<attribute name="DIGIKEY" value="1276-1024-1-ND" constant="no"/>
<attribute name="PRICE_PER_UNIT" value="0.1" constant="no"/>
</technology>
</technologies>
</device>
<device name="-10UF/25V" package="C1206">
<connects>
<connect gate="G$1" pin="1" pad="1"/>
<connect gate="G$1" pin="2" pad="2"/>
</connects>
<technologies>
<technology name="">
<attribute name="DIGIKEY" value="587-1353-1-ND" constant="no"/>
<attribute name="PRICE_PER_UNIT" value="0.21" constant="no"/>
</technology>
</technologies>
</device>
<device name="-22UF/6.3V" package="C1206">
<connects>
<connect gate="G$1" pin="1" pad="1"/>
<connect gate="G$1" pin="2" pad="2"/>
</connects>
<technologies>
<technology name="">
<attribute name="DIGIKEY" value="1276-3303-1-ND" constant="no"/>
<attribute name="PRICE_PER_UNIT" value="0.26" constant="no"/>
</technology>
</technologies>
</device>
<device name="-0.1UF/16V" package="C0603">
<connects>
<connect gate="G$1" pin="1" pad="1"/>
<connect gate="G$1" pin="2" pad="2"/>
</connects>
<technologies>
<technology name="">
<attribute name="DIGIKEY" value="490-1532-1-ND" constant="no"/>
<attribute name="PRICE_PER_UNIT" value="0.1" constant="no"/>
</technology>
</technologies>
</device>
<device name="-22PF/16V" package="C0603">
<connects>
<connect gate="G$1" pin="1" pad="1"/>
<connect gate="G$1" pin="2" pad="2"/>
</connects>
<technologies>
<technology name="">
<attribute name="DIGIKEY" value="399-9031-1-ND" constant="no"/>
<attribute name="PRICE_PER_UNIT" value="0.1" constant="no"/>
</technology>
</technologies>
</device>
<device name="-8PF/50V" package="C0603">
<connects>
<connect gate="G$1" pin="1" pad="1"/>
<connect gate="G$1" pin="2" pad="2"/>
</connects>
<technologies>
<technology name="">
<attribute name="DIGIKEY" value="445-5043-1-ND" constant="no"/>
<attribute name="PRICE_PER_UNIT" value="0.1" constant="no"/>
</technology>
</technologies>
</device>
<device name="-10NF/16V" package="C0603">
<connects>
<connect gate="G$1" pin="1" pad="1"/>
<connect gate="G$1" pin="2" pad="2"/>
</connects>
<technologies>
<technology name="">
<attribute name="DIGIKEY" value="1276-1926-1-ND" constant="no"/>
<attribute name="PRICE_PER_UNIT" value="0.1" constant="no"/>
</technology>
</technologies>
</device>
<device name="-47UF/6.3V" package="C1206">
<connects>
<connect gate="G$1" pin="1" pad="1"/>
<connect gate="G$1" pin="2" pad="2"/>
</connects>
<technologies>
<technology name="">
<attribute name="DIGIKEY" value="311-1993-1-ND" constant="no"/>
<attribute name="PRICE_PER_UNIT" value="0.47" constant="no"/>
</technology>
</technologies>
</device>
<device name="-10UF/6.3V." package="C0603">
<connects>
<connect gate="G$1" pin="1" pad="1"/>
<connect gate="G$1" pin="2" pad="2"/>
</connects>
<technologies>
<technology name="">
<attribute name="DIGIKEY" value="445-4112-1-ND" constant="no"/>
<attribute name="PRICE_PER_UNIT" value="0.18" constant="no"/>
</technology>
</technologies>
</device>
<device name="-10UF/6.3V-0805" package="C0805">
<connects>
<connect gate="G$1" pin="1" pad="1"/>
<connect gate="G$1" pin="2" pad="2"/>
</connects>
<technologies>
<technology name="">
<attribute name="DIGIKEY" value="490-3340-1-ND" constant="no"/>
<attribute name="PRICE_PER_UNIT" value="0.15" constant="no"/>
</technology>
</technologies>
</device>
<device name="-1NF/50V" package="C0603">
<connects>
<connect gate="G$1" pin="1" pad="1"/>
<connect gate="G$1" pin="2" pad="2"/>
</connects>
<technologies>
<technology name="">
<attribute name="DIGIKEY" value="490-1494-1-ND" constant="no"/>
<attribute name="PRICE_PER_UNIT" value="0.1" constant="no"/>
</technology>
</technologies>
</device>
<device name="-2200PF/50V" package="C0603">
<connects>
<connect gate="G$1" pin="1" pad="1"/>
<connect gate="G$1" pin="2" pad="2"/>
</connects>
<technologies>
<technology name="">
<attribute name="DIGIKEY" value="399-1085-1-ND" constant="no"/>
<attribute name="PRICE_PER_UNIT" value="0.1" constant="no"/>
</technology>
</technologies>
</device>
<device name="-100PF/50V" package="C0603">
<connects>
<connect gate="G$1" pin="1" pad="1"/>
<connect gate="G$1" pin="2" pad="2"/>
</connects>
<technologies>
<technology name="">
<attribute name="DIGIKEY" value="445-1281-1-ND" constant="no"/>
<attribute name="PRICE_PER_UNIT" value="0.1" constant="no"/>
</technology>
</technologies>
</device>
<device name="-0.022UF/50V" package="C0603">
<connects>
<connect gate="G$1" pin="1" pad="1"/>
<connect gate="G$1" pin="2" pad="2"/>
</connects>
<technologies>
<technology name="">
<attribute name="DIGIKEY" value="445-1312-1-ND" constant="no"/>
<attribute name="PRICE_PER_UNIT" value="0.1" constant="no"/>
</technology>
</technologies>
</device>
<device name="-150PF/50V" package="C0603">
<connects>
<connect gate="G$1" pin="1" pad="1"/>
<connect gate="G$1" pin="2" pad="2"/>
</connects>
<technologies>
<technology name="">
<attribute name="DIGIKEY" value="399-1063-1-ND" constant="no"/>
<attribute name="PRICE_PER_UNIT" value="0.1" constant="no"/>
</technology>
</technologies>
</device>
<device name="-15PF/50V" package="C0603">
<connects>
<connect gate="G$1" pin="1" pad="1"/>
<connect gate="G$1" pin="2" pad="2"/>
</connects>
<technologies>
<technology name="">
<attribute name="DIGIKEY" value="1276-1296-1-ND" constant="no"/>
<attribute name="PRICE_PER_UNIT" value="0.1" constant="no"/>
</technology>
</technologies>
</device>
<device name="-22NF/50V" package="C0603">
<connects>
<connect gate="G$1" pin="1" pad="1"/>
<connect gate="G$1" pin="2" pad="2"/>
</connects>
<technologies>
<technology name="">
<attribute name="DIGIKEY" value="445-1312-1-ND" constant="no"/>
<attribute name="PRICE_PER_UNIT" value="0.1" constant="no"/>
</technology>
</technologies>
</device>
<device name="-1UF/50V" package="C0805">
<connects>
<connect gate="G$1" pin="1" pad="1"/>
<connect gate="G$1" pin="2" pad="2"/>
</connects>
<technologies>
<technology name="">
<attribute name="DIGIKEY" value="311-1909-1-ND" constant="no"/>
<attribute name="PRICE_PER_100UNITS" value="0.0367" constant="no"/>
<attribute name="PRICE_PER_UNIT" value="0.11" constant="no"/>
</technology>
</technologies>
</device>
<device name="-1UF/10V-0603" package="C0603">
<connects>
<connect gate="G$1" pin="1" pad="1"/>
<connect gate="G$1" pin="2" pad="2"/>
</connects>
<technologies>
<technology name="">
<attribute name="DIGIKEY" value="1276-1863-1-ND" constant="no"/>
<attribute name="PRICE_PER_100UNIT" value="0.031" constant="no"/>
<attribute name="PRICE_PER_UNIT" value="0.1" constant="no"/>
</technology>
</technologies>
</device>
<device name="-47UF/16V" package="C1210">
<connects>
<connect gate="G$1" pin="1" pad="P$1"/>
<connect gate="G$1" pin="2" pad="P$2"/>
</connects>
<technologies>
<technology name="">
<attribute name="DIGIKEY" value="399-5514-2-ND " constant="no"/>
<attribute name="MANUFACTURER" value="C1210C476M4PACTU" constant="no"/>
<attribute name="MOUSER" value="80-C1210C476M4P" constant="no"/>
<attribute name="PRICE_PER_100UNIT" value="0.54" constant="no"/>
<attribute name="PRICE_PER_UNIT" value="1.01" constant="no"/>
</technology>
</technologies>
</device>
<device name="-9PF/50V" package="C0603">
<connects>
<connect gate="G$1" pin="1" pad="1"/>
<connect gate="G$1" pin="2" pad="2"/>
</connects>
<technologies>
<technology name="">
<attribute name="DIGIKEY" value="1276-2143-1-ND " constant="no"/>
<attribute name="PRICE_PER_100UNIT" value="0.017" constant="no"/>
<attribute name="PRICE_PER_UNIT" value="0.1" constant="no"/>
</technology>
</technologies>
</device>
<device name="-5.6PF/50V" package="C0603">
<connects>
<connect gate="G$1" pin="1" pad="1"/>
<connect gate="G$1" pin="2" pad="2"/>
</connects>
<technologies>
<technology name="">
<attribute name="DIGIKEY" value="399-7944-1-ND " constant="no"/>
<attribute name="PRICE_PER_100UNIT" value="0.0193" constant="no"/>
<attribute name="PRICE_PER_UNIT" value="0.1" constant="no"/>
</technology>
</technologies>
</device>
<device name="-12PF" package="C0603">
<connects>
<connect gate="G$1" pin="1" pad="1"/>
<connect gate="G$1" pin="2" pad="2"/>
</connects>
<technologies>
<technology name="">
<attribute name="DIGIKEY" value="1276-1254-1-ND  " constant="no"/>
<attribute name="PRICE_PER_UNIT" value="0.1" constant="no"/>
</technology>
</technologies>
</device>
<device name="-0.47UF" package="C0603">
<connects>
<connect gate="G$1" pin="1" pad="1"/>
<connect gate="G$1" pin="2" pad="2"/>
</connects>
<technologies>
<technology name="">
<attribute name="DIGIKEY" value="1276-2377-1-ND" constant="no"/>
<attribute name="PRICE_PER_UNIT" value="0.1" constant="no"/>
</technology>
</technologies>
</device>
<device name="-0.8PF/100V" package="C0402">
<connects>
<connect gate="G$1" pin="1" pad="1"/>
<connect gate="G$1" pin="2" pad="2"/>
</connects>
<technologies>
<technology name="">
<attribute name="DIGIKEY" value="478-9758-1-ND" constant="no"/>
<attribute name="PRICE_PER_UNIT" value="0.85" constant="no"/>
</technology>
</technologies>
</device>
<device name="-100UF/6.3V" package="C2312">
<connects>
<connect gate="G$1" pin="1" pad="1"/>
<connect gate="G$1" pin="2" pad="2"/>
</connects>
<technologies>
<technology name="">
<attribute name="DIGIKEY" value="478-8157-1-ND" constant="no"/>
<attribute name="PRICE_PER_UNIT" value=".81" constant="no"/>
</technology>
</technologies>
</device>
<device name="-0.1UF/10V." package="C0402">
<connects>
<connect gate="G$1" pin="1" pad="1"/>
<connect gate="G$1" pin="2" pad="2"/>
</connects>
<technologies>
<technology name="">
<attribute name="DIGIKEY" value="490-10777-1-ND" constant="no"/>
<attribute name="PRICE_PER_UNIT" value="0.1" constant="no"/>
</technology>
</technologies>
</device>
<device name="-10PF/50V" package="C0402">
<connects>
<connect gate="G$1" pin="1" pad="1"/>
<connect gate="G$1" pin="2" pad="2"/>
</connects>
<technologies>
<technology name="">
<attribute name="DIGIKEY" value="1276-1139-1-ND" constant="no"/>
<attribute name="PRICE_PE_UNIT" value="0.1" constant="no"/>
</technology>
</technologies>
</device>
<device name="-12PF/50V" package="C0402">
<connects>
<connect gate="G$1" pin="1" pad="1"/>
<connect gate="G$1" pin="2" pad="2"/>
</connects>
<technologies>
<technology name="">
<attribute name="DIGIKEY" value="1276-1178-1-ND" constant="no"/>
<attribute name="PRICE_PER_UNIT" value="0.1" constant="no"/>
</technology>
</technologies>
</device>
</devices>
</deviceset>
</devicesets>
</library>
<library name="adafruit">
<packages>
<package name="FPC_0.5MM-4">
<wire x1="-2.45" y1="-1.15" x2="2.75" y2="-1.15" width="0.127" layer="21"/>
<wire x1="2.75" y1="-1.15" x2="3.25" y2="-1.65" width="0.127" layer="21"/>
<wire x1="3.25" y1="-1.65" x2="3.25" y2="-5.65" width="0.127" layer="21"/>
<wire x1="3.25" y1="-5.65" x2="-3" y2="-5.65" width="0.127" layer="21"/>
<wire x1="-3" y1="-5.65" x2="-3" y2="-4.5" width="0.127" layer="21"/>
<wire x1="-3" y1="-4.5" x2="-3" y2="-1.7" width="0.127" layer="21"/>
<wire x1="-3" y1="-1.7" x2="-2.45" y2="-1.15" width="0.127" layer="21"/>
<wire x1="-3" y1="-4.5" x2="-1.55" y2="-4.5" width="0.127" layer="21"/>
<wire x1="-1.55" y1="-4.5" x2="-1.55" y2="-5.6" width="0.127" layer="21"/>
<wire x1="3.2" y1="-4.5" x2="1.85" y2="-4.5" width="0.127" layer="21"/>
<wire x1="1.85" y1="-4.5" x2="1.85" y2="-5.6" width="0.127" layer="21"/>
<smd name="1" x="-0.75" y="-0.45" dx="1.25" dy="0.3" layer="1" rot="R90"/>
<smd name="2" x="-0.25" y="-0.45" dx="1.25" dy="0.3" layer="1" rot="R90"/>
<smd name="3" x="0.25" y="-0.45" dx="1.25" dy="0.3" layer="1" rot="R90"/>
<smd name="4" x="0.75" y="-0.45" dx="1.25" dy="0.3" layer="1" rot="R90"/>
<smd name="MT2" x="2.7" y="-2.1" dx="2.6" dy="1.85" layer="1" rot="R90"/>
<smd name="MT" x="-2.7" y="-2.1" dx="2.6" dy="1.85" layer="1" rot="R90"/>
<text x="-2.5" y="-7.35" size="1.27" layer="25" font="vector">&gt;NAME</text>
</package>
<package name="1X04-BIG">
<wire x1="6.985" y1="1.27" x2="8.255" y2="1.27" width="0.2032" layer="21"/>
<wire x1="8.255" y1="1.27" x2="8.89" y2="0.635" width="0.2032" layer="21"/>
<wire x1="8.89" y1="-0.635" x2="8.255" y2="-1.27" width="0.2032" layer="21"/>
<wire x1="3.81" y1="0.635" x2="4.445" y2="1.27" width="0.2032" layer="21"/>
<wire x1="4.445" y1="1.27" x2="5.715" y2="1.27" width="0.2032" layer="21"/>
<wire x1="5.715" y1="1.27" x2="6.35" y2="0.635" width="0.2032" layer="21"/>
<wire x1="6.35" y1="-0.635" x2="5.715" y2="-1.27" width="0.2032" layer="21"/>
<wire x1="5.715" y1="-1.27" x2="4.445" y2="-1.27" width="0.2032" layer="21"/>
<wire x1="4.445" y1="-1.27" x2="3.81" y2="-0.635" width="0.2032" layer="21"/>
<wire x1="6.985" y1="1.27" x2="6.35" y2="0.635" width="0.2032" layer="21"/>
<wire x1="6.35" y1="-0.635" x2="6.985" y2="-1.27" width="0.2032" layer="21"/>
<wire x1="8.255" y1="-1.27" x2="6.985" y2="-1.27" width="0.2032" layer="21"/>
<wire x1="-0.635" y1="1.27" x2="0.635" y2="1.27" width="0.2032" layer="21"/>
<wire x1="0.635" y1="1.27" x2="1.27" y2="0.635" width="0.2032" layer="21"/>
<wire x1="1.27" y1="-0.635" x2="0.635" y2="-1.27" width="0.2032" layer="21"/>
<wire x1="1.27" y1="0.635" x2="1.905" y2="1.27" width="0.2032" layer="21"/>
<wire x1="1.905" y1="1.27" x2="3.175" y2="1.27" width="0.2032" layer="21"/>
<wire x1="3.175" y1="1.27" x2="3.81" y2="0.635" width="0.2032" layer="21"/>
<wire x1="3.81" y1="-0.635" x2="3.175" y2="-1.27" width="0.2032" layer="21"/>
<wire x1="3.175" y1="-1.27" x2="1.905" y2="-1.27" width="0.2032" layer="21"/>
<wire x1="1.905" y1="-1.27" x2="1.27" y2="-0.635" width="0.2032" layer="21"/>
<wire x1="-1.27" y1="0.635" x2="-1.27" y2="-0.635" width="0.2032" layer="21"/>
<wire x1="-0.635" y1="1.27" x2="-1.27" y2="0.635" width="0.2032" layer="21"/>
<wire x1="-1.27" y1="-0.635" x2="-0.635" y2="-1.27" width="0.2032" layer="21"/>
<wire x1="0.635" y1="-1.27" x2="-0.635" y2="-1.27" width="0.2032" layer="21"/>
<wire x1="8.89" y1="0.635" x2="8.89" y2="-0.635" width="0.2032" layer="21"/>
<pad name="1" x="0" y="0" drill="1.016" diameter="1.778" rot="R90"/>
<pad name="2" x="2.54" y="0" drill="1.016" diameter="1.778" rot="R90"/>
<pad name="3" x="5.08" y="0" drill="1.016" diameter="1.778" rot="R90"/>
<pad name="4" x="7.62" y="0" drill="1.016" diameter="1.778" rot="R90"/>
<text x="-1.3462" y="1.8288" size="1.27" layer="25" ratio="10">&gt;NAME</text>
<text x="-1.27" y="-3.175" size="1.27" layer="27">&gt;VALUE</text>
<rectangle x1="7.366" y1="-0.254" x2="7.874" y2="0.254" layer="51"/>
<rectangle x1="4.826" y1="-0.254" x2="5.334" y2="0.254" layer="51"/>
<rectangle x1="2.286" y1="-0.254" x2="2.794" y2="0.254" layer="51"/>
<rectangle x1="-0.254" y1="-0.254" x2="0.254" y2="0.254" layer="51"/>
</package>
<package name="1X04-CLEANBIG">
<pad name="1" x="-3.81" y="0" drill="1.016" diameter="1.778" rot="R90"/>
<pad name="2" x="-1.27" y="0" drill="1.016" diameter="1.778" rot="R90"/>
<pad name="3" x="1.27" y="0" drill="1.016" diameter="1.778" rot="R90"/>
<pad name="4" x="3.81" y="0" drill="1.016" diameter="1.778" rot="R90"/>
<text x="-2.6162" y="1.8288" size="1.27" layer="25" ratio="10">&gt;NAME</text>
<text x="-2.54" y="-3.175" size="1.27" layer="27">&gt;VALUE</text>
<rectangle x1="3.556" y1="-0.254" x2="4.064" y2="0.254" layer="51"/>
<rectangle x1="1.016" y1="-0.254" x2="1.524" y2="0.254" layer="51"/>
<rectangle x1="-1.524" y1="-0.254" x2="-1.016" y2="0.254" layer="51"/>
<rectangle x1="-4.064" y1="-0.254" x2="-3.556" y2="0.254" layer="51"/>
</package>
<package name="1X04-3.5MM">
<wire x1="-7" y1="3.4" x2="-7" y2="-2.5" width="0.127" layer="21"/>
<wire x1="-7" y1="-2.5" x2="-7" y2="-3.6" width="0.127" layer="21"/>
<wire x1="-7" y1="-3.6" x2="7" y2="-3.6" width="0.127" layer="21"/>
<wire x1="7" y1="-3.6" x2="7" y2="-2.5" width="0.127" layer="21"/>
<wire x1="7" y1="-2.5" x2="7" y2="3.4" width="0.127" layer="21"/>
<wire x1="7" y1="3.4" x2="-7" y2="3.4" width="0.127" layer="21"/>
<wire x1="-7" y1="-2.5" x2="7" y2="-2.5" width="0.127" layer="21"/>
<pad name="4" x="5.25" y="0" drill="1" diameter="2.1844"/>
<pad name="3" x="1.75" y="0" drill="1" diameter="2.1844"/>
<pad name="2" x="-1.75" y="0" drill="1" diameter="2.1844"/>
<pad name="1" x="-5.25" y="0" drill="1" diameter="2.1844"/>
<text x="6.12" y="-5.81" size="1.27" layer="25" rot="R180">&gt;NAME</text>
</package>
<package name="1X4-SMT">
<smd name="2" x="-1.27" y="0" dx="1.27" dy="2.54" layer="1"/>
<smd name="3" x="1.27" y="0" dx="1.27" dy="2.54" layer="1"/>
<smd name="4" x="3.81" y="0" dx="1.27" dy="2.54" layer="1"/>
<smd name="1" x="-3.81" y="0" dx="1.27" dy="2.54" layer="1"/>
</package>
</packages>
<symbols>
<symbol name="1X4">
<wire x1="0" y1="5.08" x2="5.08" y2="5.08" width="0.254" layer="94"/>
<wire x1="5.08" y1="5.08" x2="5.08" y2="-7.62" width="0.254" layer="94"/>
<wire x1="5.08" y1="-7.62" x2="0" y2="-7.62" width="0.254" layer="94"/>
<wire x1="0" y1="-7.62" x2="0" y2="5.08" width="0.254" layer="94"/>
<text x="5.08" y="7.62" size="1.27" layer="95" font="vector" rot="R180">&gt;NAME</text>
<text x="0" y="-10.16" size="1.27" layer="96" font="vector">&gt;VALUE</text>
<pin name="1" x="-5.08" y="2.54" length="middle"/>
<pin name="2" x="-5.08" y="0" length="middle"/>
<pin name="3" x="-5.08" y="-2.54" length="middle"/>
<pin name="4" x="-5.08" y="-5.08" length="middle"/>
</symbol>
</symbols>
<devicesets>
<deviceset name="1X4" prefix="CN">
<description>4-pin connector</description>
<gates>
<gate name="G$1" symbol="1X4" x="0" y="0"/>
</gates>
<devices>
<device name="FPC0.5" package="FPC_0.5MM-4">
<connects>
<connect gate="G$1" pin="1" pad="1"/>
<connect gate="G$1" pin="2" pad="2"/>
<connect gate="G$1" pin="3" pad="3"/>
<connect gate="G$1" pin="4" pad="4"/>
</connects>
<technologies>
<technology name=""/>
</technologies>
</device>
<device name="-BIG" package="1X04-BIG">
<connects>
<connect gate="G$1" pin="1" pad="1"/>
<connect gate="G$1" pin="2" pad="2"/>
<connect gate="G$1" pin="3" pad="3"/>
<connect gate="G$1" pin="4" pad="4"/>
</connects>
<technologies>
<technology name=""/>
</technologies>
</device>
<device name="-CLEANBIG" package="1X04-CLEANBIG">
<connects>
<connect gate="G$1" pin="1" pad="1"/>
<connect gate="G$1" pin="2" pad="2"/>
<connect gate="G$1" pin="3" pad="3"/>
<connect gate="G$1" pin="4" pad="4"/>
</connects>
<technologies>
<technology name=""/>
</technologies>
</device>
<device name="-3.5MM" package="1X04-3.5MM">
<connects>
<connect gate="G$1" pin="1" pad="1"/>
<connect gate="G$1" pin="2" pad="2"/>
<connect gate="G$1" pin="3" pad="3"/>
<connect gate="G$1" pin="4" pad="4"/>
</connects>
<technologies>
<technology name=""/>
</technologies>
</device>
<device name="SMT" package="1X4-SMT">
<connects>
<connect gate="G$1" pin="1" pad="1"/>
<connect gate="G$1" pin="2" pad="2"/>
<connect gate="G$1" pin="3" pad="3"/>
<connect gate="G$1" pin="4" pad="4"/>
</connects>
<technologies>
<technology name=""/>
</technologies>
</device>
</devices>
</deviceset>
</devicesets>
</library>
</libraries>
<attributes>
</attributes>
<variantdefs>
</variantdefs>
<classes>
<class number="0" name="default" width="0" drill="0">
</class>
</classes>
<parts>
<part name="U1" library="passives" deviceset="HTU20D" device="SMD"/>
<part name="CN1" library="adafruit" deviceset="1X4" device="SMT"/>
<part name="C1" library="passives" deviceset="CAPACITOR" device="-0.1UF/10V" value=".1uF"/>
</parts>
<sheets>
<sheet>
<plain>
</plain>
<instances>
<instance part="U1" gate="U$1" x="63.5" y="55.88"/>
<instance part="CN1" gate="G$1" x="101.6" y="55.88"/>
<instance part="C1" gate="G$1" x="45.72" y="55.88"/>
</instances>
<busses>
</busses>
<nets>
<net name="VDD" class="0">
<segment>
<pinref part="CN1" gate="G$1" pin="1"/>
<wire x1="96.52" y1="58.42" x2="86.36" y2="58.42" width="0.1524" layer="91"/>
<label x="86.36" y="58.42" size="1.778" layer="95"/>
<wire x1="86.36" y1="58.42" x2="86.36" y2="63.5" width="0.1524" layer="91"/>
<wire x1="86.36" y1="63.5" x2="50.8" y2="63.5" width="0.1524" layer="91"/>
<wire x1="50.8" y1="63.5" x2="50.8" y2="60.96" width="0.1524" layer="91"/>
<pinref part="U1" gate="U$1" pin="VDD"/>
<wire x1="50.8" y1="60.96" x2="50.8" y2="58.42" width="0.1524" layer="91"/>
<wire x1="50.8" y1="58.42" x2="53.34" y2="58.42" width="0.1524" layer="91"/>
<pinref part="C1" gate="G$1" pin="1"/>
<wire x1="45.72" y1="60.96" x2="50.8" y2="60.96" width="0.1524" layer="91"/>
<junction x="50.8" y="60.96"/>
</segment>
</net>
<net name="SCL" class="0">
<segment>
<pinref part="CN1" gate="G$1" pin="2"/>
<wire x1="96.52" y1="55.88" x2="86.36" y2="55.88" width="0.1524" layer="91"/>
<label x="86.36" y="55.88" size="1.778" layer="95"/>
<pinref part="U1" gate="U$1" pin="SCK"/>
<wire x1="86.36" y1="55.88" x2="73.66" y2="55.88" width="0.1524" layer="91"/>
</segment>
</net>
<net name="SDA" class="0">
<segment>
<pinref part="CN1" gate="G$1" pin="3"/>
<wire x1="96.52" y1="53.34" x2="86.36" y2="53.34" width="0.1524" layer="91"/>
<label x="86.36" y="53.34" size="1.778" layer="95"/>
<wire x1="86.36" y1="53.34" x2="78.74" y2="53.34" width="0.1524" layer="91"/>
<wire x1="78.74" y1="53.34" x2="76.2" y2="53.34" width="0.1524" layer="91"/>
<wire x1="76.2" y1="53.34" x2="76.2" y2="58.42" width="0.1524" layer="91"/>
<pinref part="U1" gate="U$1" pin="DATA"/>
<wire x1="76.2" y1="58.42" x2="73.66" y2="58.42" width="0.1524" layer="91"/>
</segment>
</net>
<net name="GND" class="0">
<segment>
<pinref part="CN1" gate="G$1" pin="4"/>
<wire x1="96.52" y1="50.8" x2="86.36" y2="50.8" width="0.1524" layer="91"/>
<label x="86.36" y="50.8" size="1.778" layer="95"/>
<wire x1="86.36" y1="50.8" x2="73.66" y2="50.8" width="0.1524" layer="91"/>
<wire x1="73.66" y1="50.8" x2="73.66" y2="45.72" width="0.1524" layer="91"/>
<wire x1="73.66" y1="45.72" x2="50.8" y2="45.72" width="0.1524" layer="91"/>
<wire x1="50.8" y1="45.72" x2="50.8" y2="48.26" width="0.1524" layer="91"/>
<wire x1="50.8" y1="48.26" x2="50.8" y2="53.34" width="0.1524" layer="91"/>
<pinref part="U1" gate="U$1" pin="GND@2"/>
<wire x1="50.8" y1="53.34" x2="50.8" y2="55.88" width="0.1524" layer="91"/>
<wire x1="50.8" y1="55.88" x2="53.34" y2="55.88" width="0.1524" layer="91"/>
<pinref part="U1" gate="U$1" pin="GND@7"/>
<wire x1="50.8" y1="53.34" x2="53.34" y2="53.34" width="0.1524" layer="91"/>
<junction x="50.8" y="53.34"/>
<pinref part="C1" gate="G$1" pin="2"/>
<wire x1="45.72" y1="53.34" x2="50.8" y2="53.34" width="0.1524" layer="91"/>
</segment>
</net>
</nets>
</sheet>
</sheets>
</schematic>
</drawing>
</eagle>
