"Id";"Designator";"Package";"Quantity";"Designation";"Supplier and ref";
1;"BATT";"TerminalBlock_Pheonix_MKDS1.5-2pol";1;"BATT";;;
2;"T1";"MMBT2222ALT1G";1;"";;;
3;"MAINS";"TerminalBlock_Pheonix_MKDS1.5-2pol";1;"MAINS";;;
4;"VAdj.1,CC_ADJ1";"Potentiometer_Trimmer-EVM3E";2;"10K";;;
5;"CH_LED";"Potentiometer_Trimmer-EVM3E";1;"100K";;;
6;"D1,D3";"D_SMC";2;"D";;;
7;"D2";"D_SMC";1;"SS54";;;
8;"L1";"33uH";1;"33uH";;;
9;"U2,U4";"SOT-223";2;"LM1117-5.0";;;
10;"U5";"DMG2307L-7";1;"";;;
11;"U6";"STM8S003F3P6";1;"";;;
12;"VOUT";"TerminalBlock_Pheonix_MKDS1.5-2pol";1;"VOUT";;;
13;"C1,C2";"CP_Elec_10x10.5";2;"220uF/35V";;;
14;"C3,C5,C6";"Capacitor_0603_Hand_Solder";3;"0.1uF";;;
15;"C4";"Capacitor_0603_Hand_Solder";1;"0.01uF";;;
16;"LED1,LED3,LED4,LED5";"LED_0603_HandSoldering";4;"OK";;;
17;"LED2";"LED_0603_HandSoldering";1;"CH";;;
18;"LED6";"LED_0603_HandSoldering";1;"CC/CV";;;
19;"R1";"R_0603_Hand_Solder";1;"470R";;;
20;"R2";"R_0603_Hand_Solder";1;"470K";;;
21;"R3,R4,R5,R6,R7,R8,R12";"R_0603_Hand_Solder";7;"1K";;;
22;"R9,R10,R13";"R_0603_Hand_Solder";3;"10K";;;
23;"R11";"R_0603_Hand_Solder";1;"5.6K";;;
24;"R14";"R_0603_Hand_Solder";1;"4.7K";;;
25;"R_C";"R_0603_Hand_Solder";1;"PCB TRACE";;;
26;"U3";"LM358DT";1;"";;;
27;"U1";"lm2596sxheatpad";1;"";;;
28;"J1";"Pin_Header_Straight_1x04_Pitch2.54mm";1;"PROG";;;
