:1080000082008EB78200908B8200908B8200908BD2
:108010008200908B8200908B82008D568200908B24
:108020008200908B8200908B8200908B82008B006C
:108030008200908B8200908B8200908B8200908BCC
:108040008200908B8200908B8200908B8200908BBC
:108050008200908B8200908B8200908B8200908BAC
:108060008200908B8200908B8200908B8200882B04
:108070008200908B8200908B82008A6C8200908BB1
:108080003B000835010008A640AE500ACD904CA137
:108090000027F4350400107210500FCD8E91AE0001
:1080A00013CD814E7211500FCD8D21A1002603CC2E
:1080B00081483540001072125005CD88BE72100004
:1080C00010A640AE500ACD904CA100270CA640AEA1
:1080D000500ACD904CA10026F4CD8BCCA640AE50DA
:1080E0000ACD904CA10027F4CD8FDFA603C8001065
:1080F000C70010AE0064CD8CABA640AE500ACD9048
:108100004CA100270CA640AE500ACD904CA10026F1
:10811000F4B608B7004AB7083D0026BDCD8EDCA6F0
:1081200001CD8AD17213500535800010A640AE50A3
:108130000ACD904CA100270CA640AE500ACD904C21
:10814000A10026F4320008813580001020F6CD828F
:108150003F3B000CBF0A9BCD887AA1002603CC824E
:1081600008CD9081B70C35BF52303F08450C09BE91
:108170000872BB000A5CF6A110261E350152319030
:10818000AE0040AE5230CD8CCAA10027F235BF52AE
:1081900030B60CAB02B70C2036A1202606350252B1
:1081A0003120DCA10227034A265E725F523120CFC4
:1081B00072BB000AF6C7523190AE0040AE5230CDCD
:1081C0008CCAA10027F235BF5230B60C4CB70C90C8
:1081D0005FB60C9097BE081C000ABF0093B3002F37
:1081E000CF350A523190AE0040AE5230CD8CCAA18C
:1081F0000027F235BF523090AE0266AE5230CD90BD
:1082000077AE0020CD8E149A32000CCC829D88A6C9
:10821000082000887B02887B02891E061F045F9766
:10822000FE1F06858481891E05BF0820001E031FCE
:1082300005855B028188A600200F88A604200A8895
:10824000A608200588A60C200088897B04887B046A
:10825000891E081F045F971F08FE1F061E085C5C2E
:10826000FE1F08858481891E05BF001E07BF0220EE
:1082700021891E05BF041E07BF062016891E05BFE3
:10828000081E07BF0A200B891E05BF0C1E07BF0E64
:1082900020001E031F07855B0481CD8287CD827C71
:1082A00081CD822681450C04450D05450E06450FFE
:1082B000078145000C45010D45020E45030F81CD98
:1082C000823F3B000CB70CBF0890BF0ACD9017A6A9
:1082D00002AE5200CD8EA4A10027F4B60CAE52001F
:1082E000CD90213F0C203DA680AE5200CD8EA44AF9
:1082F00027F5A601AE5200CD8EA4A10027F4AE5200
:1083000000CD902692C708BE085CBF08A602AE52F8
:1083100000CD8EA4A10027F44FAE5200CD9021B61F
:108320000C4CB70C5FB60C97B30A2FBBA680AE52AD
:1083300000CD8EA44A27F5A602AE5200CD8EA4A190
:108340000027F4CD8FD332000CCC829DCD900C2031
:1083500000B603EB03B703B602E902B702B601E9C0
:1083600001B701B600F9B70081BE00261E90BE0419
:10837000260CBE0290BE0665BF0290BF0681BF04F8
:10838000450206450307BF00BF0281A6203D002627
:108390000DBE01BF004503023F033A03A0085F90F2
:1083A0005F992017905959B304260390B306250B03
:1083B00072B2000624015A72B0000439033902393E
:1083C0000139004A2ADEBF0490BF06BE0053BF0039
:1083D000BE0253BF0281CD823FCD82443B0006BF27
:1083E00008CD82B2B7001C0004F6A4E9F7B605BABE
:1083F00000FAF7BE081C0006F6A4CFF7F6BA04F799
:10840000BE081C0002F64FBE081C0002F7BE081C86
:108410000003BF0AF6A40FF7F6A4F0F7CD89FECD4E
:1084200082A5CD8369B602A4F092C70AB603A40F51
:1084300092CA0A92C70ABE02CD8E719FBE081C0066
:1084400002F7BE081C0005F6A4F3F77B01FAF75B00
:1084500001CC829A3B0008B708CD9017A602AE5215
:1084600000CD8EA4A10027F4B608A47FAE5200CDA3
:108470009021A680AE5200CD8EA4A10026F4A601C4
:10848000AE5200CD8EA4A10027F4AE5200CD9026AE
:10849000A602AE5200CD8EA4A10027F44FAE52002A
:1084A000CD9021A680AE5200CD8EA4A10026F4A6C8
:1084B00001AE5200CD8EA4A10027F4AE5200CD90A3
:1084C00026B708CD8FD3B60832000881B70445001F
:1084D000024504033303909372A9000490BF0092F5
:1084E000C600B40392C700B602A580271EB602A537
:1084F000102706F6BA04F72004F6B403F790937237
:10850000A9000290F6BA0490F7200C909372A9008B
:108510000290F6B40390F71C0003B602A5402706AC
:10852000F6BA04F72004F6B403F7B602A52027092B
:1085300092C600BA0492C7008192C600B40392C7E3
:108540000081BF00B7039002B7029001909FA40F73
:108550005F5CCD8E6941B7043D032729B6024A26E8
:108560000ABE001C0004F6BA04F781B602A1052673
:108570000ABE001C0008F6BA04F781BE001C000504
:10858000F6BA04F7813304B6024A260ABE001C007C
:1085900004F6B404F781B602A105260ABE001C0049
:1085A00008F6B404F781BE001C0005F6B404F78198
:1085B000CD905E7219534E7219534E72145050A6DC
:1085C00006CA50B3C750B3AE5000CD8E2AAE500588
:1085D000CD8E2AAE500ACD8E2AAE500FCD8E2ACD2A
:1085E0008C8035C00000A6FFAE5000CD84CC35C0D5
:1085F0000000A6FDAE500ACD84CC35C00000A6FF19
:10860000AE500FCD84CC35D00000A610AE5005CDB5
:1086100084CCAE0040CD902B35AA50E081CD823F76
:108620003B000CBF0890BF0AAA80B70CCD9017A6DC
:1086300002AE5200CD8EA4A10027F4B60CAE5200BB
:10864000CD90213F0C201FA602AE5200CD8EA4A1DA
:108650000027F492C608AE5200CD9021BE085CBF40
:1086600008B60C4CB70C5FB60C97B30A2FD9A6020C
:10867000AE5200CD8EA4A10027F4CD8FD332000CD2
:10868000CC829DB701A4F0B702B601A40F5F5CCD08
:108690008E6941B7013D0226163D002707CA50C327
:1086A000C750C3813301B601C450C3C750C381B69C
:1086B00002A11026183D002709B601CA50C4C750B0
:1086C000C4813301B601C450C4C750C4813D0027E2
:1086D00009B601CA50D0C750D0813301B601C45089
:1086E000D0C750D081A601AE5230CC8F66350C0079
:1086F000063F053F044FAE2580BF025FBF00AE526C
:1087000030CD83D6A60190AE0255AE5230CD854213
:10871000A60190AE0266AE5230CC8542A601AE01F3
:108720001CCC87DC35010000A605CC8683CD8724D0
:10873000CD871CCD86EDCC86E5CD820E02B7090132
:1087400041B708CD9017A602AE5200CD8EA4A1006D
:1087500027F4B609AA80AE5200CD9021A602AE52EF
:1087600000CD8EA4A10027F4B608AE5200CD902112
:10877000A602AE5200CD8EA4A10027F45F20015CBA
:10878000A300202FFACD8FD3CC82A13B00083F0855
:10879000200F5F97581C8D75FECD8739B6084CB7F2
:1087A00008B608A10325EB3F08200F5F97581C8FE0
:1087B0003EFECD8739B6084CB708B608A10225EBB6
:1087C0003F08200E5F9758DE8C5ECD8739B6084C87
:1087D000B708B608A11125EC32000881B7009EA1A8
:1087E00001261A9F4EA4F0AA0FC4509EC7509E3D6A
:1087F0000027379FA4F0CA509EC7509E81A1022631
:10880000153D0027089FCA509FC7509F819F43C4B2
:10881000509FC7509F813D0027089FCA509DC75059
:108820009D819F43C4509DC7509D818A84A4BF8869
:1088300086CD8235CD823AA601CD8F92A100273315
:10884000A601CD906DAE001ECD8D3CBE00A3FFFFF6
:108850002605BE02A3FF3D25075FCF001ECF0020E7
:10886000AE001ECD8D3CCD834C00000064AE001EDA
:10887000CD8D48CD8271CD82668035FF00113F00DD
:108880002005B6004CB700B600A10224245F971C57
:108890000013F64C26EC5CF6A1042710A102270C6D
:1088A000A1012708A1102704A12026D6B600C700E1
:1088B00011AE0011F6A10225024F81A60181CD88DB
:1088C0007AA100273C35FF001335040014AE0011D7
:1088D000F6CD8E761C0013909372A9000290F6C715
:1088E00000151C0003F6C70016725F0018725F00C7
:1088F00019725F001A725F001B725F001C725F00CA
:108900001D813B0008520E90AE8F76965C89A60EB4
:10891000CD8FBA85CD878BAE1179CD87393F0820B1
:10892000175F97589096905CBF009372BB0000FE53
:10893000CD8739B6084CB708B608A10725E35B0E0A
:1089400032000881351150C2725F50C6725F50C14B
:10895000725F50CB350150C8725F50C9350350C0AB
:10896000725F50C3358050C4725F50D0725F50CA7E
:10897000725F50C5725F50CD725F50CC725F50CE47
:1089800035B950CF81CD820EBF08A303E9251490DD
:10899000AE03E865CD8CAB90AE03E8BE086590BF32
:1089A00008271CBE08CD9034A601CD8FAD5F5CCDED
:1089B0008DE6A10027F75F5CCD90014FCD8FADCC48
:1089C00082A13B0008520E90AE8F84965C89A60E61
:1089D000CD8FBA85CD878B3F0820175F975890962B
:1089E000905CBF009372BB0000FECD8739B6084C87
:1089F000B708B608A10725E35B0E320008815FBF08
:108A000002BF00C650C7A101270FA1022607AE94DE
:108A100070BF02200EA104260AAE2400BF02AE00E1
:108A2000F4BF00A607C450C05F97D6905997BF0601
:108A30005FBF04CC83695F35CA5159355351594DD5
:108A4000270872145149A601201D721551492001B1
:108A50005C7204514C05A3FFFF26F5C6514CA504DA
:108A60002704A60120014F35FF5159818A84A4BFF4
:108A70008886CD8235CD823A90AE0020AE5230CD80
:108A80009072AE5230CD9088A12A260375200AA19B
:108A90002B2606AE9085CD8BF1CD8271CD8266807E
:108AA0009BCD8F46CD8B7ECD8D1BCD9063AE000FC1
:108AB000CD8CABCD8FF6CD903DCD872DAE000FCDBB
:108AC0008CABCD89C2CD8E3F720150B103CD8DCF1D
:108AD000813B0008B708CD8FDFA627CD84543D0821
:108AE000260ACD8902A627CD84542010B6084A262E
:108AF0000BCD9053CD89C2A627CD84543200088176
:108B00008A84A4BF8886CD8235CD823AAE0002CD5C
:108B10008E147201001009CD8FDF35420010200441
:108B200035040010CD8271CD826680C600102611FA
:108B3000A646CD8BA5A640C40010C70010721E002B
:108B400010720F00100FCD8AA0A640C40010C700FD
:108B500010721000108189FE9093855C5C905D27F7
:108B60001C89FEBF00855C5C89FEBF02855C5C5190
:108B70005A92D60092D7025A2AF75120D981AE5084
:108B800000CD8E2AAE5005CD8E2AAE500ACD8E2A4B
:108B9000AE500FCD8E2ACD8C80CD8C16CD8D87CD4D
:108BA0008DB7CC8D9F3B0008B708CD85B05FB60868
:108BB00097CD8E54A601CD8A36AE0005CD8CAB8EF6
:108BC0004FCD8A36725F50C0320008814FCD8AD1B6
:108BD000AE0005CD8CAB90AE000BAE00134FCD8632
:108BE0001D5F5CCD8CABCD8FEB5FCD87394FCC84D7
:108BF00054CD820EBF082016C7523190AE0040AE51
:108C00005230CD8CCAA10027F2BE085CBF0892C6C4
:108C10000826E5CC82A135E00000A640AE5005CD87
:108C200084CC35400000A680AE5005CD84CC35C044
:108C30000000A630AE5005CC84CCB7019EC7528F41
:108C40009FC75290B601C7528EA68FC45280C7529A
:108C500080B600CA5280C752803501528881020016
:108C60000502064119522C002D052E902FAA302DF9
:108C700031D43700380B3C0B1888581B6F30010477
:108C8000725F50A0725F50A1725F50A2725F50AAD3
:108C900035FF50A335FF50A4725F50A5725F50ABF3
:108CA000818B5600128F2400100000CD823FBF0A36
:108CB0003F093F08200BAE03E8CD8985BE085CBFA5
:108CC00008BE08B30A25EFCC829D3F0090A30101A6
:108CD000260A1C0005F6A50126072009909FF52706
:108CE0000435010000B60081725F52023502520362
:108CF000725F52003502520172105201721452001A
:108D000035075205815F5C3F00A604CD8C3A3501E2
:108D10000000A604CD8F004FCC8FA0CD8F12CC8D3C
:108D200005CD887AA100270FAE0011F6CD8E761CF6
:108D30000014F6A10227024F81A6018189FEBF001F
:108D40001E01EE02BF028581908990BE00FF90BE99
:108D500002EF029085818A84A4BF8886CD8235CDBA
:108D6000823AAE0040CD902BCD8271CD82668007D5
:108D70004E08C00900076C0880090007D9080009DF
:108D80000007E408C0090035C00000A610AE500A74
:108D9000CD84CC35400000A640AE500ACC84CC3502
:108DA000E00000A601AE500FCD84CC35E00000A657
:108DB00002AE5005CC84CC35F00000A604AE5000C5
:108DC000CD84CC35400000A608AE5000CC84CC72D7
:108DD0005F0012CD8ECAA1002607725F0010CD8BF6
:108DE0002B350150B1813F009FC45286B7019EC40C
:108DF0005287BA01270435010000B6008190AE8C7D
:108E0000A1200A931C000290FE90FD909390A38CE9
:108E1000AB26F0819093014F025190A301002605EB
:108E20009FC750A4819FC750A3814F1C0004F71D0A
:108E30000004F71C0002F71D00021C0003F7813537
:108E4000CC50E0355550E0350650E135FF50E23565
:108E5000AA50E08135CA5159355351599EC75154D2
:108E60009FC7515535FF5159814D2704584A26FC5B
:108E70008154545454815F4D2A01539781CD820E01
:108E80005202BF08BE081F01965CA601CD90972034
:108E9000F390AE000BAE00134FCD82BFCD8FDFA697
:108EA00027CC8454B7013F001C0003F6B50127040A
:108EB00035010000B60081AE03FF94CD908E5D2792
:108EC00003CD8DFDCD8FC7CC9091A610CD8454A13C
:108ED000242706350100124F81A60181CD905EAE98
:108EE0000005CD8CABCD9063AE000FCC8CABB70141
:108EF0003D002705F6BA01F7813301B601F4F78189
:108F0000C7528EB6004A26057210528881721152DD
:108F1000888135010000A601CD8683A6F8C452825F
:108F2000C752828180FF00000000000000000000A6
:108F30000000000000000368042B03340415031A2A
:108F4000040B030D0405CD894435FA50C235015098
:108F5000C8725F50C081725F5050725F505135408F
:108F60005054C65054811C00044D2705F6A4DFF769
:108F700081F6AA20F7813C0B2504130F5A5D5C7C17
:108F800001803B3B3C8B119F254013105A555C7070
:108F900001103F00C552E5270435010000B60081ED
:108FA0004D2705721E528081721F5280814D270508
:108FB000721052808172115280818890F6F75C9015
:108FC0005C0A0126F68481CD8AA0CD808035AA5026
:108FD000E020F735010000A610AE5005CC8EEEAEB5
:108FE0000104CD8739AE0110CC8739AE010CCD8795
:108FF00039A627CC8454CD9068CD8CE8721C5200E1
:10900000819F43C752869E43C75287811E031C001F
:10901000041F031D0004813F00A610AE5005CC8E36
:10902000EE1C0004F7811C0004F681CD8E719F4375
:10903000C7514D819EC7528F9FC7529081CD8F5689
:10904000A6F7CC9045C45054C7505481B7005CF685
:10905000B40081AE0104CC873901020408107218F3
:10906000500A817219500A81721850C38143C75245
:10907000E581909F43F781F6A4BFF7818985CD8E66
:109080007DC60011814F4B005CF681CC90945F5CF3
:0890900081CC907C9D20FD8144
:0400000500008EB7B2
:00000001FF
