G75*
%MOIN*%
%OFA0B0*%
%FSLAX24Y24*%
%IPPOS*%
%LPD*%
%AMOC8*
5,1,8,0,0,1.08239X$1,22.5*
%
%ADD10C,0.0050*%
%ADD11C,0.0000*%
%ADD12OC8,0.0700*%
%ADD13C,0.0740*%
%ADD14R,0.0740X0.0740*%
%ADD15C,0.0945*%
%ADD16C,0.0591*%
%ADD17C,0.0512*%
%ADD18C,0.0886*%
%ADD19OC8,0.0600*%
%ADD20C,0.0540*%
%ADD21C,0.1310*%
%ADD22C,0.1300*%
%ADD23C,0.0531*%
%ADD24C,0.0930*%
%ADD25C,0.0480*%
%ADD26C,0.0420*%
%ADD27C,0.0240*%
%ADD28C,0.0320*%
%ADD29C,0.0100*%
%ADD30C,0.0240*%
D10*
X011160Y010420D02*
X011297Y010418D01*
X011433Y010412D01*
X011570Y010402D01*
X011706Y010388D01*
X011841Y010370D01*
X011976Y010349D01*
X012110Y010323D01*
X012244Y010293D01*
X012376Y010260D01*
X012508Y010223D01*
X012638Y010181D01*
X012767Y010137D01*
X012895Y010088D01*
X013022Y010036D01*
X013146Y009980D01*
X013269Y009920D01*
X013391Y009857D01*
X013510Y009790D01*
X013627Y009720D01*
X013743Y009647D01*
X013856Y009570D01*
X013967Y009490D01*
X014075Y009407D01*
X014181Y009320D01*
X014285Y009231D01*
X014385Y009139D01*
X014483Y009043D01*
X014579Y008945D01*
X014671Y008845D01*
X014760Y008741D01*
X014847Y008635D01*
X014930Y008527D01*
X015010Y008416D01*
X015087Y008303D01*
X015160Y008187D01*
X015230Y008070D01*
X015297Y007951D01*
X015360Y007829D01*
X015420Y007706D01*
X015476Y007582D01*
X015528Y007455D01*
X015577Y007327D01*
X015621Y007198D01*
X015663Y007068D01*
X015700Y006936D01*
X015733Y006804D01*
X015763Y006670D01*
X015789Y006536D01*
X015810Y006401D01*
X015828Y006266D01*
X015842Y006130D01*
X015852Y005993D01*
X015858Y005857D01*
X015860Y005720D01*
X059360Y005720D01*
X059362Y005857D01*
X059368Y005993D01*
X059378Y006130D01*
X059392Y006266D01*
X059410Y006401D01*
X059431Y006536D01*
X059457Y006670D01*
X059487Y006804D01*
X059520Y006936D01*
X059557Y007068D01*
X059599Y007198D01*
X059643Y007327D01*
X059692Y007455D01*
X059744Y007582D01*
X059800Y007706D01*
X059860Y007829D01*
X059923Y007951D01*
X059990Y008070D01*
X060060Y008187D01*
X060133Y008303D01*
X060210Y008416D01*
X060290Y008527D01*
X060373Y008635D01*
X060460Y008741D01*
X060549Y008845D01*
X060641Y008945D01*
X060737Y009043D01*
X060835Y009139D01*
X060935Y009231D01*
X061039Y009320D01*
X061145Y009407D01*
X061253Y009490D01*
X061364Y009570D01*
X061477Y009647D01*
X061593Y009720D01*
X061710Y009790D01*
X061829Y009857D01*
X061951Y009920D01*
X062074Y009980D01*
X062198Y010036D01*
X062325Y010088D01*
X062453Y010137D01*
X062582Y010181D01*
X062712Y010223D01*
X062844Y010260D01*
X062976Y010293D01*
X063110Y010323D01*
X063244Y010349D01*
X063379Y010370D01*
X063514Y010388D01*
X063650Y010402D01*
X063787Y010412D01*
X063923Y010418D01*
X064060Y010420D01*
X064060Y036020D01*
X063926Y036022D01*
X063792Y036028D01*
X063658Y036037D01*
X063524Y036051D01*
X063391Y036068D01*
X063259Y036089D01*
X063127Y036114D01*
X062995Y036142D01*
X062865Y036174D01*
X062736Y036210D01*
X062608Y036250D01*
X062481Y036293D01*
X062355Y036340D01*
X062230Y036391D01*
X062108Y036445D01*
X061986Y036502D01*
X061867Y036563D01*
X061749Y036627D01*
X061633Y036695D01*
X061519Y036766D01*
X061407Y036840D01*
X061297Y036918D01*
X061190Y036998D01*
X061085Y037082D01*
X060982Y037168D01*
X060882Y037257D01*
X060784Y037349D01*
X060689Y037444D01*
X060597Y037542D01*
X060508Y037642D01*
X060422Y037745D01*
X060338Y037850D01*
X060258Y037957D01*
X060180Y038067D01*
X060106Y038179D01*
X060035Y038293D01*
X059967Y038409D01*
X059903Y038527D01*
X059842Y038646D01*
X059785Y038768D01*
X059731Y038890D01*
X059680Y039015D01*
X059633Y039141D01*
X059590Y039268D01*
X059550Y039396D01*
X059514Y039525D01*
X059482Y039655D01*
X059454Y039787D01*
X059429Y039919D01*
X059408Y040051D01*
X059391Y040184D01*
X059377Y040318D01*
X059368Y040452D01*
X059362Y040586D01*
X059360Y040720D01*
X015760Y040720D01*
X015758Y040586D01*
X015752Y040452D01*
X015743Y040318D01*
X015729Y040184D01*
X015712Y040051D01*
X015691Y039919D01*
X015666Y039787D01*
X015638Y039655D01*
X015606Y039525D01*
X015570Y039396D01*
X015530Y039268D01*
X015487Y039141D01*
X015440Y039015D01*
X015389Y038890D01*
X015335Y038768D01*
X015278Y038646D01*
X015217Y038527D01*
X015153Y038409D01*
X015085Y038293D01*
X015014Y038179D01*
X014940Y038067D01*
X014862Y037957D01*
X014782Y037850D01*
X014698Y037745D01*
X014612Y037642D01*
X014523Y037542D01*
X014431Y037444D01*
X014336Y037349D01*
X014238Y037257D01*
X014138Y037168D01*
X014035Y037082D01*
X013930Y036998D01*
X013823Y036918D01*
X013713Y036840D01*
X013601Y036766D01*
X013487Y036695D01*
X013371Y036627D01*
X013253Y036563D01*
X013134Y036502D01*
X013012Y036445D01*
X012890Y036391D01*
X012765Y036340D01*
X012639Y036293D01*
X012512Y036250D01*
X012384Y036210D01*
X012255Y036174D01*
X012125Y036142D01*
X011993Y036114D01*
X011861Y036089D01*
X011729Y036068D01*
X011596Y036051D01*
X011462Y036037D01*
X011328Y036028D01*
X011194Y036022D01*
X011060Y036020D01*
X011060Y032920D01*
X044860Y032920D01*
X044860Y020320D01*
X011060Y020320D01*
X011060Y010420D01*
X011160Y010420D01*
D11*
X015185Y010095D02*
X015187Y010139D01*
X015193Y010183D01*
X015203Y010226D01*
X015216Y010268D01*
X015233Y010309D01*
X015254Y010348D01*
X015278Y010385D01*
X015305Y010420D01*
X015335Y010452D01*
X015368Y010482D01*
X015404Y010508D01*
X015441Y010532D01*
X015481Y010551D01*
X015522Y010568D01*
X015565Y010580D01*
X015608Y010589D01*
X015652Y010594D01*
X015696Y010595D01*
X015740Y010592D01*
X015784Y010585D01*
X015827Y010574D01*
X015869Y010560D01*
X015909Y010542D01*
X015948Y010520D01*
X015984Y010496D01*
X016018Y010468D01*
X016050Y010437D01*
X016079Y010403D01*
X016105Y010367D01*
X016127Y010329D01*
X016146Y010289D01*
X016161Y010247D01*
X016173Y010205D01*
X016181Y010161D01*
X016185Y010117D01*
X016185Y010073D01*
X016181Y010029D01*
X016173Y009985D01*
X016161Y009943D01*
X016146Y009901D01*
X016127Y009861D01*
X016105Y009823D01*
X016079Y009787D01*
X016050Y009753D01*
X016018Y009722D01*
X015984Y009694D01*
X015948Y009670D01*
X015909Y009648D01*
X015869Y009630D01*
X015827Y009616D01*
X015784Y009605D01*
X015740Y009598D01*
X015696Y009595D01*
X015652Y009596D01*
X015608Y009601D01*
X015565Y009610D01*
X015522Y009622D01*
X015481Y009639D01*
X015441Y009658D01*
X015404Y009682D01*
X015368Y009708D01*
X015335Y009738D01*
X015305Y009770D01*
X015278Y009805D01*
X015254Y009842D01*
X015233Y009881D01*
X015216Y009922D01*
X015203Y009964D01*
X015193Y010007D01*
X015187Y010051D01*
X015185Y010095D01*
X017530Y006820D02*
X017532Y006872D01*
X017538Y006924D01*
X017548Y006975D01*
X017562Y007025D01*
X017579Y007074D01*
X017601Y007122D01*
X017625Y007167D01*
X017654Y007211D01*
X017685Y007253D01*
X017720Y007292D01*
X017758Y007328D01*
X017798Y007361D01*
X017840Y007391D01*
X017885Y007417D01*
X017932Y007441D01*
X017980Y007460D01*
X018030Y007476D01*
X018081Y007488D01*
X018132Y007496D01*
X018184Y007500D01*
X018236Y007500D01*
X018288Y007496D01*
X018339Y007488D01*
X018390Y007476D01*
X018440Y007460D01*
X018488Y007441D01*
X018535Y007417D01*
X018580Y007391D01*
X018622Y007361D01*
X018662Y007328D01*
X018700Y007292D01*
X018735Y007253D01*
X018766Y007211D01*
X018795Y007167D01*
X018819Y007122D01*
X018841Y007074D01*
X018858Y007025D01*
X018872Y006975D01*
X018882Y006924D01*
X018888Y006872D01*
X018890Y006820D01*
X018888Y006768D01*
X018882Y006716D01*
X018872Y006665D01*
X018858Y006615D01*
X018841Y006566D01*
X018819Y006518D01*
X018795Y006473D01*
X018766Y006429D01*
X018735Y006387D01*
X018700Y006348D01*
X018662Y006312D01*
X018622Y006279D01*
X018580Y006249D01*
X018535Y006223D01*
X018488Y006199D01*
X018440Y006180D01*
X018390Y006164D01*
X018339Y006152D01*
X018288Y006144D01*
X018236Y006140D01*
X018184Y006140D01*
X018132Y006144D01*
X018081Y006152D01*
X018030Y006164D01*
X017980Y006180D01*
X017932Y006199D01*
X017885Y006223D01*
X017840Y006249D01*
X017798Y006279D01*
X017758Y006312D01*
X017720Y006348D01*
X017685Y006387D01*
X017654Y006429D01*
X017625Y006473D01*
X017601Y006518D01*
X017579Y006566D01*
X017562Y006615D01*
X017548Y006665D01*
X017538Y006716D01*
X017532Y006768D01*
X017530Y006820D01*
X026030Y006820D02*
X026032Y006872D01*
X026038Y006924D01*
X026048Y006975D01*
X026062Y007025D01*
X026079Y007074D01*
X026101Y007122D01*
X026125Y007167D01*
X026154Y007211D01*
X026185Y007253D01*
X026220Y007292D01*
X026258Y007328D01*
X026298Y007361D01*
X026340Y007391D01*
X026385Y007417D01*
X026432Y007441D01*
X026480Y007460D01*
X026530Y007476D01*
X026581Y007488D01*
X026632Y007496D01*
X026684Y007500D01*
X026736Y007500D01*
X026788Y007496D01*
X026839Y007488D01*
X026890Y007476D01*
X026940Y007460D01*
X026988Y007441D01*
X027035Y007417D01*
X027080Y007391D01*
X027122Y007361D01*
X027162Y007328D01*
X027200Y007292D01*
X027235Y007253D01*
X027266Y007211D01*
X027295Y007167D01*
X027319Y007122D01*
X027341Y007074D01*
X027358Y007025D01*
X027372Y006975D01*
X027382Y006924D01*
X027388Y006872D01*
X027390Y006820D01*
X027388Y006768D01*
X027382Y006716D01*
X027372Y006665D01*
X027358Y006615D01*
X027341Y006566D01*
X027319Y006518D01*
X027295Y006473D01*
X027266Y006429D01*
X027235Y006387D01*
X027200Y006348D01*
X027162Y006312D01*
X027122Y006279D01*
X027080Y006249D01*
X027035Y006223D01*
X026988Y006199D01*
X026940Y006180D01*
X026890Y006164D01*
X026839Y006152D01*
X026788Y006144D01*
X026736Y006140D01*
X026684Y006140D01*
X026632Y006144D01*
X026581Y006152D01*
X026530Y006164D01*
X026480Y006180D01*
X026432Y006199D01*
X026385Y006223D01*
X026340Y006249D01*
X026298Y006279D01*
X026258Y006312D01*
X026220Y006348D01*
X026185Y006387D01*
X026154Y006429D01*
X026125Y006473D01*
X026101Y006518D01*
X026079Y006566D01*
X026062Y006615D01*
X026048Y006665D01*
X026038Y006716D01*
X026032Y006768D01*
X026030Y006820D01*
X043280Y008420D02*
X043282Y008470D01*
X043288Y008520D01*
X043298Y008569D01*
X043312Y008617D01*
X043329Y008664D01*
X043350Y008709D01*
X043375Y008753D01*
X043403Y008794D01*
X043435Y008833D01*
X043469Y008870D01*
X043506Y008904D01*
X043546Y008934D01*
X043588Y008961D01*
X043632Y008985D01*
X043678Y009006D01*
X043725Y009022D01*
X043773Y009035D01*
X043823Y009044D01*
X043872Y009049D01*
X043923Y009050D01*
X043973Y009047D01*
X044022Y009040D01*
X044071Y009029D01*
X044119Y009014D01*
X044165Y008996D01*
X044210Y008974D01*
X044253Y008948D01*
X044294Y008919D01*
X044333Y008887D01*
X044369Y008852D01*
X044401Y008814D01*
X044431Y008774D01*
X044458Y008731D01*
X044481Y008687D01*
X044500Y008641D01*
X044516Y008593D01*
X044528Y008544D01*
X044536Y008495D01*
X044540Y008445D01*
X044540Y008395D01*
X044536Y008345D01*
X044528Y008296D01*
X044516Y008247D01*
X044500Y008199D01*
X044481Y008153D01*
X044458Y008109D01*
X044431Y008066D01*
X044401Y008026D01*
X044369Y007988D01*
X044333Y007953D01*
X044294Y007921D01*
X044253Y007892D01*
X044210Y007866D01*
X044165Y007844D01*
X044119Y007826D01*
X044071Y007811D01*
X044022Y007800D01*
X043973Y007793D01*
X043923Y007790D01*
X043872Y007791D01*
X043823Y007796D01*
X043773Y007805D01*
X043725Y007818D01*
X043678Y007834D01*
X043632Y007855D01*
X043588Y007879D01*
X043546Y007906D01*
X043506Y007936D01*
X043469Y007970D01*
X043435Y008007D01*
X043403Y008046D01*
X043375Y008087D01*
X043350Y008131D01*
X043329Y008176D01*
X043312Y008223D01*
X043298Y008271D01*
X043288Y008320D01*
X043282Y008370D01*
X043280Y008420D01*
X047780Y008420D02*
X047782Y008470D01*
X047788Y008520D01*
X047798Y008569D01*
X047812Y008617D01*
X047829Y008664D01*
X047850Y008709D01*
X047875Y008753D01*
X047903Y008794D01*
X047935Y008833D01*
X047969Y008870D01*
X048006Y008904D01*
X048046Y008934D01*
X048088Y008961D01*
X048132Y008985D01*
X048178Y009006D01*
X048225Y009022D01*
X048273Y009035D01*
X048323Y009044D01*
X048372Y009049D01*
X048423Y009050D01*
X048473Y009047D01*
X048522Y009040D01*
X048571Y009029D01*
X048619Y009014D01*
X048665Y008996D01*
X048710Y008974D01*
X048753Y008948D01*
X048794Y008919D01*
X048833Y008887D01*
X048869Y008852D01*
X048901Y008814D01*
X048931Y008774D01*
X048958Y008731D01*
X048981Y008687D01*
X049000Y008641D01*
X049016Y008593D01*
X049028Y008544D01*
X049036Y008495D01*
X049040Y008445D01*
X049040Y008395D01*
X049036Y008345D01*
X049028Y008296D01*
X049016Y008247D01*
X049000Y008199D01*
X048981Y008153D01*
X048958Y008109D01*
X048931Y008066D01*
X048901Y008026D01*
X048869Y007988D01*
X048833Y007953D01*
X048794Y007921D01*
X048753Y007892D01*
X048710Y007866D01*
X048665Y007844D01*
X048619Y007826D01*
X048571Y007811D01*
X048522Y007800D01*
X048473Y007793D01*
X048423Y007790D01*
X048372Y007791D01*
X048323Y007796D01*
X048273Y007805D01*
X048225Y007818D01*
X048178Y007834D01*
X048132Y007855D01*
X048088Y007879D01*
X048046Y007906D01*
X048006Y007936D01*
X047969Y007970D01*
X047935Y008007D01*
X047903Y008046D01*
X047875Y008087D01*
X047850Y008131D01*
X047829Y008176D01*
X047812Y008223D01*
X047798Y008271D01*
X047788Y008320D01*
X047782Y008370D01*
X047780Y008420D01*
X058935Y010095D02*
X058937Y010139D01*
X058943Y010183D01*
X058953Y010226D01*
X058966Y010268D01*
X058983Y010309D01*
X059004Y010348D01*
X059028Y010385D01*
X059055Y010420D01*
X059085Y010452D01*
X059118Y010482D01*
X059154Y010508D01*
X059191Y010532D01*
X059231Y010551D01*
X059272Y010568D01*
X059315Y010580D01*
X059358Y010589D01*
X059402Y010594D01*
X059446Y010595D01*
X059490Y010592D01*
X059534Y010585D01*
X059577Y010574D01*
X059619Y010560D01*
X059659Y010542D01*
X059698Y010520D01*
X059734Y010496D01*
X059768Y010468D01*
X059800Y010437D01*
X059829Y010403D01*
X059855Y010367D01*
X059877Y010329D01*
X059896Y010289D01*
X059911Y010247D01*
X059923Y010205D01*
X059931Y010161D01*
X059935Y010117D01*
X059935Y010073D01*
X059931Y010029D01*
X059923Y009985D01*
X059911Y009943D01*
X059896Y009901D01*
X059877Y009861D01*
X059855Y009823D01*
X059829Y009787D01*
X059800Y009753D01*
X059768Y009722D01*
X059734Y009694D01*
X059698Y009670D01*
X059659Y009648D01*
X059619Y009630D01*
X059577Y009616D01*
X059534Y009605D01*
X059490Y009598D01*
X059446Y009595D01*
X059402Y009596D01*
X059358Y009601D01*
X059315Y009610D01*
X059272Y009622D01*
X059231Y009639D01*
X059191Y009658D01*
X059154Y009682D01*
X059118Y009708D01*
X059085Y009738D01*
X059055Y009770D01*
X059028Y009805D01*
X059004Y009842D01*
X058983Y009881D01*
X058966Y009922D01*
X058953Y009964D01*
X058943Y010007D01*
X058937Y010051D01*
X058935Y010095D01*
X058935Y036345D02*
X058937Y036389D01*
X058943Y036433D01*
X058953Y036476D01*
X058966Y036518D01*
X058983Y036559D01*
X059004Y036598D01*
X059028Y036635D01*
X059055Y036670D01*
X059085Y036702D01*
X059118Y036732D01*
X059154Y036758D01*
X059191Y036782D01*
X059231Y036801D01*
X059272Y036818D01*
X059315Y036830D01*
X059358Y036839D01*
X059402Y036844D01*
X059446Y036845D01*
X059490Y036842D01*
X059534Y036835D01*
X059577Y036824D01*
X059619Y036810D01*
X059659Y036792D01*
X059698Y036770D01*
X059734Y036746D01*
X059768Y036718D01*
X059800Y036687D01*
X059829Y036653D01*
X059855Y036617D01*
X059877Y036579D01*
X059896Y036539D01*
X059911Y036497D01*
X059923Y036455D01*
X059931Y036411D01*
X059935Y036367D01*
X059935Y036323D01*
X059931Y036279D01*
X059923Y036235D01*
X059911Y036193D01*
X059896Y036151D01*
X059877Y036111D01*
X059855Y036073D01*
X059829Y036037D01*
X059800Y036003D01*
X059768Y035972D01*
X059734Y035944D01*
X059698Y035920D01*
X059659Y035898D01*
X059619Y035880D01*
X059577Y035866D01*
X059534Y035855D01*
X059490Y035848D01*
X059446Y035845D01*
X059402Y035846D01*
X059358Y035851D01*
X059315Y035860D01*
X059272Y035872D01*
X059231Y035889D01*
X059191Y035908D01*
X059154Y035932D01*
X059118Y035958D01*
X059085Y035988D01*
X059055Y036020D01*
X059028Y036055D01*
X059004Y036092D01*
X058983Y036131D01*
X058966Y036172D01*
X058953Y036214D01*
X058943Y036257D01*
X058937Y036301D01*
X058935Y036345D01*
X015185Y036345D02*
X015187Y036389D01*
X015193Y036433D01*
X015203Y036476D01*
X015216Y036518D01*
X015233Y036559D01*
X015254Y036598D01*
X015278Y036635D01*
X015305Y036670D01*
X015335Y036702D01*
X015368Y036732D01*
X015404Y036758D01*
X015441Y036782D01*
X015481Y036801D01*
X015522Y036818D01*
X015565Y036830D01*
X015608Y036839D01*
X015652Y036844D01*
X015696Y036845D01*
X015740Y036842D01*
X015784Y036835D01*
X015827Y036824D01*
X015869Y036810D01*
X015909Y036792D01*
X015948Y036770D01*
X015984Y036746D01*
X016018Y036718D01*
X016050Y036687D01*
X016079Y036653D01*
X016105Y036617D01*
X016127Y036579D01*
X016146Y036539D01*
X016161Y036497D01*
X016173Y036455D01*
X016181Y036411D01*
X016185Y036367D01*
X016185Y036323D01*
X016181Y036279D01*
X016173Y036235D01*
X016161Y036193D01*
X016146Y036151D01*
X016127Y036111D01*
X016105Y036073D01*
X016079Y036037D01*
X016050Y036003D01*
X016018Y035972D01*
X015984Y035944D01*
X015948Y035920D01*
X015909Y035898D01*
X015869Y035880D01*
X015827Y035866D01*
X015784Y035855D01*
X015740Y035848D01*
X015696Y035845D01*
X015652Y035846D01*
X015608Y035851D01*
X015565Y035860D01*
X015522Y035872D01*
X015481Y035889D01*
X015441Y035908D01*
X015404Y035932D01*
X015368Y035958D01*
X015335Y035988D01*
X015305Y036020D01*
X015278Y036055D01*
X015254Y036092D01*
X015233Y036131D01*
X015216Y036172D01*
X015203Y036214D01*
X015193Y036257D01*
X015187Y036301D01*
X015185Y036345D01*
D12*
X012960Y015820D03*
X012960Y014820D03*
X012960Y013820D03*
X012960Y012820D03*
X052960Y016620D03*
X052960Y017620D03*
X052960Y018620D03*
X052960Y019620D03*
X052960Y020620D03*
X052960Y021620D03*
X052960Y022620D03*
X052960Y023620D03*
X052960Y024620D03*
X052960Y025620D03*
X052960Y026620D03*
X052960Y027620D03*
X052960Y028620D03*
X052960Y029620D03*
X052960Y030620D03*
X052960Y031620D03*
X052960Y032620D03*
X052960Y033620D03*
X061960Y033620D03*
X061960Y032620D03*
X061960Y031620D03*
X061960Y030620D03*
X061960Y029620D03*
X061960Y028620D03*
X061960Y027620D03*
X061960Y026620D03*
X061960Y025620D03*
X061960Y024620D03*
X061960Y023620D03*
X061960Y022620D03*
X061960Y021620D03*
X061960Y020620D03*
X061960Y019620D03*
X061960Y018620D03*
X061960Y017620D03*
X061960Y016620D03*
D13*
X047910Y011920D03*
X046910Y011920D03*
X045910Y011920D03*
X044910Y011920D03*
X045410Y010920D03*
X046410Y010920D03*
X047410Y010920D03*
X036060Y007720D03*
X035060Y007720D03*
D14*
X044410Y010920D03*
D15*
X043160Y009621D03*
X049144Y009621D03*
X040960Y037820D03*
X038960Y037820D03*
X038960Y039820D03*
X040960Y039820D03*
D16*
X044669Y007089D03*
X043669Y006491D03*
X047650Y006491D03*
X048650Y007089D03*
D17*
X040445Y007220D03*
X038674Y007220D03*
D18*
X038182Y008220D03*
X040937Y008220D03*
X039960Y038820D03*
D19*
X056160Y012320D03*
X057160Y012320D03*
X058160Y012320D03*
D20*
X054952Y009300D03*
X054952Y008520D03*
X053967Y008520D03*
X053967Y009300D03*
X046830Y024595D03*
X046830Y025575D03*
X046830Y026365D03*
X046830Y027345D03*
D21*
X045760Y028555D03*
X045760Y023385D03*
D22*
X052090Y007450D03*
X056830Y007450D03*
D23*
X025830Y009020D03*
X025030Y009020D03*
X024230Y009020D03*
X024630Y008020D03*
X025430Y008020D03*
X023830Y008020D03*
X021087Y009020D03*
X020284Y009020D03*
X019481Y009020D03*
X019080Y008020D03*
X019883Y008020D03*
X020686Y008020D03*
D24*
X018210Y008420D03*
X026710Y008420D03*
D25*
X031060Y007960D02*
X031060Y007480D01*
X032060Y007480D02*
X032060Y007960D01*
X033060Y007960D02*
X033060Y007480D01*
D26*
X029260Y007320D03*
X020460Y010120D03*
X017360Y008920D03*
X017860Y012420D03*
X031860Y014920D03*
X043460Y014820D03*
X049860Y014520D03*
X049960Y016920D03*
X054560Y017820D03*
X055360Y021555D03*
X055360Y023020D03*
X058860Y023320D03*
X046860Y028320D03*
X053860Y012320D03*
X050060Y010420D03*
D27*
X051960Y010420D01*
X053860Y012320D01*
X054373Y012726D02*
X054392Y012726D01*
X054392Y012707D02*
X054228Y012871D01*
X053989Y012970D01*
X053730Y012970D01*
X053491Y012871D01*
X053308Y012688D01*
X053218Y012471D01*
X051728Y010980D01*
X051560Y010980D01*
X051560Y016720D01*
X048951Y016720D01*
X052170Y019938D01*
X052170Y019293D01*
X052342Y019120D01*
X052170Y018947D01*
X052170Y018293D01*
X052342Y018120D01*
X052170Y017947D01*
X052170Y017293D01*
X052342Y017120D01*
X052170Y016947D01*
X052170Y016293D01*
X052632Y015830D01*
X053287Y015830D01*
X053750Y016293D01*
X053750Y016947D01*
X053577Y017120D01*
X053750Y017293D01*
X053750Y017947D01*
X053577Y018120D01*
X053750Y018293D01*
X053750Y018837D01*
X054208Y018378D01*
X054191Y018371D01*
X054008Y018188D01*
X053910Y017949D01*
X053910Y017691D01*
X054008Y017452D01*
X054191Y017269D01*
X054392Y017186D01*
X054392Y012707D01*
X054392Y012964D02*
X054002Y012964D01*
X053717Y012964D02*
X051560Y012964D01*
X051560Y012726D02*
X053346Y012726D01*
X053225Y012487D02*
X051560Y012487D01*
X051560Y012249D02*
X052997Y012249D01*
X052758Y012010D02*
X051560Y012010D01*
X051560Y011772D02*
X052520Y011772D01*
X052281Y011533D02*
X051560Y011533D01*
X051560Y011295D02*
X052043Y011295D01*
X051804Y011056D02*
X051560Y011056D01*
X049144Y010686D02*
X049144Y009621D01*
X043160Y009621D01*
X041560Y009625D02*
X026390Y009625D01*
X026390Y009458D02*
X026390Y010846D01*
X030179Y014360D01*
X031513Y014360D01*
X031730Y014270D01*
X031989Y014270D01*
X032206Y014360D01*
X032865Y014360D01*
X032881Y014354D01*
X032976Y014360D01*
X033071Y014360D01*
X033087Y014367D01*
X033104Y014368D01*
X033189Y014409D01*
X033277Y014445D01*
X033289Y014457D01*
X033304Y014465D01*
X033367Y014536D01*
X033434Y014603D01*
X033441Y014618D01*
X034811Y016160D01*
X041560Y016160D01*
X041560Y008847D01*
X041438Y008968D01*
X041113Y009103D01*
X040762Y009103D01*
X040437Y008968D01*
X040189Y008720D01*
X040055Y008396D01*
X040055Y008044D01*
X040189Y007720D01*
X040253Y007656D01*
X040196Y007627D01*
X040135Y007583D01*
X040082Y007530D01*
X040038Y007469D01*
X040004Y007403D01*
X039981Y007331D01*
X039969Y007257D01*
X039969Y007220D01*
X039969Y007183D01*
X039981Y007109D01*
X040004Y007037D01*
X040038Y006971D01*
X040082Y006910D01*
X040135Y006857D01*
X040196Y006813D01*
X040263Y006779D01*
X040334Y006756D01*
X040408Y006744D01*
X040445Y006744D01*
X040445Y007220D01*
X039969Y007220D01*
X040445Y007220D01*
X040445Y007220D01*
X040445Y007220D01*
X039760Y007906D01*
X039760Y013120D01*
X041460Y014820D01*
X043460Y014820D01*
X049560Y014820D01*
X049860Y014520D01*
X049960Y014720D01*
X049960Y016920D01*
X049489Y017257D02*
X052205Y017257D01*
X052241Y017019D02*
X049250Y017019D01*
X049012Y016780D02*
X052170Y016780D01*
X052170Y016542D02*
X051560Y016542D01*
X051560Y016303D02*
X052170Y016303D01*
X052397Y016065D02*
X051560Y016065D01*
X051560Y015826D02*
X054392Y015826D01*
X054392Y015588D02*
X051560Y015588D01*
X051560Y015349D02*
X054392Y015349D01*
X054392Y015111D02*
X051560Y015111D01*
X051560Y014872D02*
X054392Y014872D01*
X054392Y014634D02*
X051560Y014634D01*
X051560Y014395D02*
X054392Y014395D01*
X054392Y014157D02*
X051560Y014157D01*
X051560Y013918D02*
X054392Y013918D01*
X054392Y013680D02*
X051560Y013680D01*
X051560Y013441D02*
X054392Y013441D01*
X054392Y013203D02*
X051560Y013203D01*
X049144Y010686D02*
X047910Y011920D01*
X053522Y016065D02*
X054392Y016065D01*
X054392Y016303D02*
X053750Y016303D01*
X053750Y016542D02*
X054392Y016542D01*
X054392Y016780D02*
X053750Y016780D01*
X053678Y017019D02*
X054392Y017019D01*
X054219Y017257D02*
X053714Y017257D01*
X053750Y017496D02*
X053990Y017496D01*
X053910Y017734D02*
X053750Y017734D01*
X053724Y017973D02*
X053919Y017973D01*
X054032Y018211D02*
X053668Y018211D01*
X053750Y018450D02*
X054137Y018450D01*
X053898Y018688D02*
X053750Y018688D01*
X055068Y019404D02*
X060970Y019404D01*
X060970Y019642D02*
X054850Y019642D01*
X054850Y019623D02*
X054850Y022611D01*
X054991Y022469D01*
X055230Y022370D01*
X055489Y022370D01*
X055706Y022460D01*
X058671Y022460D01*
X058877Y022545D01*
X059010Y022679D01*
X059228Y022769D01*
X059411Y022952D01*
X059510Y023191D01*
X059510Y023449D01*
X059411Y023688D01*
X059228Y023871D01*
X058989Y023970D01*
X058730Y023970D01*
X058491Y023871D01*
X058308Y023688D01*
X058264Y023580D01*
X055706Y023580D01*
X055489Y023670D01*
X055230Y023670D01*
X054991Y023571D01*
X054850Y023429D01*
X054850Y024317D01*
X054775Y024498D01*
X054637Y024635D01*
X053750Y025523D01*
X053750Y025630D01*
X058157Y025630D01*
X058337Y025705D01*
X058408Y025775D01*
X058577Y025845D01*
X058734Y026003D01*
X058820Y026209D01*
X058820Y026431D01*
X058734Y026637D01*
X058687Y026684D01*
X058737Y026705D01*
X061247Y029215D01*
X061342Y029120D01*
X061170Y028947D01*
X061170Y028293D01*
X061342Y028120D01*
X061170Y027947D01*
X061170Y027523D01*
X061044Y027398D01*
X060970Y027217D01*
X060970Y011123D01*
X060302Y010456D01*
X060231Y010627D01*
X059967Y010892D01*
X059621Y011035D01*
X059248Y011035D01*
X058902Y010892D01*
X058638Y010627D01*
X058495Y010282D01*
X058495Y009908D01*
X058638Y009563D01*
X058902Y009298D01*
X059074Y009227D01*
X057798Y007952D01*
X057702Y008119D01*
X057499Y008322D01*
X057250Y008466D01*
X056973Y008540D01*
X056686Y008540D01*
X056409Y008466D01*
X056160Y008322D01*
X055957Y008119D01*
X055894Y008010D01*
X054461Y008010D01*
X054569Y008118D01*
X054596Y008183D01*
X054632Y008146D01*
X054695Y008101D01*
X054764Y008066D01*
X054837Y008042D01*
X054913Y008030D01*
X054952Y008030D01*
X054990Y008030D01*
X055066Y008042D01*
X055140Y008066D01*
X055208Y008101D01*
X055271Y008146D01*
X055325Y008201D01*
X055371Y008263D01*
X055406Y008332D01*
X055430Y008405D01*
X055442Y008481D01*
X055442Y008520D01*
X055442Y008559D01*
X055430Y008635D01*
X055406Y008708D01*
X055392Y008736D01*
X055554Y008898D01*
X055662Y009159D01*
X055662Y009441D01*
X055554Y009702D01*
X055512Y009744D01*
X055512Y011921D01*
X055853Y011580D01*
X056466Y011580D01*
X056660Y011773D01*
X056853Y011580D01*
X057466Y011580D01*
X057815Y011929D01*
X057944Y011800D01*
X058160Y011800D01*
X058375Y011800D01*
X058680Y012105D01*
X058680Y012320D01*
X058680Y012535D01*
X058375Y012840D01*
X058160Y012840D01*
X058160Y012320D01*
X058680Y012320D01*
X058160Y012320D01*
X058160Y012320D01*
X058160Y012320D01*
X058160Y011800D01*
X058160Y012320D01*
X058160Y012320D01*
X058160Y018755D01*
X055360Y021555D01*
X054850Y021550D02*
X060970Y021550D01*
X060970Y021312D02*
X054850Y021312D01*
X054850Y021073D02*
X060970Y021073D01*
X060970Y020835D02*
X054850Y020835D01*
X054850Y020596D02*
X060970Y020596D01*
X060970Y020358D02*
X054850Y020358D01*
X054850Y020119D02*
X060970Y020119D01*
X060970Y019881D02*
X054850Y019881D01*
X054850Y019623D02*
X056837Y017635D01*
X056975Y017498D01*
X057050Y017317D01*
X057050Y013123D01*
X057112Y013060D01*
X057466Y013060D01*
X057815Y012711D01*
X057944Y012840D01*
X058160Y012840D01*
X058160Y012320D01*
X058160Y012249D02*
X058160Y012249D01*
X058160Y012487D02*
X058160Y012487D01*
X058160Y012726D02*
X058160Y012726D01*
X058489Y012726D02*
X060970Y012726D01*
X060970Y012964D02*
X057562Y012964D01*
X057800Y012726D02*
X057830Y012726D01*
X058160Y012010D02*
X058160Y012010D01*
X058585Y012010D02*
X060970Y012010D01*
X060970Y011772D02*
X057658Y011772D01*
X056661Y011772D02*
X056658Y011772D01*
X055661Y011772D02*
X055512Y011772D01*
X055512Y011533D02*
X060970Y011533D01*
X060970Y011295D02*
X055512Y011295D01*
X055512Y011056D02*
X060903Y011056D01*
X060665Y010818D02*
X060041Y010818D01*
X060251Y010579D02*
X060426Y010579D01*
X058828Y010818D02*
X055512Y010818D01*
X055512Y010579D02*
X058618Y010579D01*
X058519Y010341D02*
X055512Y010341D01*
X055512Y010102D02*
X058495Y010102D01*
X058513Y009864D02*
X055512Y009864D01*
X055585Y009625D02*
X058612Y009625D01*
X058813Y009387D02*
X055662Y009387D01*
X055657Y009148D02*
X058995Y009148D01*
X058757Y008910D02*
X055559Y008910D01*
X055418Y008671D02*
X058518Y008671D01*
X058280Y008433D02*
X057307Y008433D01*
X057627Y008194D02*
X058041Y008194D01*
X057803Y007956D02*
X057796Y007956D01*
X056830Y007450D02*
X052090Y007450D01*
X054952Y008030D02*
X054952Y008520D01*
X055442Y008520D01*
X054952Y008520D01*
X054952Y008520D01*
X054952Y008030D01*
X054952Y008194D02*
X054952Y008194D01*
X054952Y008433D02*
X054952Y008433D01*
X054952Y008520D02*
X054952Y008520D01*
X055434Y008433D02*
X056352Y008433D01*
X056033Y008194D02*
X055319Y008194D01*
X054952Y009300D02*
X054952Y017428D01*
X054560Y017820D01*
X055545Y018927D02*
X060970Y018927D01*
X060970Y019165D02*
X055307Y019165D01*
X055784Y018688D02*
X060970Y018688D01*
X060970Y018450D02*
X056022Y018450D01*
X056261Y018211D02*
X060970Y018211D01*
X060970Y017973D02*
X056499Y017973D01*
X056738Y017734D02*
X060970Y017734D01*
X060970Y017496D02*
X056976Y017496D01*
X057050Y017257D02*
X060970Y017257D01*
X060970Y017019D02*
X057050Y017019D01*
X057050Y016780D02*
X060970Y016780D01*
X060970Y016542D02*
X057050Y016542D01*
X057050Y016303D02*
X060970Y016303D01*
X060970Y016065D02*
X057050Y016065D01*
X057050Y015826D02*
X060970Y015826D01*
X060970Y015588D02*
X057050Y015588D01*
X057050Y015349D02*
X060970Y015349D01*
X060970Y015111D02*
X057050Y015111D01*
X057050Y014872D02*
X060970Y014872D01*
X060970Y014634D02*
X057050Y014634D01*
X057050Y014395D02*
X060970Y014395D01*
X060970Y014157D02*
X057050Y014157D01*
X057050Y013918D02*
X060970Y013918D01*
X060970Y013680D02*
X057050Y013680D01*
X057050Y013441D02*
X060970Y013441D01*
X060970Y013203D02*
X057050Y013203D01*
X058680Y012487D02*
X060970Y012487D01*
X060970Y012249D02*
X058680Y012249D01*
X052170Y017496D02*
X049727Y017496D01*
X049966Y017734D02*
X052170Y017734D01*
X052195Y017973D02*
X050204Y017973D01*
X050443Y018211D02*
X052251Y018211D01*
X052170Y018450D02*
X050681Y018450D01*
X050920Y018688D02*
X052170Y018688D01*
X052170Y018927D02*
X051158Y018927D01*
X051397Y019165D02*
X052297Y019165D01*
X052170Y019404D02*
X051635Y019404D01*
X051874Y019642D02*
X052170Y019642D01*
X052170Y019881D02*
X052112Y019881D01*
X052060Y020620D02*
X052960Y020620D01*
X052060Y020620D02*
X048160Y016720D01*
X034560Y016720D01*
X032960Y014920D01*
X031860Y014920D01*
X029960Y014920D01*
X025830Y011090D01*
X025830Y009020D01*
X026476Y009303D02*
X026428Y009420D01*
X026390Y009458D01*
X026441Y009387D02*
X041560Y009387D01*
X041560Y009148D02*
X027261Y009148D01*
X027222Y009187D02*
X026890Y009325D01*
X026529Y009325D01*
X026476Y009303D01*
X026390Y009864D02*
X041560Y009864D01*
X041560Y010102D02*
X026390Y010102D01*
X026390Y010341D02*
X041560Y010341D01*
X041560Y010579D02*
X026390Y010579D01*
X026390Y010818D02*
X041560Y010818D01*
X041560Y011056D02*
X026617Y011056D01*
X026874Y011295D02*
X041560Y011295D01*
X041560Y011533D02*
X027131Y011533D01*
X027388Y011772D02*
X041560Y011772D01*
X041560Y012010D02*
X027646Y012010D01*
X027903Y012249D02*
X041560Y012249D01*
X041560Y012487D02*
X028160Y012487D01*
X028417Y012726D02*
X041560Y012726D01*
X041560Y012964D02*
X028674Y012964D01*
X028932Y013203D02*
X041560Y013203D01*
X041560Y013441D02*
X029189Y013441D01*
X029446Y013680D02*
X041560Y013680D01*
X041560Y013918D02*
X029703Y013918D01*
X029960Y014157D02*
X041560Y014157D01*
X041560Y014395D02*
X033161Y014395D01*
X033455Y014634D02*
X041560Y014634D01*
X041560Y014872D02*
X033667Y014872D01*
X033879Y015111D02*
X041560Y015111D01*
X041560Y015349D02*
X034091Y015349D01*
X034303Y015588D02*
X041560Y015588D01*
X041560Y015826D02*
X034515Y015826D01*
X034727Y016065D02*
X041560Y016065D01*
X045085Y019910D02*
X045123Y019926D01*
X045254Y020057D01*
X045325Y020228D01*
X045325Y022372D01*
X045337Y022365D01*
X045615Y022290D01*
X045904Y022290D01*
X046182Y022365D01*
X046432Y022509D01*
X046636Y022713D01*
X046780Y022962D01*
X046855Y023241D01*
X046855Y023529D01*
X046780Y023808D01*
X046636Y024057D01*
X046432Y024261D01*
X046250Y024366D01*
X046250Y025151D01*
X046427Y024973D01*
X046489Y024948D01*
X046456Y024914D01*
X046410Y024852D01*
X046375Y024783D01*
X046352Y024710D01*
X046340Y024634D01*
X046340Y024595D01*
X046340Y024556D01*
X046352Y024480D01*
X046375Y024407D01*
X046410Y024338D01*
X046456Y024276D01*
X046510Y024221D01*
X046573Y024176D01*
X046641Y024141D01*
X046715Y024117D01*
X046791Y024105D01*
X046830Y024105D01*
X046868Y024105D01*
X046870Y024105D01*
X046870Y020523D01*
X046257Y019910D01*
X045085Y019910D01*
X045280Y020119D02*
X046466Y020119D01*
X046705Y020358D02*
X045325Y020358D01*
X045325Y020596D02*
X046870Y020596D01*
X046870Y020835D02*
X045325Y020835D01*
X045325Y021073D02*
X046870Y021073D01*
X046870Y021312D02*
X045325Y021312D01*
X045325Y021550D02*
X046870Y021550D01*
X046870Y021789D02*
X045325Y021789D01*
X045325Y022027D02*
X046870Y022027D01*
X046870Y022266D02*
X045325Y022266D01*
X046424Y022504D02*
X046870Y022504D01*
X046870Y022743D02*
X046653Y022743D01*
X046785Y022981D02*
X046870Y022981D01*
X046849Y023220D02*
X046870Y023220D01*
X046855Y023459D02*
X046870Y023459D01*
X046870Y023697D02*
X046810Y023697D01*
X046870Y023936D02*
X046706Y023936D01*
X046830Y024105D02*
X046830Y024595D01*
X046830Y024105D01*
X046830Y024174D02*
X046830Y024174D01*
X046830Y024413D02*
X046830Y024413D01*
X046830Y024595D02*
X046830Y024595D01*
X046285Y024595D01*
X046160Y024720D01*
X046160Y027620D01*
X046860Y028320D01*
X046855Y028411D02*
X046855Y028699D01*
X046780Y028978D01*
X046636Y029227D01*
X046432Y029431D01*
X046182Y029575D01*
X045904Y029650D01*
X045615Y029650D01*
X045337Y029575D01*
X045325Y029568D01*
X045325Y033012D01*
X045254Y033183D01*
X045123Y033314D01*
X044952Y033385D01*
X034560Y033385D01*
X034560Y040255D01*
X038420Y040255D01*
X038383Y040206D01*
X038337Y040127D01*
X038302Y040043D01*
X038279Y039955D01*
X038267Y039865D01*
X038267Y039857D01*
X038922Y039857D01*
X038922Y039783D01*
X038267Y039783D01*
X038267Y039775D01*
X038279Y039685D01*
X038302Y039597D01*
X038337Y039513D01*
X038383Y039434D01*
X038438Y039362D01*
X038502Y039298D01*
X038574Y039243D01*
X038653Y039198D01*
X038736Y039163D01*
X038824Y039139D01*
X038914Y039128D01*
X038922Y039128D01*
X038922Y039783D01*
X038997Y039783D01*
X038997Y039857D01*
X039652Y039857D01*
X039652Y039865D01*
X039640Y039955D01*
X039617Y040043D01*
X039582Y040127D01*
X039536Y040206D01*
X039499Y040255D01*
X040420Y040255D01*
X040383Y040206D01*
X040337Y040127D01*
X040302Y040043D01*
X040279Y039955D01*
X040267Y039865D01*
X040267Y039857D01*
X040922Y039857D01*
X040922Y039783D01*
X040267Y039783D01*
X040267Y039775D01*
X040279Y039685D01*
X040291Y039638D01*
X040135Y039703D01*
X039784Y039703D01*
X039628Y039638D01*
X039640Y039685D01*
X039652Y039775D01*
X039652Y039783D01*
X038997Y039783D01*
X038997Y039128D01*
X039005Y039128D01*
X039095Y039139D01*
X039141Y039152D01*
X039077Y038996D01*
X039077Y038644D01*
X039141Y038488D01*
X039095Y038501D01*
X039005Y038512D01*
X038997Y038512D01*
X038997Y037857D01*
X039652Y037857D01*
X039652Y037865D01*
X039640Y037955D01*
X039628Y038002D01*
X039784Y037937D01*
X040135Y037937D01*
X040291Y038002D01*
X040279Y037955D01*
X040267Y037865D01*
X040267Y037857D01*
X040922Y037857D01*
X040922Y037783D01*
X040267Y037783D01*
X040267Y037775D01*
X040279Y037685D01*
X040302Y037597D01*
X040337Y037513D01*
X040383Y037434D01*
X040438Y037362D01*
X040502Y037298D01*
X040574Y037243D01*
X040653Y037198D01*
X040736Y037163D01*
X040824Y037139D01*
X040914Y037128D01*
X040922Y037128D01*
X040922Y037783D01*
X040997Y037783D01*
X040997Y037857D01*
X041652Y037857D01*
X041652Y037865D01*
X041640Y037955D01*
X041617Y038043D01*
X041582Y038127D01*
X041536Y038206D01*
X041481Y038278D01*
X041417Y038342D01*
X041345Y038397D01*
X041266Y038442D01*
X041183Y038477D01*
X041095Y038501D01*
X041005Y038512D01*
X040997Y038512D01*
X040997Y037857D01*
X040922Y037857D01*
X040922Y038512D01*
X040914Y038512D01*
X040824Y038501D01*
X040778Y038488D01*
X040842Y038644D01*
X040842Y038996D01*
X040778Y039152D01*
X040824Y039139D01*
X040914Y039128D01*
X040922Y039128D01*
X040922Y039783D01*
X040997Y039783D01*
X040997Y039857D01*
X041652Y039857D01*
X041652Y039865D01*
X041640Y039955D01*
X041617Y040043D01*
X041582Y040127D01*
X041536Y040206D01*
X041499Y040255D01*
X052560Y040255D01*
X052560Y034337D01*
X052170Y033947D01*
X052170Y033293D01*
X052342Y033120D01*
X052170Y032947D01*
X052170Y032293D01*
X052342Y032120D01*
X052170Y031947D01*
X052170Y031293D01*
X052342Y031120D01*
X052170Y030947D01*
X052170Y030293D01*
X052342Y030120D01*
X052170Y029947D01*
X052170Y029293D01*
X052342Y029120D01*
X052170Y028947D01*
X052170Y028572D01*
X052082Y028535D01*
X051944Y028398D01*
X051144Y027598D01*
X051070Y027417D01*
X051070Y027402D01*
X050977Y027495D01*
X050771Y027580D01*
X050548Y027580D01*
X050342Y027495D01*
X050185Y027337D01*
X050115Y027168D01*
X049307Y026360D01*
X048950Y026360D01*
X048950Y033817D01*
X049008Y033875D01*
X049177Y033945D01*
X049334Y034103D01*
X049420Y034309D01*
X049420Y034531D01*
X049334Y034737D01*
X049177Y034895D01*
X048971Y034980D01*
X048748Y034980D01*
X048542Y034895D01*
X048385Y034737D01*
X048315Y034568D01*
X048060Y034313D01*
X046304Y036068D01*
X046234Y036237D01*
X046077Y036395D01*
X045871Y036480D01*
X045648Y036480D01*
X045442Y036395D01*
X045285Y036237D01*
X045200Y036031D01*
X045200Y035809D01*
X045216Y035769D01*
X045185Y035737D01*
X045170Y035702D01*
X045050Y035823D01*
X045050Y036440D01*
X045120Y036609D01*
X045120Y036831D01*
X045034Y037037D01*
X044877Y037195D01*
X044671Y037280D01*
X044448Y037280D01*
X044242Y037195D01*
X044085Y037037D01*
X044000Y036831D01*
X044000Y036609D01*
X044070Y036440D01*
X044070Y035523D01*
X044144Y035342D01*
X044282Y035205D01*
X046870Y032617D01*
X046870Y028055D01*
X046735Y028055D01*
X046780Y028132D01*
X046855Y028411D01*
X046855Y028699D01*
X046780Y028978D01*
X046636Y029227D01*
X046432Y029431D01*
X046182Y029575D01*
X045904Y029650D01*
X045615Y029650D01*
X045337Y029575D01*
X045325Y029568D01*
X045325Y032720D01*
X046767Y032720D01*
X046870Y032617D01*
X046870Y028055D01*
X046735Y028055D01*
X046780Y028132D01*
X046855Y028411D01*
X046855Y028467D02*
X046870Y028467D01*
X046855Y028467D01*
X046853Y028706D02*
X046870Y028706D01*
X046853Y028706D01*
X046870Y028944D02*
X046789Y028944D01*
X046870Y028944D01*
X046870Y029183D02*
X046662Y029183D01*
X046870Y029183D01*
X046870Y029421D02*
X046442Y029421D01*
X046870Y029421D01*
X046870Y029660D02*
X045325Y029660D01*
X046870Y029660D01*
X046870Y029898D02*
X045325Y029898D01*
X046870Y029898D01*
X046870Y030137D02*
X045325Y030137D01*
X046870Y030137D01*
X046870Y030375D02*
X045325Y030375D01*
X046870Y030375D01*
X046870Y030614D02*
X045325Y030614D01*
X046870Y030614D01*
X046870Y030852D02*
X045325Y030852D01*
X046870Y030852D01*
X046870Y031091D02*
X045325Y031091D01*
X046870Y031091D01*
X046870Y031329D02*
X045325Y031329D01*
X046870Y031329D01*
X046870Y031568D02*
X045325Y031568D01*
X046870Y031568D01*
X046870Y031806D02*
X045325Y031806D01*
X046870Y031806D01*
X046870Y032045D02*
X045325Y032045D01*
X046870Y032045D01*
X046870Y032283D02*
X045325Y032283D01*
X046870Y032283D01*
X046870Y032522D02*
X045325Y032522D01*
X046870Y032522D01*
X046727Y032760D02*
X045325Y032760D01*
X045325Y032999D02*
X046488Y032999D01*
X046250Y033237D02*
X045200Y033237D01*
X045773Y033714D02*
X034560Y033714D01*
X034560Y033476D02*
X046011Y033476D01*
X045534Y033953D02*
X034560Y033953D01*
X034560Y034191D02*
X045296Y034191D01*
X045057Y034430D02*
X034560Y034430D01*
X034560Y034668D02*
X044819Y034668D01*
X044580Y034907D02*
X034560Y034907D01*
X034560Y035145D02*
X044342Y035145D01*
X044127Y035384D02*
X034560Y035384D01*
X034560Y035622D02*
X044070Y035622D01*
X044070Y035861D02*
X034560Y035861D01*
X034560Y036099D02*
X044070Y036099D01*
X044070Y036338D02*
X034560Y036338D01*
X034560Y036576D02*
X044013Y036576D01*
X044000Y036815D02*
X034560Y036815D01*
X034560Y037053D02*
X044101Y037053D01*
X045018Y037053D02*
X052560Y037053D01*
X052560Y036815D02*
X045120Y036815D01*
X045106Y036576D02*
X052560Y036576D01*
X052560Y036338D02*
X046134Y036338D01*
X046292Y036099D02*
X052560Y036099D01*
X052560Y035861D02*
X046512Y035861D01*
X046750Y035622D02*
X052560Y035622D01*
X052560Y035384D02*
X046989Y035384D01*
X047227Y035145D02*
X052560Y035145D01*
X052560Y034907D02*
X049148Y034907D01*
X049363Y034668D02*
X052560Y034668D01*
X052560Y034430D02*
X049420Y034430D01*
X049371Y034191D02*
X052413Y034191D01*
X052175Y033953D02*
X049184Y033953D01*
X048950Y033714D02*
X052170Y033714D01*
X052170Y033476D02*
X048950Y033476D01*
X048950Y033237D02*
X052225Y033237D01*
X052221Y032999D02*
X048950Y032999D01*
X048950Y032760D02*
X052170Y032760D01*
X052170Y032522D02*
X048950Y032522D01*
X048950Y032283D02*
X052179Y032283D01*
X052267Y032045D02*
X048950Y032045D01*
X048950Y031806D02*
X052170Y031806D01*
X052170Y031568D02*
X048950Y031568D01*
X048950Y031329D02*
X052170Y031329D01*
X052313Y031091D02*
X048950Y031091D01*
X048950Y030852D02*
X052170Y030852D01*
X052170Y030614D02*
X048950Y030614D01*
X048950Y030375D02*
X052170Y030375D01*
X052326Y030137D02*
X048950Y030137D01*
X048950Y029898D02*
X052170Y029898D01*
X052170Y029660D02*
X048950Y029660D01*
X048950Y029421D02*
X052170Y029421D01*
X052280Y029183D02*
X048950Y029183D01*
X048950Y028944D02*
X052170Y028944D01*
X052170Y028706D02*
X048950Y028706D01*
X048950Y028467D02*
X052014Y028467D01*
X051775Y028229D02*
X048950Y028229D01*
X048950Y027990D02*
X051537Y027990D01*
X051298Y027752D02*
X048950Y027752D01*
X048950Y027513D02*
X050386Y027513D01*
X050159Y027275D02*
X048950Y027275D01*
X048950Y027036D02*
X049983Y027036D01*
X049744Y026798D02*
X048950Y026798D01*
X048950Y026559D02*
X049506Y026559D01*
X050933Y027513D02*
X051109Y027513D01*
X053750Y025605D02*
X060970Y025605D01*
X060970Y025367D02*
X053906Y025367D01*
X054144Y025128D02*
X060970Y025128D01*
X060970Y024890D02*
X054383Y024890D01*
X054621Y024651D02*
X060970Y024651D01*
X060970Y024413D02*
X054810Y024413D01*
X054850Y024174D02*
X060970Y024174D01*
X060970Y023936D02*
X059072Y023936D01*
X059402Y023697D02*
X060970Y023697D01*
X060970Y023459D02*
X059506Y023459D01*
X059510Y023220D02*
X060970Y023220D01*
X060970Y022981D02*
X059423Y022981D01*
X059165Y022743D02*
X060970Y022743D01*
X060970Y022504D02*
X058778Y022504D01*
X058560Y023020D02*
X058860Y023320D01*
X058560Y023020D02*
X055360Y023020D01*
X054879Y023459D02*
X054850Y023459D01*
X054850Y023697D02*
X058317Y023697D01*
X058647Y023936D02*
X054850Y023936D01*
X054850Y022504D02*
X054956Y022504D01*
X054850Y022266D02*
X060970Y022266D01*
X060970Y022027D02*
X054850Y022027D01*
X054850Y021789D02*
X060970Y021789D01*
X060970Y025844D02*
X058572Y025844D01*
X058767Y026082D02*
X060970Y026082D01*
X060970Y026321D02*
X058820Y026321D01*
X058767Y026559D02*
X060970Y026559D01*
X060970Y026798D02*
X058830Y026798D01*
X059068Y027036D02*
X060970Y027036D01*
X060993Y027275D02*
X059307Y027275D01*
X059545Y027513D02*
X061160Y027513D01*
X061170Y027752D02*
X059784Y027752D01*
X060022Y027990D02*
X061212Y027990D01*
X061234Y028229D02*
X060261Y028229D01*
X060499Y028467D02*
X061170Y028467D01*
X061170Y028706D02*
X060738Y028706D01*
X060976Y028944D02*
X061170Y028944D01*
X061215Y029183D02*
X061280Y029183D01*
X052560Y037292D02*
X041408Y037292D01*
X041417Y037298D02*
X041481Y037362D01*
X041536Y037434D01*
X041582Y037513D01*
X041617Y037597D01*
X041640Y037685D01*
X041652Y037775D01*
X041652Y037783D01*
X040997Y037783D01*
X040997Y037128D01*
X041005Y037128D01*
X041095Y037139D01*
X041183Y037163D01*
X041266Y037198D01*
X041345Y037243D01*
X041417Y037298D01*
X041589Y037530D02*
X052560Y037530D01*
X052560Y037769D02*
X041651Y037769D01*
X041626Y038007D02*
X052560Y038007D01*
X052560Y038246D02*
X041506Y038246D01*
X041157Y038484D02*
X052560Y038484D01*
X052560Y038723D02*
X040842Y038723D01*
X040842Y038961D02*
X052560Y038961D01*
X052560Y039200D02*
X041270Y039200D01*
X041266Y039198D02*
X041345Y039243D01*
X041417Y039298D01*
X041481Y039362D01*
X041536Y039434D01*
X041582Y039513D01*
X041617Y039597D01*
X041640Y039685D01*
X041652Y039775D01*
X041652Y039783D01*
X040997Y039783D01*
X040997Y039128D01*
X041005Y039128D01*
X041095Y039139D01*
X041183Y039163D01*
X041266Y039198D01*
X040997Y039200D02*
X040922Y039200D01*
X040922Y039438D02*
X040997Y039438D01*
X040997Y039677D02*
X040922Y039677D01*
X040281Y039677D02*
X040199Y039677D01*
X040274Y039915D02*
X039645Y039915D01*
X039638Y039677D02*
X039720Y039677D01*
X039567Y040154D02*
X040353Y040154D01*
X041567Y040154D02*
X052560Y040154D01*
X052560Y039915D02*
X041645Y039915D01*
X041638Y039677D02*
X052560Y039677D01*
X052560Y039438D02*
X041539Y039438D01*
X040997Y038484D02*
X040922Y038484D01*
X040922Y038246D02*
X040997Y038246D01*
X040997Y038007D02*
X040922Y038007D01*
X040922Y037769D02*
X040997Y037769D01*
X040997Y037530D02*
X040922Y037530D01*
X040922Y037292D02*
X040997Y037292D01*
X040511Y037292D02*
X039408Y037292D01*
X039417Y037298D02*
X039481Y037362D01*
X039536Y037434D01*
X039582Y037513D01*
X039617Y037597D01*
X039640Y037685D01*
X039652Y037775D01*
X039652Y037783D01*
X038997Y037783D01*
X038997Y037857D01*
X038922Y037857D01*
X038922Y037783D01*
X038267Y037783D01*
X038267Y037775D01*
X038279Y037685D01*
X038302Y037597D01*
X038337Y037513D01*
X038383Y037434D01*
X038438Y037362D01*
X038502Y037298D01*
X038574Y037243D01*
X038653Y037198D01*
X038736Y037163D01*
X038824Y037139D01*
X038914Y037128D01*
X038922Y037128D01*
X038922Y037783D01*
X038997Y037783D01*
X038997Y037128D01*
X039005Y037128D01*
X039095Y037139D01*
X039183Y037163D01*
X039266Y037198D01*
X039345Y037243D01*
X039417Y037298D01*
X039589Y037530D02*
X040330Y037530D01*
X040268Y037769D02*
X039651Y037769D01*
X038997Y037769D02*
X038922Y037769D01*
X038922Y037857D02*
X038267Y037857D01*
X038267Y037865D01*
X038279Y037955D01*
X038302Y038043D01*
X038337Y038127D01*
X038383Y038206D01*
X038438Y038278D01*
X038502Y038342D01*
X038574Y038397D01*
X038653Y038442D01*
X038736Y038477D01*
X038824Y038501D01*
X038914Y038512D01*
X038922Y038512D01*
X038922Y037857D01*
X038922Y038007D02*
X038997Y038007D01*
X038997Y038246D02*
X038922Y038246D01*
X038922Y038484D02*
X038997Y038484D01*
X038762Y038484D02*
X034560Y038484D01*
X034560Y038246D02*
X038413Y038246D01*
X038293Y038007D02*
X034560Y038007D01*
X034560Y037769D02*
X038268Y037769D01*
X038330Y037530D02*
X034560Y037530D01*
X034560Y037292D02*
X038511Y037292D01*
X038922Y037292D02*
X038997Y037292D01*
X038997Y037530D02*
X038922Y037530D01*
X039077Y038723D02*
X034560Y038723D01*
X034560Y038961D02*
X039077Y038961D01*
X038997Y039200D02*
X038922Y039200D01*
X038922Y039438D02*
X038997Y039438D01*
X038997Y039677D02*
X038922Y039677D01*
X038649Y039200D02*
X034560Y039200D01*
X034560Y039438D02*
X038380Y039438D01*
X038281Y039677D02*
X034560Y039677D01*
X034560Y039915D02*
X038274Y039915D01*
X038353Y040154D02*
X034560Y040154D01*
X045050Y036338D02*
X045385Y036338D01*
X045228Y036099D02*
X045050Y036099D01*
X045050Y035861D02*
X045200Y035861D01*
X047466Y034907D02*
X048571Y034907D01*
X048356Y034668D02*
X047704Y034668D01*
X047943Y034430D02*
X048176Y034430D01*
X046870Y028229D02*
X046806Y028229D01*
X046870Y028229D01*
X046272Y025128D02*
X046250Y025128D01*
X046250Y024890D02*
X046438Y024890D01*
X046342Y024651D02*
X046250Y024651D01*
X046340Y024595D02*
X046830Y024595D01*
X046340Y024595D01*
X046374Y024413D02*
X046250Y024413D01*
X046519Y024174D02*
X046576Y024174D01*
X046830Y024595D02*
X046830Y024595D01*
X033429Y019855D02*
X033382Y019835D01*
X031557Y018010D01*
X024162Y018010D01*
X023982Y017935D01*
X023611Y017565D01*
X023442Y017495D01*
X023285Y017337D01*
X023233Y017213D01*
X023071Y017280D01*
X022848Y017280D01*
X022642Y017195D01*
X022485Y017037D01*
X022400Y016831D01*
X022400Y016810D01*
X021340Y016810D01*
X021171Y016880D01*
X020948Y016880D01*
X020742Y016795D01*
X020585Y016637D01*
X020500Y016431D01*
X020500Y016209D01*
X020585Y016003D01*
X020742Y015845D01*
X020948Y015760D01*
X021171Y015760D01*
X021340Y015830D01*
X023600Y015830D01*
X023600Y015709D01*
X023685Y015503D01*
X023842Y015345D01*
X023877Y015331D01*
X022557Y014010D01*
X020362Y014010D01*
X020182Y013935D01*
X019811Y013565D01*
X019642Y013495D01*
X019510Y013362D01*
X019150Y013723D01*
X019150Y014840D01*
X019220Y015009D01*
X019220Y015231D01*
X019134Y015437D01*
X018977Y015595D01*
X018771Y015680D01*
X018548Y015680D01*
X018342Y015595D01*
X018185Y015437D01*
X018100Y015231D01*
X018100Y015009D01*
X018170Y014840D01*
X018170Y013423D01*
X018244Y013242D01*
X019044Y012442D01*
X019182Y012305D01*
X019362Y012230D01*
X022857Y012230D01*
X023037Y012305D01*
X023520Y012787D01*
X023520Y010223D01*
X023307Y010010D01*
X021110Y010010D01*
X021110Y010249D01*
X021011Y010488D01*
X020828Y010671D01*
X020589Y010770D01*
X020330Y010770D01*
X020310Y010762D01*
X018501Y012571D01*
X018411Y012788D01*
X018228Y012971D01*
X017989Y013070D01*
X017730Y013070D01*
X017491Y012971D01*
X017308Y012788D01*
X017210Y012549D01*
X017210Y012291D01*
X017308Y012052D01*
X017491Y011869D01*
X017709Y011779D01*
X019478Y010010D01*
X019012Y010010D01*
X018832Y009935D01*
X018694Y009798D01*
X018494Y009598D01*
X018420Y009417D01*
X018420Y009313D01*
X018390Y009325D01*
X018029Y009325D01*
X017697Y009187D01*
X017442Y008933D01*
X017305Y008600D01*
X017305Y008240D01*
X017442Y007907D01*
X017593Y007757D01*
X017522Y007716D01*
X017313Y007508D01*
X017166Y007252D01*
X017090Y006967D01*
X017090Y006673D01*
X017166Y006388D01*
X017283Y006185D01*
X016315Y006185D01*
X016197Y006929D01*
X016197Y006929D01*
X015946Y007703D01*
X015577Y008427D01*
X015577Y008427D01*
X015099Y009085D01*
X014524Y009660D01*
X013867Y010138D01*
X013142Y010507D01*
X012369Y010758D01*
X011566Y010885D01*
X011525Y010885D01*
X011525Y019855D01*
X033429Y019855D01*
X033189Y019642D02*
X011525Y019642D01*
X011525Y019404D02*
X032951Y019404D01*
X032712Y019165D02*
X011525Y019165D01*
X011525Y018927D02*
X032474Y018927D01*
X032235Y018688D02*
X011525Y018688D01*
X011525Y018450D02*
X031997Y018450D01*
X031758Y018211D02*
X011525Y018211D01*
X011525Y017973D02*
X024073Y017973D01*
X023781Y017734D02*
X011525Y017734D01*
X011525Y017496D02*
X023445Y017496D01*
X023252Y017257D02*
X023125Y017257D01*
X022794Y017257D02*
X011525Y017257D01*
X011525Y017019D02*
X022477Y017019D01*
X023600Y015826D02*
X021331Y015826D01*
X020788Y015826D02*
X013750Y015826D01*
X013750Y015588D02*
X018336Y015588D01*
X018148Y015349D02*
X013606Y015349D01*
X013577Y015320D02*
X013750Y015493D01*
X013750Y016147D01*
X013287Y016610D01*
X012632Y016610D01*
X012170Y016147D01*
X012170Y015493D01*
X012342Y015320D01*
X012170Y015147D01*
X012170Y014493D01*
X012498Y014164D01*
X012390Y014056D01*
X012390Y013820D01*
X012390Y013584D01*
X012498Y013476D01*
X012170Y013147D01*
X012170Y012493D01*
X012632Y012030D01*
X013287Y012030D01*
X013750Y012493D01*
X013750Y013147D01*
X013421Y013476D01*
X013530Y013584D01*
X013530Y013820D01*
X013530Y014056D01*
X013421Y014164D01*
X013750Y014493D01*
X013750Y015147D01*
X013577Y015320D01*
X013750Y015111D02*
X018100Y015111D01*
X018156Y014872D02*
X013750Y014872D01*
X013750Y014634D02*
X018170Y014634D01*
X018170Y014395D02*
X013652Y014395D01*
X013429Y014157D02*
X018170Y014157D01*
X018170Y013918D02*
X013530Y013918D01*
X013530Y013820D02*
X012960Y013820D01*
X012960Y013820D01*
X013530Y013820D01*
X013530Y013680D02*
X018170Y013680D01*
X018170Y013441D02*
X013455Y013441D01*
X013694Y013203D02*
X018284Y013203D01*
X018234Y012964D02*
X018522Y012964D01*
X018436Y012726D02*
X018761Y012726D01*
X018584Y012487D02*
X018999Y012487D01*
X018822Y012249D02*
X019316Y012249D01*
X019061Y012010D02*
X023520Y012010D01*
X023520Y011772D02*
X019299Y011772D01*
X019538Y011533D02*
X023520Y011533D01*
X023520Y011295D02*
X019776Y011295D01*
X020015Y011056D02*
X023520Y011056D01*
X023520Y010818D02*
X020253Y010818D01*
X020160Y010120D02*
X020460Y010120D01*
X020160Y010120D02*
X017860Y012420D01*
X017283Y012726D02*
X013750Y012726D01*
X013750Y012964D02*
X017485Y012964D01*
X017210Y012487D02*
X013744Y012487D01*
X013506Y012249D02*
X017227Y012249D01*
X017350Y012010D02*
X011525Y012010D01*
X011525Y011772D02*
X017716Y011772D01*
X017954Y011533D02*
X011525Y011533D01*
X011525Y011295D02*
X018193Y011295D01*
X018431Y011056D02*
X011525Y011056D01*
X011989Y010818D02*
X015078Y010818D01*
X015152Y010892D02*
X014888Y010627D01*
X014745Y010282D01*
X014745Y009908D01*
X014888Y009563D01*
X015152Y009298D01*
X015498Y009155D01*
X015871Y009155D01*
X016217Y009298D01*
X016481Y009563D01*
X016625Y009908D01*
X016625Y010282D01*
X016481Y010627D01*
X016217Y010892D01*
X015871Y011035D01*
X015498Y011035D01*
X015152Y010892D01*
X014868Y010579D02*
X012918Y010579D01*
X013142Y010507D02*
X013142Y010507D01*
X013467Y010341D02*
X014769Y010341D01*
X014745Y010102D02*
X013915Y010102D01*
X013867Y010138D02*
X013867Y010138D01*
X014243Y009864D02*
X014763Y009864D01*
X014862Y009625D02*
X014558Y009625D01*
X014524Y009660D02*
X014524Y009660D01*
X014797Y009387D02*
X015063Y009387D01*
X015035Y009148D02*
X017658Y009148D01*
X017433Y008910D02*
X015226Y008910D01*
X015099Y009085D02*
X015099Y009085D01*
X015399Y008671D02*
X017334Y008671D01*
X017305Y008433D02*
X015573Y008433D01*
X015696Y008194D02*
X017323Y008194D01*
X017422Y007956D02*
X015817Y007956D01*
X015939Y007717D02*
X017524Y007717D01*
X017297Y007479D02*
X016019Y007479D01*
X015946Y007703D02*
X015946Y007703D01*
X016096Y007240D02*
X017163Y007240D01*
X017099Y007002D02*
X016174Y007002D01*
X016224Y006763D02*
X017090Y006763D01*
X017129Y006525D02*
X016261Y006525D01*
X016299Y006286D02*
X017224Y006286D01*
X019136Y006185D02*
X019253Y006388D01*
X019330Y006673D01*
X019330Y006967D01*
X019253Y007252D01*
X019217Y007314D01*
X019220Y007314D01*
X019479Y007422D01*
X019481Y007423D01*
X019483Y007422D01*
X019742Y007314D01*
X020023Y007314D01*
X020282Y007422D01*
X020454Y007593D01*
X020499Y007570D01*
X020572Y007546D01*
X020648Y007534D01*
X020686Y007534D01*
X020724Y007534D01*
X020800Y007546D01*
X020872Y007570D01*
X020940Y007605D01*
X021002Y007649D01*
X021056Y007704D01*
X021101Y007765D01*
X021136Y007834D01*
X021160Y007906D01*
X021172Y007982D01*
X021172Y008020D01*
X021172Y008058D01*
X021168Y008080D01*
X023124Y008080D01*
X023124Y007880D01*
X023231Y007620D01*
X023430Y007422D01*
X023689Y007314D01*
X023970Y007314D01*
X024229Y007422D01*
X024230Y007422D01*
X024489Y007314D01*
X024770Y007314D01*
X025029Y007422D01*
X025200Y007592D01*
X025243Y007570D01*
X025316Y007546D01*
X025391Y007534D01*
X025430Y007534D01*
X025468Y007534D01*
X025543Y007546D01*
X025616Y007570D01*
X025684Y007605D01*
X025746Y007649D01*
X025800Y007704D01*
X025845Y007765D01*
X025880Y007834D01*
X025903Y007906D01*
X025914Y007975D01*
X025942Y007907D01*
X026093Y007757D01*
X026022Y007716D01*
X025813Y007508D01*
X025666Y007252D01*
X025590Y006967D01*
X025590Y006673D01*
X025666Y006388D01*
X025783Y006185D01*
X019136Y006185D01*
X019195Y006286D02*
X025724Y006286D01*
X025629Y006525D02*
X019290Y006525D01*
X019330Y006763D02*
X025590Y006763D01*
X025599Y007002D02*
X019320Y007002D01*
X019256Y007240D02*
X025663Y007240D01*
X025797Y007479D02*
X025087Y007479D01*
X025430Y007490D02*
X024960Y007020D01*
X021686Y007020D01*
X020686Y008020D01*
X021172Y008020D01*
X020686Y008020D01*
X020686Y008020D01*
X020686Y007534D01*
X020686Y008020D01*
X020686Y008020D01*
X020686Y007956D02*
X020686Y007956D01*
X020686Y007717D02*
X020686Y007717D01*
X021066Y007717D02*
X023191Y007717D01*
X023124Y007956D02*
X021167Y007956D01*
X020340Y007479D02*
X023372Y007479D01*
X024230Y007422D02*
X024230Y007422D01*
X025430Y007490D02*
X025430Y008020D01*
X025430Y007534D01*
X025430Y008020D01*
X025430Y008020D01*
X025730Y007720D01*
X028860Y007720D01*
X029260Y007320D01*
X030360Y006220D01*
X031060Y006220D01*
X032060Y007220D01*
X032060Y007720D01*
X032060Y007720D01*
X032060Y008420D01*
X032096Y008420D01*
X032167Y008409D01*
X032236Y008386D01*
X032301Y008353D01*
X032359Y008311D01*
X032410Y008260D01*
X032434Y008227D01*
X032483Y008345D01*
X032674Y008536D01*
X032924Y008640D01*
X033195Y008640D01*
X033445Y008536D01*
X033636Y008345D01*
X033740Y008095D01*
X033740Y007345D01*
X033636Y007095D01*
X033445Y006904D01*
X033195Y006800D01*
X032924Y006800D01*
X032674Y006904D01*
X032483Y007095D01*
X032434Y007213D01*
X032410Y007180D01*
X032359Y007129D01*
X032301Y007087D01*
X032236Y007054D01*
X032167Y007031D01*
X032096Y007020D01*
X032060Y007020D01*
X032060Y007720D01*
X032060Y007720D01*
X032060Y008420D01*
X032023Y008420D01*
X031952Y008409D01*
X031883Y008386D01*
X031818Y008353D01*
X031760Y008311D01*
X031709Y008260D01*
X031685Y008227D01*
X031636Y008345D01*
X031445Y008536D01*
X031195Y008640D01*
X030924Y008640D01*
X030674Y008536D01*
X030483Y008345D01*
X030380Y008095D01*
X030380Y007345D01*
X030483Y007095D01*
X030674Y006904D01*
X030924Y006800D01*
X031195Y006800D01*
X031445Y006904D01*
X031636Y007095D01*
X031685Y007213D01*
X031709Y007180D01*
X031760Y007129D01*
X031818Y007087D01*
X031883Y007054D01*
X031952Y007031D01*
X032023Y007020D01*
X032060Y007020D01*
X032060Y007720D01*
X032060Y007717D02*
X032060Y007717D01*
X032060Y007479D02*
X032060Y007479D01*
X032060Y007240D02*
X032060Y007240D01*
X032576Y007002D02*
X031543Y007002D01*
X030576Y007002D02*
X027820Y007002D01*
X027830Y006967D02*
X027753Y007252D01*
X027606Y007508D01*
X027397Y007716D01*
X027326Y007757D01*
X027477Y007907D01*
X027615Y008240D01*
X027615Y008600D01*
X027477Y008933D01*
X027222Y009187D01*
X027486Y008910D02*
X037623Y008910D01*
X037681Y008968D02*
X037433Y008720D01*
X037299Y008396D01*
X037299Y008044D01*
X037433Y007720D01*
X037681Y007472D01*
X037978Y007349D01*
X037978Y007082D01*
X038084Y006826D01*
X038279Y006630D01*
X038535Y006524D01*
X038677Y006524D01*
X039016Y006185D01*
X027636Y006185D01*
X027753Y006388D01*
X027830Y006673D01*
X027830Y006967D01*
X027830Y006763D02*
X038146Y006763D01*
X038011Y007002D02*
X036443Y007002D01*
X036518Y007033D02*
X036746Y007261D01*
X036870Y007559D01*
X036870Y007881D01*
X036746Y008179D01*
X036518Y008407D01*
X036221Y008530D01*
X035898Y008530D01*
X035601Y008407D01*
X035560Y008366D01*
X035518Y008407D01*
X035221Y008530D01*
X034898Y008530D01*
X034601Y008407D01*
X034373Y008179D01*
X034250Y007881D01*
X034250Y007559D01*
X034373Y007261D01*
X034601Y007033D01*
X034898Y006910D01*
X035221Y006910D01*
X035518Y007033D01*
X035560Y007074D01*
X035601Y007033D01*
X035898Y006910D01*
X036221Y006910D01*
X036518Y007033D01*
X036726Y007240D02*
X037978Y007240D01*
X037674Y007479D02*
X036836Y007479D01*
X036870Y007717D02*
X037435Y007717D01*
X037335Y007956D02*
X036839Y007956D01*
X036731Y008194D02*
X037299Y008194D01*
X037314Y008433D02*
X036455Y008433D01*
X035664Y008433D02*
X035455Y008433D01*
X034664Y008433D02*
X033548Y008433D01*
X033698Y008194D02*
X034388Y008194D01*
X034281Y007956D02*
X033740Y007956D01*
X033740Y007717D02*
X034250Y007717D01*
X034283Y007479D02*
X033740Y007479D01*
X033696Y007240D02*
X034394Y007240D01*
X034676Y007002D02*
X033543Y007002D01*
X032060Y007956D02*
X032060Y007956D01*
X032060Y008194D02*
X032060Y008194D01*
X032571Y008433D02*
X031548Y008433D01*
X030571Y008433D02*
X027615Y008433D01*
X027596Y008194D02*
X030421Y008194D01*
X030380Y007956D02*
X027497Y007956D01*
X027395Y007717D02*
X030380Y007717D01*
X030380Y007479D02*
X027622Y007479D01*
X027756Y007240D02*
X030423Y007240D01*
X027790Y006525D02*
X038533Y006525D01*
X038914Y006286D02*
X027695Y006286D01*
X026024Y007717D02*
X025810Y007717D01*
X025911Y007956D02*
X025922Y007956D01*
X025430Y007956D02*
X025430Y007956D01*
X025430Y007717D02*
X025430Y007717D01*
X027585Y008671D02*
X037413Y008671D01*
X037681Y008968D02*
X038006Y009103D01*
X038357Y009103D01*
X038682Y008968D01*
X038930Y008720D01*
X039064Y008396D01*
X039064Y008044D01*
X038982Y007845D01*
X039068Y007810D01*
X039264Y007614D01*
X039370Y007358D01*
X039370Y007217D01*
X040077Y006510D01*
X041560Y006510D01*
X041560Y007593D01*
X041438Y007472D01*
X041113Y007337D01*
X040908Y007337D01*
X040910Y007331D01*
X040921Y007257D01*
X040921Y007220D01*
X040445Y007220D01*
X040445Y006744D01*
X040483Y006744D01*
X040557Y006756D01*
X040628Y006779D01*
X040695Y006813D01*
X040755Y006857D01*
X040808Y006910D01*
X040852Y006971D01*
X040886Y007037D01*
X040910Y007109D01*
X040921Y007183D01*
X040921Y007220D01*
X040445Y007220D01*
X040445Y007220D01*
X040445Y007002D02*
X040445Y007002D01*
X040445Y006763D02*
X040445Y006763D01*
X040310Y006763D02*
X039823Y006763D01*
X040022Y007002D02*
X039585Y007002D01*
X039370Y007240D02*
X039969Y007240D01*
X040045Y007479D02*
X039320Y007479D01*
X039160Y007717D02*
X040191Y007717D01*
X040091Y007956D02*
X039028Y007956D01*
X039064Y008194D02*
X040055Y008194D01*
X040070Y008433D02*
X039049Y008433D01*
X038950Y008671D02*
X040169Y008671D01*
X040379Y008910D02*
X038740Y008910D01*
X040921Y007240D02*
X041560Y007240D01*
X041560Y007002D02*
X040868Y007002D01*
X040580Y006763D02*
X041560Y006763D01*
X041560Y006525D02*
X040062Y006525D01*
X041445Y007479D02*
X041560Y007479D01*
X041560Y008910D02*
X041496Y008910D01*
X035676Y007002D02*
X035443Y007002D01*
X023520Y010341D02*
X021072Y010341D01*
X021110Y010102D02*
X023399Y010102D01*
X023520Y010579D02*
X020919Y010579D01*
X019385Y010102D02*
X016625Y010102D01*
X016606Y009864D02*
X018761Y009864D01*
X018522Y009625D02*
X016507Y009625D01*
X016306Y009387D02*
X018420Y009387D01*
X017360Y008920D02*
X017360Y010420D01*
X013960Y013820D01*
X012960Y013820D01*
X012390Y013820D01*
X012960Y013820D01*
X012960Y013820D01*
X012490Y014157D02*
X011525Y014157D01*
X011525Y014395D02*
X012267Y014395D01*
X012170Y014634D02*
X011525Y014634D01*
X011525Y014872D02*
X012170Y014872D01*
X012170Y015111D02*
X011525Y015111D01*
X011525Y015349D02*
X012313Y015349D01*
X012170Y015588D02*
X011525Y015588D01*
X011525Y015826D02*
X012170Y015826D01*
X012170Y016065D02*
X011525Y016065D01*
X011525Y016303D02*
X012326Y016303D01*
X012564Y016542D02*
X011525Y016542D01*
X011525Y016780D02*
X020728Y016780D01*
X020545Y016542D02*
X013355Y016542D01*
X013593Y016303D02*
X020500Y016303D01*
X020559Y016065D02*
X013750Y016065D01*
X012390Y013918D02*
X011525Y013918D01*
X011525Y013680D02*
X012390Y013680D01*
X012464Y013441D02*
X011525Y013441D01*
X011525Y013203D02*
X012225Y013203D01*
X012170Y012964D02*
X011525Y012964D01*
X011525Y012726D02*
X012170Y012726D01*
X012175Y012487D02*
X011525Y012487D01*
X011525Y012249D02*
X012413Y012249D01*
X012369Y010758D02*
X012369Y010758D01*
X016291Y010818D02*
X018670Y010818D01*
X018908Y010579D02*
X016501Y010579D01*
X016600Y010341D02*
X019147Y010341D01*
X022903Y012249D02*
X023520Y012249D01*
X023520Y012487D02*
X023220Y012487D01*
X023458Y012726D02*
X023520Y012726D01*
X022704Y014157D02*
X019150Y014157D01*
X019150Y014395D02*
X022942Y014395D01*
X023181Y014634D02*
X019150Y014634D01*
X019163Y014872D02*
X023419Y014872D01*
X023658Y015111D02*
X019220Y015111D01*
X019171Y015349D02*
X023838Y015349D01*
X023649Y015588D02*
X018983Y015588D01*
X019150Y013918D02*
X020165Y013918D01*
X019927Y013680D02*
X019192Y013680D01*
X019431Y013441D02*
X019589Y013441D01*
D28*
X038060Y036720D03*
X038560Y036720D03*
X039060Y036720D03*
X039560Y036720D03*
X040060Y036720D03*
X040560Y036720D03*
X041060Y036720D03*
X041560Y036720D03*
X042060Y036720D03*
X042060Y037220D03*
X042060Y037720D03*
X042060Y039720D03*
X042060Y040220D03*
X038060Y040220D03*
X038060Y039720D03*
X038060Y039220D03*
X038060Y038720D03*
X038060Y038220D03*
X038060Y037720D03*
X038060Y037220D03*
D29*
X044560Y036720D02*
X044560Y035620D01*
X047360Y032820D01*
X047360Y020320D01*
X046460Y019420D01*
X033660Y019420D01*
X031760Y017520D01*
X024260Y017520D01*
X023760Y017020D01*
X024460Y016920D02*
X024560Y016920D01*
X024960Y017320D01*
X031960Y017320D01*
X033860Y019220D01*
X046660Y019220D01*
X047560Y020120D01*
X047560Y033220D01*
X046160Y034620D01*
X045860Y035420D02*
X045660Y035420D01*
X045860Y035420D02*
X047860Y033420D01*
X047860Y019920D01*
X046860Y018920D01*
X033960Y018920D01*
X032060Y017020D01*
X025060Y017020D01*
X024660Y016620D01*
X023060Y016620D01*
X022960Y016720D01*
X024160Y015820D02*
X024660Y015820D01*
X025260Y016420D01*
X032360Y016420D01*
X034260Y018320D01*
X047060Y018320D01*
X048460Y019720D01*
X048460Y034020D01*
X048860Y034420D01*
X048160Y033520D02*
X045760Y035920D01*
X048160Y033520D02*
X048160Y019820D01*
X046960Y018620D01*
X034060Y018620D01*
X032160Y016720D01*
X025060Y016720D01*
X024660Y016320D01*
X021060Y016320D01*
X018660Y015120D02*
X018660Y013520D01*
X019460Y012720D01*
X022760Y012720D01*
X025360Y015320D01*
X032560Y015320D01*
X034360Y017120D01*
X047660Y017120D01*
X052160Y021620D01*
X052160Y025720D01*
X052560Y026120D01*
X058060Y026120D01*
X058260Y026320D01*
X058460Y027120D02*
X061960Y030620D01*
X061960Y031620D02*
X058460Y028120D01*
X052360Y028120D01*
X051560Y027320D01*
X051560Y022120D01*
X047360Y017920D01*
X034360Y017920D01*
X032360Y015920D01*
X025160Y015920D01*
X022760Y013520D01*
X020460Y013520D01*
X019960Y013020D01*
X020860Y013220D02*
X022860Y013220D01*
X025260Y015620D01*
X032460Y015620D01*
X034360Y017520D01*
X047560Y017520D01*
X051860Y021820D01*
X051860Y026720D01*
X052260Y027120D01*
X058460Y027120D01*
X061460Y027120D02*
X061960Y027620D01*
X061460Y027120D02*
X061460Y010920D01*
X056560Y006020D01*
X039874Y006020D01*
X038674Y007220D01*
X045910Y011420D02*
X046410Y010920D01*
X045910Y011420D02*
X045910Y011920D01*
X045660Y013920D02*
X045560Y014020D01*
X043460Y014020D01*
X046360Y013920D02*
X046460Y014020D01*
X048660Y014020D01*
X053960Y019320D02*
X053960Y023820D01*
X053160Y024620D01*
X052960Y024620D01*
X052960Y025620D02*
X054360Y024220D01*
X054360Y019420D01*
X056560Y017220D01*
X056560Y012920D01*
X057160Y012320D01*
X056160Y012320D02*
X056160Y017120D01*
X053960Y019320D01*
X045760Y023385D02*
X045760Y028555D01*
X048860Y025870D02*
X049510Y025870D01*
X050660Y027020D01*
X048860Y025870D02*
X048860Y025800D01*
X025060Y014120D02*
X025060Y013620D01*
X024620Y013170D01*
X024620Y008670D01*
X024460Y008520D01*
X024330Y008520D01*
X023830Y008020D01*
X023780Y008570D02*
X024230Y009020D01*
X024230Y013290D01*
X024760Y013820D01*
X024660Y014120D02*
X024010Y013470D01*
X024010Y010020D01*
X023510Y009520D01*
X019110Y009520D01*
X018910Y009320D01*
X018910Y008190D01*
X019080Y008020D01*
X019660Y008570D02*
X023780Y008570D01*
X019660Y008570D02*
X019481Y008748D01*
X019481Y009020D01*
X024660Y014120D02*
X025060Y014120D01*
D30*
X025060Y014120D03*
X024760Y013820D03*
X024160Y015820D03*
X022960Y016720D03*
X023760Y017020D03*
X024460Y016920D03*
X021060Y016320D03*
X018660Y015120D03*
X019960Y013020D03*
X020860Y013220D03*
X043460Y014020D03*
X045660Y013920D03*
X046360Y013920D03*
X048660Y014020D03*
X048860Y025800D03*
X050660Y027020D03*
X058260Y026320D03*
X048860Y034420D03*
X046160Y034620D03*
X045660Y035420D03*
X045760Y035920D03*
X044560Y036720D03*
M02*
