G04 #@! TF.FileFunction,Copper,L1,Top,Signal*
%FSLAX46Y46*%
G04 Gerber Fmt 4.6, Leading zero omitted, Abs format (unit mm)*
G04 Created by KiCad (PCBNEW 4.0.7) date 12/02/17 12:05:30*
%MOMM*%
%LPD*%
G01*
G04 APERTURE LIST*
%ADD10C,0.100000*%
%ADD11R,2.500000X2.500000*%
%ADD12C,2.500000*%
%ADD13R,1.200000X1.200000*%
%ADD14R,1.500000X1.600000*%
%ADD15R,2.500000X3.300000*%
%ADD16R,3.300000X2.500000*%
%ADD17R,3.800000X4.800000*%
%ADD18R,3.800000X2.000000*%
%ADD19R,1.500000X2.000000*%
%ADD20R,1.321200X0.560800*%
%ADD21R,1.473200X0.355600*%
%ADD22R,4.000000X2.500000*%
%ADD23R,1.000000X1.200000*%
%ADD24R,1.200000X1.000000*%
%ADD25R,0.900000X1.200000*%
%ADD26R,1.200000X0.900000*%
%ADD27R,1.200000X1.100000*%
%ADD28R,1.100000X1.200000*%
%ADD29R,1.981200X0.558800*%
%ADD30C,0.711200*%
%ADD31R,1.016000X2.692400*%
%ADD32R,10.464800X10.871200*%
%ADD33R,1.700000X1.700000*%
%ADD34O,1.700000X1.700000*%
%ADD35R,0.900000X0.800000*%
%ADD36C,0.914400*%
%ADD37C,0.660400*%
%ADD38C,3.000000*%
%ADD39C,0.609600*%
%ADD40C,0.812800*%
%ADD41C,1.625600*%
%ADD42C,0.609600*%
%ADD43C,0.406400*%
%ADD44C,1.219200*%
%ADD45C,0.254000*%
G04 APERTURE END LIST*
D10*
D11*
X192786000Y-47244000D03*
D12*
X192786000Y-42244000D03*
D11*
X131064000Y-41656000D03*
D12*
X131064000Y-46656000D03*
D13*
X151034000Y-63624000D03*
X151034000Y-66424000D03*
D14*
X154274000Y-65024000D03*
D13*
X130968000Y-52448000D03*
X130968000Y-55248000D03*
D14*
X134208000Y-53848000D03*
D13*
X130968000Y-58036000D03*
X130968000Y-60836000D03*
D14*
X134208000Y-59436000D03*
D15*
X141380000Y-46736000D03*
X148180000Y-46736000D03*
X167034000Y-46736000D03*
X173834000Y-46736000D03*
D16*
X181864000Y-47850000D03*
X181864000Y-41050000D03*
D17*
X162566000Y-52058000D03*
X152533000Y-52058000D03*
D18*
X159766000Y-59842000D03*
D19*
X159766000Y-66142000D03*
X162066000Y-66142000D03*
X157466000Y-66142000D03*
D18*
X145034000Y-52984000D03*
D19*
X145034000Y-59284000D03*
X147334000Y-59284000D03*
X142734000Y-59284000D03*
D20*
X192349001Y-32757001D03*
X192349001Y-34806999D03*
X194239000Y-33782000D03*
D21*
X169926000Y-59686000D03*
X169926000Y-60336001D03*
X169926000Y-60985999D03*
X169926000Y-61636001D03*
X169926000Y-62285999D03*
X169926000Y-62935998D03*
X169926000Y-63585999D03*
X169926000Y-64235998D03*
X169926000Y-64885999D03*
X169926000Y-65535998D03*
X175768000Y-65536000D03*
X175768000Y-64886002D03*
X175768000Y-64236001D03*
X175768000Y-63586002D03*
X175768000Y-62936001D03*
X175768000Y-62286002D03*
X175768000Y-61636001D03*
X175768000Y-60986002D03*
X175768000Y-60336001D03*
X175768000Y-59686002D03*
D11*
X192786000Y-60452000D03*
D12*
X192786000Y-55452000D03*
D22*
X148272000Y-37084000D03*
X140272000Y-37084000D03*
X167450000Y-37084000D03*
X175450000Y-37084000D03*
D23*
X139700000Y-54930000D03*
X139700000Y-56830000D03*
X130302000Y-63566000D03*
X130302000Y-65466000D03*
X167640000Y-64196000D03*
X167640000Y-62296000D03*
D24*
X158938000Y-68834000D03*
X157038000Y-68834000D03*
D25*
X180848000Y-63416000D03*
X180848000Y-65616000D03*
X141478000Y-65616000D03*
X141478000Y-63416000D03*
X144272000Y-63416000D03*
X144272000Y-65616000D03*
D26*
X170264000Y-57404000D03*
X168064000Y-57404000D03*
D25*
X183388000Y-63416000D03*
X183388000Y-65616000D03*
X128016000Y-65616000D03*
X128016000Y-63416000D03*
D27*
X128178000Y-67838000D03*
X130378000Y-67838000D03*
X139538000Y-52304000D03*
X137338000Y-52304000D03*
X137322000Y-60980000D03*
X139522000Y-60980000D03*
D28*
X147300000Y-63408000D03*
X147300000Y-65608000D03*
X178328000Y-65624000D03*
X178328000Y-63424000D03*
X164612000Y-64354000D03*
X164612000Y-62154000D03*
X165588000Y-57566000D03*
X165588000Y-59766000D03*
X178288000Y-58836000D03*
X178288000Y-61036000D03*
D27*
X189138000Y-30500000D03*
X191338000Y-30500000D03*
D28*
X183368000Y-53756000D03*
X183368000Y-55956000D03*
X183368000Y-58836000D03*
X183368000Y-61036000D03*
X179872000Y-55924000D03*
X179872000Y-53724000D03*
D27*
X150714000Y-68814000D03*
X148514000Y-68814000D03*
X145888000Y-68814000D03*
X143688000Y-68814000D03*
X138846000Y-68854000D03*
X141046000Y-68854000D03*
D29*
X133172200Y-63119000D03*
X133172200Y-64389000D03*
X133172200Y-65659000D03*
X133172200Y-66929000D03*
X138099800Y-66929000D03*
X138099800Y-65659000D03*
X138099800Y-64389000D03*
X138099800Y-63119000D03*
D30*
X160020000Y-39751000D03*
X160020000Y-37211000D03*
X160020000Y-34671000D03*
X160020000Y-32131000D03*
X157480000Y-39751000D03*
X157480000Y-37211000D03*
X157480000Y-34671000D03*
X154940000Y-39751000D03*
X154940000Y-37211000D03*
X154940000Y-34671000D03*
X157480000Y-32131000D03*
D31*
X154076400Y-44221400D03*
X155778200Y-44221400D03*
X157480000Y-44221400D03*
X159181800Y-44221400D03*
X160883600Y-44221400D03*
D32*
X157480000Y-35941000D03*
D30*
X154940000Y-32131000D03*
D33*
X168910000Y-69342000D03*
D34*
X171450000Y-69342000D03*
X173990000Y-69342000D03*
X176530000Y-69342000D03*
D35*
X185690000Y-32832000D03*
X185690000Y-34732000D03*
X187690000Y-33782000D03*
D36*
X166116000Y-63246000D03*
X162306000Y-63246000D03*
D37*
X139700000Y-65786000D03*
X139700000Y-67818000D03*
D36*
X129032000Y-66548000D03*
X129286000Y-61722000D03*
X138684000Y-58166000D03*
X134366000Y-55626000D03*
X146558000Y-67564000D03*
X142748000Y-66548000D03*
X142748000Y-61214000D03*
D37*
X180594000Y-61976000D03*
X182118000Y-61214000D03*
X185166000Y-69088000D03*
D38*
X151384000Y-46228000D03*
D37*
X133096000Y-61722000D03*
X140716000Y-66802000D03*
D38*
X194564000Y-30480000D03*
X189992000Y-37338000D03*
X151192000Y-60274000D03*
X197104000Y-38862000D03*
X163842000Y-45934000D03*
D36*
X132588000Y-68580000D03*
X149098000Y-67056000D03*
D39*
X177800000Y-64516000D03*
X173482000Y-60706000D03*
X176784000Y-58674000D03*
X172720000Y-60198000D03*
D36*
X136144000Y-68834000D03*
X160274000Y-68072000D03*
X163576000Y-68834000D03*
X145796000Y-61722000D03*
X155194000Y-68580000D03*
D39*
X173736000Y-61722000D03*
X144272000Y-67310000D03*
D37*
X181356000Y-34798000D03*
X177546000Y-51562000D03*
D40*
X185690000Y-34732000D02*
X184216000Y-34732000D01*
X184216000Y-34732000D02*
X181864000Y-37084000D01*
D41*
X178816000Y-37084000D02*
X181864000Y-37084000D01*
X181864000Y-37084000D02*
X183388000Y-37084000D01*
X188548000Y-42244000D02*
X192786000Y-42244000D01*
X183388000Y-37084000D02*
X188548000Y-42244000D01*
D42*
X169248000Y-56388000D02*
X169164000Y-56388000D01*
X170264000Y-57404000D02*
X169248000Y-56388000D01*
X155956000Y-63500000D02*
X157466000Y-65010000D01*
X155956000Y-57912000D02*
X155956000Y-63500000D01*
X157466000Y-65010000D02*
X157466000Y-66142000D01*
X158496000Y-55372000D02*
X155956000Y-57912000D01*
X164846000Y-55372000D02*
X158496000Y-55372000D01*
X168148000Y-55372000D02*
X164846000Y-55372000D01*
X169164000Y-56388000D02*
X168148000Y-55372000D01*
X157466000Y-66142000D02*
X157466000Y-64276000D01*
X167066000Y-62296000D02*
X167640000Y-62296000D01*
X166116000Y-63246000D02*
X167066000Y-62296000D01*
X158496000Y-63246000D02*
X162306000Y-63246000D01*
X157466000Y-64276000D02*
X158496000Y-63246000D01*
X169926000Y-63585999D02*
X168995999Y-63585999D01*
X168995999Y-63585999D02*
X167706000Y-62296000D01*
X167706000Y-62296000D02*
X167640000Y-62296000D01*
X139700000Y-65786000D02*
X139192000Y-65786000D01*
X139700000Y-68854000D02*
X139700000Y-67818000D01*
X139192000Y-65786000D02*
X139065000Y-65659000D01*
X139065000Y-65659000D02*
X138099800Y-65659000D01*
X141046000Y-68854000D02*
X143648000Y-68854000D01*
X143648000Y-68854000D02*
X143688000Y-68814000D01*
X138846000Y-68854000D02*
X139700000Y-68854000D01*
X139700000Y-68854000D02*
X141046000Y-68854000D01*
X133172200Y-66929000D02*
X134493000Y-66929000D01*
X134747000Y-65659000D02*
X133172200Y-65659000D01*
X134874000Y-65786000D02*
X134747000Y-65659000D01*
X134874000Y-66548000D02*
X134874000Y-65786000D01*
X134493000Y-66929000D02*
X134874000Y-66548000D01*
X130378000Y-67838000D02*
X130536000Y-67838000D01*
X130536000Y-67838000D02*
X131445000Y-66929000D01*
X131445000Y-66929000D02*
X133172200Y-66929000D01*
X130968000Y-60836000D02*
X130172000Y-60836000D01*
X129032000Y-66548000D02*
X130322000Y-67838000D01*
X130172000Y-60836000D02*
X129286000Y-61722000D01*
X130322000Y-67838000D02*
X130378000Y-67838000D01*
X130968000Y-55248000D02*
X130172000Y-55248000D01*
X129286000Y-59154000D02*
X130968000Y-60836000D01*
X129286000Y-56134000D02*
X129286000Y-59154000D01*
X130172000Y-55248000D02*
X129286000Y-56134000D01*
X130968000Y-55248000D02*
X133988000Y-55248000D01*
X138684000Y-58166000D02*
X139700000Y-57150000D01*
X133988000Y-55248000D02*
X134366000Y-55626000D01*
X139700000Y-57150000D02*
X139700000Y-56830000D01*
X146558000Y-67564000D02*
X146558000Y-67310000D01*
X147300000Y-66568000D02*
X147300000Y-65608000D01*
X146558000Y-67310000D02*
X147300000Y-66568000D01*
X153670000Y-68580000D02*
X155702000Y-66548000D01*
X155702000Y-66548000D02*
X157060000Y-66548000D01*
X157060000Y-66548000D02*
X157466000Y-66142000D01*
D43*
X143688000Y-68814000D02*
X143688000Y-68504000D01*
D42*
X143688000Y-68504000D02*
X142748000Y-67564000D01*
X142748000Y-67564000D02*
X142748000Y-66548000D01*
X142734000Y-61200000D02*
X142734000Y-59284000D01*
X142748000Y-61214000D02*
X142734000Y-61200000D01*
X147300000Y-65608000D02*
X149022000Y-65608000D01*
X149022000Y-65608000D02*
X149606000Y-65024000D01*
X149606000Y-65024000D02*
X151892000Y-65024000D01*
X151892000Y-65024000D02*
X153670000Y-66802000D01*
X153670000Y-66802000D02*
X153670000Y-68580000D01*
D40*
X139700000Y-56830000D02*
X140280000Y-56830000D01*
X140280000Y-56830000D02*
X142734000Y-59284000D01*
D43*
X141086000Y-68814000D02*
X141046000Y-68854000D01*
X183368000Y-61036000D02*
X182296000Y-61036000D01*
X180848000Y-62230000D02*
X180848000Y-63416000D01*
X180594000Y-61976000D02*
X180848000Y-62230000D01*
X182296000Y-61036000D02*
X182118000Y-61214000D01*
X183388000Y-63416000D02*
X183388000Y-61056000D01*
X183388000Y-61056000D02*
X183368000Y-61036000D01*
X184828000Y-63416000D02*
X183388000Y-63416000D01*
X185166000Y-63754000D02*
X184828000Y-63416000D01*
X185166000Y-69088000D02*
X185166000Y-63754000D01*
X169926000Y-63585999D02*
X171281999Y-63585999D01*
X172466000Y-67818000D02*
X173990000Y-69342000D01*
X172466000Y-64770000D02*
X172466000Y-67818000D01*
X171281999Y-63585999D02*
X172466000Y-64770000D01*
D42*
X157466000Y-66142000D02*
X157466000Y-65292000D01*
D43*
X157038000Y-68834000D02*
X156565598Y-68834000D01*
X156565598Y-68834000D02*
X155956000Y-69443598D01*
X155956000Y-69443598D02*
X154025598Y-69443598D01*
X154025598Y-69443598D02*
X153670000Y-69088000D01*
X153670000Y-69088000D02*
X153670000Y-68580000D01*
D41*
X148180000Y-46736000D02*
X150876000Y-46736000D01*
X150876000Y-46736000D02*
X151384000Y-46228000D01*
X192786000Y-42244000D02*
X195914000Y-42244000D01*
X195914000Y-42244000D02*
X197358000Y-43688000D01*
X197358000Y-43688000D02*
X197358000Y-53594000D01*
X197358000Y-53594000D02*
X195500000Y-55452000D01*
X195500000Y-55452000D02*
X192786000Y-55452000D01*
X160020000Y-32131000D02*
X166497000Y-32131000D01*
X178816000Y-37084000D02*
X178562000Y-37084000D01*
X178562000Y-37084000D02*
X175450000Y-37084000D01*
X179324000Y-36576000D02*
X178816000Y-37084000D01*
X179324000Y-34544000D02*
X179324000Y-36576000D01*
X175514000Y-30734000D02*
X179324000Y-34544000D01*
X167894000Y-30734000D02*
X175514000Y-30734000D01*
X166497000Y-32131000D02*
X167894000Y-30734000D01*
X140272000Y-37084000D02*
X140462000Y-37084000D01*
X140462000Y-37084000D02*
X144526000Y-33020000D01*
X144526000Y-33020000D02*
X156591000Y-33020000D01*
X156591000Y-33020000D02*
X157480000Y-32131000D01*
X160020000Y-39751000D02*
X160020000Y-40386000D01*
X160020000Y-40386000D02*
X160883600Y-41249600D01*
X160883600Y-41249600D02*
X157480000Y-35941000D01*
X157480000Y-39751000D02*
X157480000Y-35941000D01*
D44*
X157480000Y-35941000D02*
X156210000Y-35941000D01*
X156210000Y-35941000D02*
X154940000Y-34671000D01*
X157480000Y-35941000D02*
X157480000Y-32131000D01*
X157480000Y-35941000D02*
X157480000Y-34671000D01*
X157480000Y-34671000D02*
X160020000Y-32131000D01*
X157480000Y-35941000D02*
X157480000Y-37211000D01*
X157480000Y-37211000D02*
X160020000Y-39751000D01*
X157480000Y-39751000D02*
X157480000Y-44221400D01*
D41*
X160883600Y-41249600D02*
X160883600Y-44221400D01*
X131064000Y-41656000D02*
X132588000Y-41656000D01*
X137160000Y-37084000D02*
X140272000Y-37084000D01*
X132588000Y-41656000D02*
X137160000Y-37084000D01*
X154274000Y-65024000D02*
X154274000Y-57308000D01*
X151034000Y-63624000D02*
X152874000Y-63624000D01*
X152874000Y-63624000D02*
X154274000Y-65024000D01*
X168910000Y-43434000D02*
X179480000Y-43434000D01*
X179480000Y-43434000D02*
X181864000Y-41050000D01*
X162566000Y-52058000D02*
X165366000Y-52058000D01*
X165100000Y-37084000D02*
X167450000Y-37084000D01*
X164592000Y-37592000D02*
X165100000Y-37084000D01*
X164592000Y-41656000D02*
X164592000Y-37592000D01*
X165608000Y-42672000D02*
X164592000Y-41656000D01*
X168148000Y-42672000D02*
X165608000Y-42672000D01*
X170688000Y-45212000D02*
X168910000Y-43434000D01*
X168910000Y-43434000D02*
X168148000Y-42672000D01*
X170688000Y-49022000D02*
X170688000Y-45212000D01*
X169418000Y-50292000D02*
X170688000Y-49022000D01*
X167132000Y-50292000D02*
X169418000Y-50292000D01*
X165366000Y-52058000D02*
X167132000Y-50292000D01*
X162566000Y-52058000D02*
X159524000Y-52058000D01*
X159524000Y-52058000D02*
X154152000Y-57430000D01*
D42*
X128016000Y-63416000D02*
X130152000Y-63416000D01*
X130152000Y-63416000D02*
X130302000Y-63566000D01*
X133172200Y-63119000D02*
X130749000Y-63119000D01*
X130749000Y-63119000D02*
X130302000Y-63566000D01*
X135890000Y-57150000D02*
X131854000Y-57150000D01*
X131854000Y-57150000D02*
X130968000Y-58036000D01*
X133172200Y-64389000D02*
X134493000Y-64389000D01*
X135890000Y-55530000D02*
X134208000Y-53848000D01*
X135890000Y-60198000D02*
X135890000Y-57150000D01*
X135890000Y-57150000D02*
X135890000Y-55530000D01*
X135128000Y-60960000D02*
X135890000Y-60198000D01*
X135128000Y-63754000D02*
X135128000Y-60960000D01*
X134493000Y-64389000D02*
X135128000Y-63754000D01*
X133172200Y-64389000D02*
X132207000Y-64389000D01*
X132207000Y-64389000D02*
X131130000Y-65466000D01*
X131130000Y-65466000D02*
X130302000Y-65466000D01*
D45*
X169926000Y-64235998D02*
X167679998Y-64235998D01*
X167679998Y-64235998D02*
X167640000Y-64196000D01*
D42*
X137338000Y-52304000D02*
X131112000Y-52304000D01*
X131112000Y-52304000D02*
X130968000Y-52448000D01*
X134208000Y-59436000D02*
X133604000Y-59436000D01*
X133604000Y-59436000D02*
X133096000Y-59944000D01*
X133096000Y-59944000D02*
X133096000Y-61722000D01*
X140716000Y-66802000D02*
X140589000Y-66929000D01*
X140589000Y-66929000D02*
X138099800Y-66929000D01*
D41*
X152533000Y-52058000D02*
X152533000Y-49273000D01*
X155778200Y-46027800D02*
X155778200Y-44221400D01*
X152533000Y-49273000D02*
X155778200Y-46027800D01*
X152533000Y-52058000D02*
X156730000Y-52058000D01*
X165256000Y-48514000D02*
X167034000Y-46736000D01*
X160274000Y-48514000D02*
X165256000Y-48514000D01*
X156730000Y-52058000D02*
X160274000Y-48514000D01*
X152533000Y-52058000D02*
X152533000Y-50565400D01*
X191338000Y-30500000D02*
X194544000Y-30500000D01*
X194544000Y-30500000D02*
X194564000Y-30480000D01*
X191507001Y-34806999D02*
X192349001Y-34806999D01*
X190246000Y-36068000D02*
X191507001Y-34806999D01*
X190246000Y-37084000D02*
X190246000Y-36068000D01*
X189992000Y-37338000D02*
X190246000Y-37084000D01*
X147334000Y-59284000D02*
X150202000Y-59284000D01*
X150202000Y-59284000D02*
X151192000Y-60274000D01*
X183368000Y-53756000D02*
X185836000Y-53756000D01*
X189992000Y-60452000D02*
X192786000Y-60452000D01*
X188214000Y-58674000D02*
X189992000Y-60452000D01*
X188214000Y-56134000D02*
X188214000Y-58674000D01*
X185836000Y-53756000D02*
X188214000Y-56134000D01*
X181864000Y-47850000D02*
X181864000Y-49542000D01*
X183368000Y-51288000D02*
X183368000Y-53756000D01*
X179872000Y-51534000D02*
X181864000Y-49542000D01*
X181864000Y-49542000D02*
X181864000Y-49784000D01*
X181864000Y-49784000D02*
X183368000Y-51288000D01*
D45*
X175768000Y-60986002D02*
X176810002Y-60986002D01*
X171450000Y-70358000D02*
X171450000Y-69342000D01*
X172212000Y-71120000D02*
X171450000Y-70358000D01*
X177546000Y-71120000D02*
X172212000Y-71120000D01*
X178308000Y-70358000D02*
X177546000Y-71120000D01*
X178308000Y-68834000D02*
X178308000Y-70358000D01*
X177038000Y-67564000D02*
X178308000Y-68834000D01*
X177038000Y-64262000D02*
X177038000Y-67564000D01*
X177292000Y-64008000D02*
X177038000Y-64262000D01*
X177292000Y-61468000D02*
X177292000Y-64008000D01*
X176810002Y-60986002D02*
X177292000Y-61468000D01*
X164612000Y-62154000D02*
X164922000Y-62154000D01*
X164922000Y-62154000D02*
X165862000Y-61214000D01*
X165862000Y-61214000D02*
X166116000Y-61214000D01*
X169926000Y-61636001D02*
X172380001Y-61636001D01*
X175768000Y-67818000D02*
X176530000Y-68580000D01*
X173736000Y-67818000D02*
X175768000Y-67818000D01*
X172974000Y-67056000D02*
X173736000Y-67818000D01*
X172974000Y-62230000D02*
X172974000Y-67056000D01*
X172380001Y-61636001D02*
X172974000Y-62230000D01*
X176530000Y-68580000D02*
X176530000Y-69342000D01*
X169926000Y-61636001D02*
X169078001Y-61636001D01*
X168656000Y-61214000D02*
X166116000Y-61214000D01*
X169078001Y-61636001D02*
X168656000Y-61214000D01*
D41*
X196342000Y-34544000D02*
X195580000Y-33782000D01*
X194239000Y-33782000D02*
X195580000Y-33782000D01*
X196342000Y-36322000D02*
X196342000Y-34544000D01*
X196342000Y-38100000D02*
X196342000Y-36322000D01*
X197104000Y-38862000D02*
X196342000Y-38100000D01*
D45*
X178328000Y-63424000D02*
X178486000Y-63424000D01*
X178486000Y-63424000D02*
X180678000Y-65616000D01*
X180678000Y-65616000D02*
X180848000Y-65616000D01*
D42*
X141478000Y-63416000D02*
X141478000Y-63754000D01*
X141478000Y-63754000D02*
X143340000Y-65616000D01*
X143340000Y-65616000D02*
X144272000Y-65616000D01*
X141478000Y-63416000D02*
X141478000Y-61722000D01*
X140736000Y-60980000D02*
X139522000Y-60980000D01*
X141478000Y-61722000D02*
X140736000Y-60980000D01*
X141478000Y-65616000D02*
X141054000Y-65616000D01*
X141054000Y-65616000D02*
X139827000Y-64389000D01*
X139827000Y-64389000D02*
X138099800Y-64389000D01*
X144272000Y-63416000D02*
X147292000Y-63416000D01*
X147292000Y-63416000D02*
X147300000Y-63408000D01*
X168064000Y-57404000D02*
X165750000Y-57404000D01*
X165750000Y-57404000D02*
X165588000Y-57566000D01*
D45*
X178288000Y-61036000D02*
X180670000Y-61036000D01*
X182626000Y-66040000D02*
X182964000Y-66040000D01*
X182118000Y-65532000D02*
X182626000Y-66040000D01*
X182118000Y-62484000D02*
X182118000Y-65532000D01*
X180670000Y-61036000D02*
X182118000Y-62484000D01*
X182964000Y-66040000D02*
X183388000Y-65616000D01*
D44*
X159181800Y-46304200D02*
X159181800Y-44221400D01*
X159531600Y-46654000D02*
X159181800Y-46304200D01*
X163122000Y-46654000D02*
X159531600Y-46654000D01*
X163842000Y-45934000D02*
X163122000Y-46654000D01*
D42*
X151034000Y-66424000D02*
X149730000Y-66424000D01*
X128178000Y-68488000D02*
X128178000Y-67838000D01*
X128778000Y-69088000D02*
X128178000Y-68488000D01*
X132080000Y-69088000D02*
X128778000Y-69088000D01*
X132588000Y-68580000D02*
X132080000Y-69088000D01*
X149730000Y-66424000D02*
X149098000Y-67056000D01*
X128178000Y-67838000D02*
X128178000Y-67472000D01*
X128178000Y-67472000D02*
X128016000Y-67310000D01*
X128016000Y-67310000D02*
X128016000Y-65616000D01*
D45*
X169926000Y-60985999D02*
X173202001Y-60985999D01*
X177800000Y-64516000D02*
X178328000Y-65044000D01*
X173202001Y-60985999D02*
X173482000Y-60706000D01*
X178328000Y-65044000D02*
X178328000Y-65624000D01*
X169926000Y-59686000D02*
X165668000Y-59686000D01*
X165668000Y-59686000D02*
X165588000Y-59766000D01*
X171311999Y-60336001D02*
X172581999Y-60336001D01*
X169926000Y-60336001D02*
X171311999Y-60336001D01*
X177292000Y-58674000D02*
X177800000Y-58674000D01*
X176784000Y-58674000D02*
X177292000Y-58674000D01*
X172581999Y-60336001D02*
X172720000Y-60198000D01*
X177800000Y-58674000D02*
X177962000Y-58836000D01*
X177962000Y-58836000D02*
X178288000Y-58836000D01*
X175768000Y-59686002D02*
X174748002Y-59686002D01*
X175216000Y-55924000D02*
X179872000Y-55924000D01*
X174244000Y-56896000D02*
X175216000Y-55924000D01*
X174244000Y-59182000D02*
X174244000Y-56896000D01*
X174748002Y-59686002D02*
X174244000Y-59182000D01*
X183368000Y-58836000D02*
X183368000Y-55956000D01*
X175768000Y-60336001D02*
X176899999Y-60336001D01*
X182260000Y-59944000D02*
X183368000Y-58836000D01*
X177292000Y-59944000D02*
X182260000Y-59944000D01*
X176899999Y-60336001D02*
X177292000Y-59944000D01*
D44*
X148272000Y-37084000D02*
X148272000Y-38634000D01*
X154076400Y-42848400D02*
X154076400Y-44221400D01*
X153552000Y-42324000D02*
X154076400Y-42848400D01*
X151962000Y-42324000D02*
X153552000Y-42324000D01*
X148272000Y-38634000D02*
X151962000Y-42324000D01*
D41*
X150114000Y-70612000D02*
X151638000Y-70612000D01*
X162066000Y-69836000D02*
X162066000Y-66142000D01*
X162066000Y-70344000D02*
X162066000Y-69836000D01*
X161798000Y-70612000D02*
X162066000Y-70344000D01*
X159766000Y-70612000D02*
X161798000Y-70612000D01*
X151638000Y-70612000D02*
X159766000Y-70612000D01*
X131064000Y-46656000D02*
X128858000Y-46656000D01*
X150714000Y-70012000D02*
X150714000Y-68814000D01*
X150114000Y-70612000D02*
X150714000Y-70012000D01*
X127762000Y-70612000D02*
X150114000Y-70612000D01*
X125730000Y-68580000D02*
X127762000Y-70612000D01*
X125730000Y-49784000D02*
X125730000Y-68580000D01*
X128858000Y-46656000D02*
X125730000Y-49784000D01*
X141380000Y-46736000D02*
X141380000Y-42008000D01*
X141380000Y-42008000D02*
X146304000Y-37084000D01*
X146304000Y-37084000D02*
X148272000Y-37084000D01*
X131064000Y-46656000D02*
X141300000Y-46656000D01*
X141300000Y-46656000D02*
X141380000Y-46736000D01*
D42*
X136144000Y-62484000D02*
X136144000Y-68834000D01*
X137322000Y-60980000D02*
X136378000Y-60980000D01*
X136779000Y-63119000D02*
X138099800Y-63119000D01*
X136144000Y-62484000D02*
X136779000Y-63119000D01*
X136144000Y-61214000D02*
X136144000Y-62484000D01*
X136378000Y-60980000D02*
X136144000Y-61214000D01*
X139700000Y-54930000D02*
X138364000Y-54930000D01*
X137322000Y-55972000D02*
X137322000Y-60980000D01*
X138364000Y-54930000D02*
X137322000Y-55972000D01*
X139538000Y-52304000D02*
X139538000Y-54768000D01*
X139538000Y-54768000D02*
X139700000Y-54930000D01*
X159766000Y-66142000D02*
X159766000Y-67564000D01*
X159766000Y-67564000D02*
X160274000Y-68072000D01*
D45*
X166552000Y-65278000D02*
X165536000Y-65278000D01*
X169048001Y-64885999D02*
X168656000Y-65278000D01*
X168656000Y-65278000D02*
X166552000Y-65278000D01*
X169926000Y-64885999D02*
X169048001Y-64885999D01*
X165536000Y-65278000D02*
X164612000Y-64354000D01*
D42*
X163830000Y-65278000D02*
X163830000Y-65136000D01*
X163576000Y-68834000D02*
X163830000Y-68580000D01*
X163830000Y-68580000D02*
X163830000Y-65278000D01*
X163830000Y-65136000D02*
X164612000Y-64354000D01*
X145034000Y-60960000D02*
X145796000Y-61722000D01*
X145034000Y-59284000D02*
X145034000Y-60960000D01*
X157922000Y-67818000D02*
X158938000Y-68834000D01*
X155956000Y-67818000D02*
X157922000Y-67818000D01*
X155194000Y-68580000D02*
X155956000Y-67818000D01*
D45*
X174300002Y-62286002D02*
X173736000Y-61722000D01*
X174300002Y-62286002D02*
X175768000Y-62286002D01*
X145888000Y-68814000D02*
X148514000Y-68814000D01*
X144272000Y-67310000D02*
X145776000Y-68814000D01*
X145776000Y-68814000D02*
X145888000Y-68814000D01*
D42*
X183388000Y-32832000D02*
X183322000Y-32832000D01*
X183322000Y-32832000D02*
X181356000Y-34798000D01*
X177546000Y-51562000D02*
X179708000Y-53724000D01*
X185690000Y-32832000D02*
X183388000Y-32832000D01*
X179708000Y-53724000D02*
X179872000Y-53724000D01*
D41*
X179872000Y-53724000D02*
X179872000Y-51534000D01*
D42*
X189746999Y-32757001D02*
X189746999Y-31758999D01*
X189138000Y-31150000D02*
X189138000Y-30500000D01*
X189746999Y-31758999D02*
X189138000Y-31150000D01*
X192349001Y-32757001D02*
X189746999Y-32757001D01*
X188722000Y-33782000D02*
X187690000Y-33782000D01*
X189746999Y-32757001D02*
X188722000Y-33782000D01*
D45*
G36*
X187650398Y-29575139D02*
X187574487Y-29950000D01*
X187574487Y-31050000D01*
X187640381Y-31400196D01*
X187847346Y-31721830D01*
X188163139Y-31937602D01*
X188194225Y-31943897D01*
X188254258Y-32033742D01*
X188478516Y-32258000D01*
X188288049Y-32448467D01*
X188140000Y-32418487D01*
X187240000Y-32418487D01*
X187103513Y-32444169D01*
X187103513Y-32432000D01*
X187037619Y-32081804D01*
X186830654Y-31760170D01*
X186514861Y-31544398D01*
X186140000Y-31468487D01*
X185240000Y-31468487D01*
X184889804Y-31534381D01*
X184815491Y-31582200D01*
X183322000Y-31582200D01*
X182843722Y-31677335D01*
X182438258Y-31948258D01*
X180695282Y-33691234D01*
X180634601Y-33716307D01*
X180275568Y-34074714D01*
X180081021Y-34543234D01*
X180080579Y-35050540D01*
X180274307Y-35519399D01*
X180632714Y-35878432D01*
X181101234Y-36072979D01*
X181608540Y-36073421D01*
X182077399Y-35879693D01*
X182436432Y-35521286D01*
X182462162Y-35459322D01*
X182903734Y-35017750D01*
X184605000Y-35017750D01*
X184605000Y-35258310D01*
X184701673Y-35491699D01*
X184880302Y-35670327D01*
X185113691Y-35767000D01*
X185404250Y-35767000D01*
X185563000Y-35608250D01*
X185563000Y-34859000D01*
X184763750Y-34859000D01*
X184605000Y-35017750D01*
X182903734Y-35017750D01*
X183839684Y-34081800D01*
X184656317Y-34081800D01*
X184605000Y-34205690D01*
X184605000Y-34446250D01*
X184763750Y-34605000D01*
X185563000Y-34605000D01*
X185563000Y-34585000D01*
X185817000Y-34585000D01*
X185817000Y-34605000D01*
X185837000Y-34605000D01*
X185837000Y-34859000D01*
X185817000Y-34859000D01*
X185817000Y-35608250D01*
X185975750Y-35767000D01*
X186266309Y-35767000D01*
X186499698Y-35670327D01*
X186678327Y-35491699D01*
X186775000Y-35258310D01*
X186775000Y-35017750D01*
X186744257Y-34987007D01*
X186865139Y-35069602D01*
X187240000Y-35145513D01*
X188140000Y-35145513D01*
X188490196Y-35079619D01*
X188564509Y-35031800D01*
X188722000Y-35031800D01*
X188886805Y-34999018D01*
X188748219Y-35206427D01*
X188608828Y-35264022D01*
X187920439Y-35951211D01*
X187547426Y-36849526D01*
X187546577Y-37822207D01*
X187918022Y-38721172D01*
X188605211Y-39409561D01*
X189503526Y-39782574D01*
X190476207Y-39783423D01*
X191375172Y-39411978D01*
X192063561Y-38724789D01*
X192436574Y-37826474D01*
X192437423Y-36853793D01*
X192318013Y-36564799D01*
X192349001Y-36564799D01*
X193021682Y-36430994D01*
X193591953Y-36049951D01*
X193968745Y-35486043D01*
X194239000Y-35539800D01*
X194584200Y-35539800D01*
X194584200Y-38100000D01*
X194659335Y-38477728D01*
X194658577Y-39346207D01*
X195030022Y-40245172D01*
X195717211Y-40933561D01*
X196615526Y-41306574D01*
X197588207Y-41307423D01*
X198487172Y-40935978D01*
X198522000Y-40901211D01*
X198522000Y-70760000D01*
X179300037Y-70760000D01*
X179380000Y-70358000D01*
X179380000Y-68834000D01*
X179298399Y-68423763D01*
X179250182Y-68351601D01*
X179066018Y-68075981D01*
X178177549Y-67187513D01*
X178878000Y-67187513D01*
X179228196Y-67121619D01*
X179549830Y-66914654D01*
X179639839Y-66782921D01*
X179707346Y-66887830D01*
X180023139Y-67103602D01*
X180398000Y-67179513D01*
X181298000Y-67179513D01*
X181648196Y-67113619D01*
X181969830Y-66906654D01*
X181988867Y-66878792D01*
X182104425Y-66956005D01*
X182215763Y-67030399D01*
X182554662Y-67097810D01*
X182563139Y-67103602D01*
X182938000Y-67179513D01*
X183838000Y-67179513D01*
X184188196Y-67113619D01*
X184509830Y-66906654D01*
X184725602Y-66590861D01*
X184801513Y-66216000D01*
X184801513Y-65016000D01*
X184735619Y-64665804D01*
X184528654Y-64344170D01*
X184420107Y-64270003D01*
X184473000Y-64142309D01*
X184473000Y-63701750D01*
X184314250Y-63543000D01*
X183515000Y-63543000D01*
X183515000Y-63563000D01*
X183261000Y-63563000D01*
X183261000Y-63543000D01*
X183241000Y-63543000D01*
X183241000Y-63289000D01*
X183261000Y-63289000D01*
X183261000Y-62339750D01*
X183137250Y-62216000D01*
X183241000Y-62112250D01*
X183241000Y-61163000D01*
X183495000Y-61163000D01*
X183495000Y-62112250D01*
X183618750Y-62236000D01*
X183515000Y-62339750D01*
X183515000Y-63289000D01*
X184314250Y-63289000D01*
X184473000Y-63130250D01*
X184473000Y-62689691D01*
X184376327Y-62456302D01*
X184197699Y-62277673D01*
X184112949Y-62242569D01*
X184277699Y-62174327D01*
X184456327Y-61995698D01*
X184553000Y-61762309D01*
X184553000Y-61321750D01*
X184394250Y-61163000D01*
X183495000Y-61163000D01*
X183241000Y-61163000D01*
X183221000Y-61163000D01*
X183221000Y-60909000D01*
X183241000Y-60909000D01*
X183241000Y-60889000D01*
X183495000Y-60889000D01*
X183495000Y-60909000D01*
X184394250Y-60909000D01*
X184553000Y-60750250D01*
X184553000Y-60309691D01*
X184500890Y-60183885D01*
X184589830Y-60126654D01*
X184805602Y-59810861D01*
X184881513Y-59436000D01*
X184881513Y-58236000D01*
X184815619Y-57885804D01*
X184608654Y-57564170D01*
X184440000Y-57448934D01*
X184440000Y-57343067D01*
X184589830Y-57246654D01*
X184805602Y-56930861D01*
X184881513Y-56556000D01*
X184881513Y-55513800D01*
X185107896Y-55513800D01*
X186456200Y-56862104D01*
X186456200Y-58674000D01*
X186590005Y-59346681D01*
X186971048Y-59916952D01*
X188749048Y-61694953D01*
X189023352Y-61878236D01*
X189319319Y-62075995D01*
X189992000Y-62209800D01*
X190739796Y-62209800D01*
X190845346Y-62373830D01*
X191161139Y-62589602D01*
X191536000Y-62665513D01*
X194036000Y-62665513D01*
X194386196Y-62599619D01*
X194707830Y-62392654D01*
X194923602Y-62076861D01*
X194999513Y-61702000D01*
X194999513Y-59202000D01*
X194933619Y-58851804D01*
X194726654Y-58530170D01*
X194410861Y-58314398D01*
X194036000Y-58238487D01*
X191536000Y-58238487D01*
X191185804Y-58304381D01*
X190864170Y-58511346D01*
X190739231Y-58694200D01*
X190720105Y-58694200D01*
X189971800Y-57945896D01*
X189971800Y-56785320D01*
X191632285Y-56785320D01*
X191761533Y-57078123D01*
X192461806Y-57346388D01*
X193211435Y-57326250D01*
X193810467Y-57078123D01*
X193939715Y-56785320D01*
X192786000Y-55631605D01*
X191632285Y-56785320D01*
X189971800Y-56785320D01*
X189971800Y-56134000D01*
X189837995Y-55461319D01*
X189615149Y-55127806D01*
X190891612Y-55127806D01*
X190911750Y-55877435D01*
X191159877Y-56476467D01*
X191452680Y-56605715D01*
X192606395Y-55452000D01*
X192965605Y-55452000D01*
X194119320Y-56605715D01*
X194412123Y-56476467D01*
X194680388Y-55776194D01*
X194660250Y-55026565D01*
X194412123Y-54427533D01*
X194119320Y-54298285D01*
X192965605Y-55452000D01*
X192606395Y-55452000D01*
X191452680Y-54298285D01*
X191159877Y-54427533D01*
X190891612Y-55127806D01*
X189615149Y-55127806D01*
X189456952Y-54891048D01*
X188684584Y-54118680D01*
X191632285Y-54118680D01*
X192786000Y-55272395D01*
X193939715Y-54118680D01*
X193810467Y-53825877D01*
X193110194Y-53557612D01*
X192360565Y-53577750D01*
X191761533Y-53825877D01*
X191632285Y-54118680D01*
X188684584Y-54118680D01*
X187078952Y-52513048D01*
X186508681Y-52132005D01*
X185836000Y-51998200D01*
X185125800Y-51998200D01*
X185125800Y-51288000D01*
X184991995Y-50615319D01*
X184610952Y-50045048D01*
X184255132Y-49689228D01*
X184401602Y-49474861D01*
X184477513Y-49100000D01*
X184477513Y-46600000D01*
X184411619Y-46249804D01*
X184247015Y-45994000D01*
X190572487Y-45994000D01*
X190572487Y-48494000D01*
X190638381Y-48844196D01*
X190845346Y-49165830D01*
X191161139Y-49381602D01*
X191536000Y-49457513D01*
X194036000Y-49457513D01*
X194386196Y-49391619D01*
X194707830Y-49184654D01*
X194923602Y-48868861D01*
X194999513Y-48494000D01*
X194999513Y-45994000D01*
X194933619Y-45643804D01*
X194726654Y-45322170D01*
X194410861Y-45106398D01*
X194036000Y-45030487D01*
X191536000Y-45030487D01*
X191185804Y-45096381D01*
X190864170Y-45303346D01*
X190648398Y-45619139D01*
X190572487Y-45994000D01*
X184247015Y-45994000D01*
X184204654Y-45928170D01*
X183888861Y-45712398D01*
X183514000Y-45636487D01*
X180214000Y-45636487D01*
X179863804Y-45702381D01*
X179542170Y-45909346D01*
X179326398Y-46225139D01*
X179250487Y-46600000D01*
X179250487Y-49100000D01*
X179316381Y-49450196D01*
X179376489Y-49543607D01*
X178629048Y-50291048D01*
X178408538Y-50621064D01*
X178269286Y-50481568D01*
X177800766Y-50287021D01*
X177293460Y-50286579D01*
X176824601Y-50480307D01*
X176465568Y-50838714D01*
X176271021Y-51307234D01*
X176270579Y-51814540D01*
X176464307Y-52283399D01*
X176822714Y-52642432D01*
X176884678Y-52668162D01*
X178157326Y-53940810D01*
X178248005Y-54396681D01*
X178420832Y-54655335D01*
X178424381Y-54674196D01*
X178520352Y-54823340D01*
X178500770Y-54852000D01*
X175216000Y-54852000D01*
X174805764Y-54933600D01*
X174457982Y-55165981D01*
X173485982Y-56137982D01*
X173253601Y-56485763D01*
X173172000Y-56896000D01*
X173172000Y-59032423D01*
X172969691Y-58948417D01*
X172472490Y-58947984D01*
X172012970Y-59137853D01*
X171886602Y-59264001D01*
X171580164Y-59264001D01*
X171560219Y-59158004D01*
X171353254Y-58836370D01*
X171037461Y-58620598D01*
X170662600Y-58544687D01*
X169335779Y-58544687D01*
X169335830Y-58544654D01*
X169409997Y-58436107D01*
X169537691Y-58489000D01*
X169978250Y-58489000D01*
X170137000Y-58330250D01*
X170137000Y-57531000D01*
X170391000Y-57531000D01*
X170391000Y-58330250D01*
X170549750Y-58489000D01*
X170990309Y-58489000D01*
X171223698Y-58392327D01*
X171402327Y-58213699D01*
X171499000Y-57980310D01*
X171499000Y-57689750D01*
X171340250Y-57531000D01*
X170391000Y-57531000D01*
X170137000Y-57531000D01*
X170117000Y-57531000D01*
X170117000Y-57277000D01*
X170137000Y-57277000D01*
X170137000Y-56477750D01*
X170391000Y-56477750D01*
X170391000Y-57277000D01*
X171340250Y-57277000D01*
X171499000Y-57118250D01*
X171499000Y-56827690D01*
X171402327Y-56594301D01*
X171223698Y-56415673D01*
X170990309Y-56319000D01*
X170549750Y-56319000D01*
X170391000Y-56477750D01*
X170137000Y-56477750D01*
X169978250Y-56319000D01*
X169537691Y-56319000D01*
X169411885Y-56371110D01*
X169354654Y-56282170D01*
X169038861Y-56066398D01*
X168664000Y-55990487D01*
X167464000Y-55990487D01*
X167113804Y-56056381D01*
X166961788Y-56154200D01*
X166623801Y-56154200D01*
X166512861Y-56078398D01*
X166138000Y-56002487D01*
X165038000Y-56002487D01*
X164687804Y-56068381D01*
X164366170Y-56275346D01*
X164150398Y-56591139D01*
X164074487Y-56966000D01*
X164074487Y-58166000D01*
X164140381Y-58516196D01*
X164236352Y-58665340D01*
X164150398Y-58791139D01*
X164074487Y-59166000D01*
X164074487Y-60366000D01*
X164116727Y-60590487D01*
X164062000Y-60590487D01*
X163711804Y-60656381D01*
X163390170Y-60863346D01*
X163174398Y-61179139D01*
X163098487Y-61554000D01*
X163098487Y-62754000D01*
X163164381Y-63104196D01*
X163260352Y-63253340D01*
X163174398Y-63379139D01*
X163098487Y-63754000D01*
X163098487Y-64100029D01*
X162985670Y-64212846D01*
X162816000Y-64178487D01*
X161316000Y-64178487D01*
X160965804Y-64244381D01*
X160919659Y-64274075D01*
X160890861Y-64254398D01*
X160516000Y-64178487D01*
X159016000Y-64178487D01*
X158665804Y-64244381D01*
X158344170Y-64451346D01*
X158306143Y-64507000D01*
X157751750Y-64507000D01*
X157593000Y-64665750D01*
X157593000Y-66015000D01*
X157613000Y-66015000D01*
X157613000Y-66269000D01*
X157593000Y-66269000D01*
X157593000Y-66289000D01*
X157339000Y-66289000D01*
X157339000Y-66269000D01*
X156239750Y-66269000D01*
X156081000Y-66427750D01*
X156081000Y-66568200D01*
X155956000Y-66568200D01*
X155477722Y-66663335D01*
X155072258Y-66934258D01*
X154767453Y-67239063D01*
X154400755Y-67390579D01*
X154005966Y-67784680D01*
X153792044Y-68299861D01*
X153791560Y-68854200D01*
X152471800Y-68854200D01*
X152471800Y-68814000D01*
X152337995Y-68141319D01*
X152221672Y-67967229D01*
X152211619Y-67913804D01*
X152148581Y-67815840D01*
X152305830Y-67714654D01*
X152521602Y-67398861D01*
X152597513Y-67024000D01*
X152597513Y-66020776D01*
X152626381Y-66174196D01*
X152833346Y-66495830D01*
X153149139Y-66711602D01*
X153524000Y-66787513D01*
X155024000Y-66787513D01*
X155374196Y-66721619D01*
X155695830Y-66514654D01*
X155911602Y-66198861D01*
X155987513Y-65824000D01*
X155987513Y-65246645D01*
X156031800Y-65024000D01*
X156031800Y-65015691D01*
X156081000Y-65015691D01*
X156081000Y-65856250D01*
X156239750Y-66015000D01*
X157339000Y-66015000D01*
X157339000Y-64665750D01*
X157180250Y-64507000D01*
X156589690Y-64507000D01*
X156356301Y-64603673D01*
X156177673Y-64782302D01*
X156081000Y-65015691D01*
X156031800Y-65015691D01*
X156031800Y-58842000D01*
X156902487Y-58842000D01*
X156902487Y-60842000D01*
X156968381Y-61192196D01*
X157175346Y-61513830D01*
X157491139Y-61729602D01*
X157866000Y-61805513D01*
X161666000Y-61805513D01*
X162016196Y-61739619D01*
X162337830Y-61532654D01*
X162553602Y-61216861D01*
X162629513Y-60842000D01*
X162629513Y-58842000D01*
X162563619Y-58491804D01*
X162356654Y-58170170D01*
X162040861Y-57954398D01*
X161666000Y-57878487D01*
X157866000Y-57878487D01*
X157515804Y-57944381D01*
X157194170Y-58151346D01*
X156978398Y-58467139D01*
X156902487Y-58842000D01*
X156031800Y-58842000D01*
X156031800Y-58036104D01*
X159702487Y-54365417D01*
X159702487Y-54458000D01*
X159768381Y-54808196D01*
X159975346Y-55129830D01*
X160291139Y-55345602D01*
X160666000Y-55421513D01*
X164466000Y-55421513D01*
X164816196Y-55355619D01*
X165137830Y-55148654D01*
X165353602Y-54832861D01*
X165429513Y-54458000D01*
X165429513Y-53803166D01*
X166038681Y-53681995D01*
X166608952Y-53300952D01*
X167860104Y-52049800D01*
X169418000Y-52049800D01*
X170090681Y-51915995D01*
X170660952Y-51534952D01*
X171930952Y-50264952D01*
X172311995Y-49694681D01*
X172355720Y-49474861D01*
X172445800Y-49022000D01*
X172445800Y-49016075D01*
X172457690Y-49021000D01*
X173548250Y-49021000D01*
X173707000Y-48862250D01*
X173707000Y-46863000D01*
X173961000Y-46863000D01*
X173961000Y-48862250D01*
X174119750Y-49021000D01*
X175210310Y-49021000D01*
X175443699Y-48924327D01*
X175622327Y-48745698D01*
X175719000Y-48512309D01*
X175719000Y-47021750D01*
X175560250Y-46863000D01*
X173961000Y-46863000D01*
X173707000Y-46863000D01*
X173687000Y-46863000D01*
X173687000Y-46609000D01*
X173707000Y-46609000D01*
X173707000Y-46589000D01*
X173961000Y-46589000D01*
X173961000Y-46609000D01*
X175560250Y-46609000D01*
X175719000Y-46450250D01*
X175719000Y-45191800D01*
X179480000Y-45191800D01*
X180152681Y-45057995D01*
X180722952Y-44676952D01*
X181822584Y-43577320D01*
X191632285Y-43577320D01*
X191761533Y-43870123D01*
X192461806Y-44138388D01*
X193211435Y-44118250D01*
X193810467Y-43870123D01*
X193939715Y-43577320D01*
X192786000Y-42423605D01*
X191632285Y-43577320D01*
X181822584Y-43577320D01*
X182136391Y-43263513D01*
X183514000Y-43263513D01*
X183864196Y-43197619D01*
X184185830Y-42990654D01*
X184401602Y-42674861D01*
X184477513Y-42300000D01*
X184477513Y-41919806D01*
X190891612Y-41919806D01*
X190911750Y-42669435D01*
X191159877Y-43268467D01*
X191452680Y-43397715D01*
X192606395Y-42244000D01*
X192965605Y-42244000D01*
X194119320Y-43397715D01*
X194412123Y-43268467D01*
X194680388Y-42568194D01*
X194660250Y-41818565D01*
X194412123Y-41219533D01*
X194119320Y-41090285D01*
X192965605Y-42244000D01*
X192606395Y-42244000D01*
X191452680Y-41090285D01*
X191159877Y-41219533D01*
X190891612Y-41919806D01*
X184477513Y-41919806D01*
X184477513Y-40910680D01*
X191632285Y-40910680D01*
X192786000Y-42064395D01*
X193939715Y-40910680D01*
X193810467Y-40617877D01*
X193110194Y-40349612D01*
X192360565Y-40369750D01*
X191761533Y-40617877D01*
X191632285Y-40910680D01*
X184477513Y-40910680D01*
X184477513Y-39800000D01*
X184411619Y-39449804D01*
X184204654Y-39128170D01*
X183888861Y-38912398D01*
X183514000Y-38836487D01*
X180214000Y-38836487D01*
X179863804Y-38902381D01*
X179542170Y-39109346D01*
X179326398Y-39425139D01*
X179250487Y-39800000D01*
X179250487Y-41177609D01*
X178751896Y-41676200D01*
X169638104Y-41676200D01*
X169390952Y-41429048D01*
X168820681Y-41048005D01*
X168148000Y-40914200D01*
X166349800Y-40914200D01*
X166349800Y-39297513D01*
X169450000Y-39297513D01*
X169800196Y-39231619D01*
X170121830Y-39024654D01*
X170337602Y-38708861D01*
X170413513Y-38334000D01*
X170413513Y-37369750D01*
X172815000Y-37369750D01*
X172815000Y-38460310D01*
X172911673Y-38693699D01*
X173090302Y-38872327D01*
X173323691Y-38969000D01*
X175164250Y-38969000D01*
X175323000Y-38810250D01*
X175323000Y-37211000D01*
X175577000Y-37211000D01*
X175577000Y-38810250D01*
X175735750Y-38969000D01*
X177576309Y-38969000D01*
X177809698Y-38872327D01*
X177988327Y-38693699D01*
X178085000Y-38460310D01*
X178085000Y-37369750D01*
X177926250Y-37211000D01*
X175577000Y-37211000D01*
X175323000Y-37211000D01*
X172973750Y-37211000D01*
X172815000Y-37369750D01*
X170413513Y-37369750D01*
X170413513Y-35834000D01*
X170389747Y-35707690D01*
X172815000Y-35707690D01*
X172815000Y-36798250D01*
X172973750Y-36957000D01*
X175323000Y-36957000D01*
X175323000Y-35357750D01*
X175577000Y-35357750D01*
X175577000Y-36957000D01*
X177926250Y-36957000D01*
X178085000Y-36798250D01*
X178085000Y-35707690D01*
X177988327Y-35474301D01*
X177809698Y-35295673D01*
X177576309Y-35199000D01*
X175735750Y-35199000D01*
X175577000Y-35357750D01*
X175323000Y-35357750D01*
X175164250Y-35199000D01*
X173323691Y-35199000D01*
X173090302Y-35295673D01*
X172911673Y-35474301D01*
X172815000Y-35707690D01*
X170389747Y-35707690D01*
X170347619Y-35483804D01*
X170140654Y-35162170D01*
X169824861Y-34946398D01*
X169450000Y-34870487D01*
X165450000Y-34870487D01*
X165099804Y-34936381D01*
X164778170Y-35143346D01*
X164582960Y-35429046D01*
X164431673Y-35459139D01*
X164427319Y-35460005D01*
X163857047Y-35841048D01*
X163349048Y-36349048D01*
X163347400Y-36351514D01*
X163347400Y-36226750D01*
X163188650Y-36068000D01*
X157607000Y-36068000D01*
X157607000Y-36088000D01*
X157353000Y-36088000D01*
X157353000Y-36068000D01*
X151771350Y-36068000D01*
X151612600Y-36226750D01*
X151612600Y-39776064D01*
X150893546Y-39057010D01*
X150943830Y-39024654D01*
X151159602Y-38708861D01*
X151235513Y-38334000D01*
X151235513Y-35834000D01*
X151169619Y-35483804D01*
X150962654Y-35162170D01*
X150646861Y-34946398D01*
X150272000Y-34870487D01*
X146272000Y-34870487D01*
X145921804Y-34936381D01*
X145600170Y-35143346D01*
X145384398Y-35459139D01*
X145345556Y-35650945D01*
X145061048Y-35841047D01*
X142907000Y-37995095D01*
X142907000Y-37369750D01*
X142748250Y-37211000D01*
X140399000Y-37211000D01*
X140399000Y-38810250D01*
X140557750Y-38969000D01*
X141933096Y-38969000D01*
X140137048Y-40765048D01*
X139756005Y-41335319D01*
X139622200Y-42008000D01*
X139622200Y-44289796D01*
X139458170Y-44395346D01*
X139242398Y-44711139D01*
X139204517Y-44898200D01*
X132410759Y-44898200D01*
X132308991Y-44796254D01*
X131502528Y-44461381D01*
X130629303Y-44460619D01*
X129822257Y-44794084D01*
X129717959Y-44898200D01*
X128858000Y-44898200D01*
X128185319Y-45032005D01*
X127615048Y-45413048D01*
X125455000Y-47573096D01*
X125455000Y-41941750D01*
X129179000Y-41941750D01*
X129179000Y-43032309D01*
X129275673Y-43265698D01*
X129454301Y-43444327D01*
X129687690Y-43541000D01*
X130778250Y-43541000D01*
X130937000Y-43382250D01*
X130937000Y-41783000D01*
X131191000Y-41783000D01*
X131191000Y-43382250D01*
X131349750Y-43541000D01*
X132440310Y-43541000D01*
X132673699Y-43444327D01*
X132852327Y-43265698D01*
X132949000Y-43032309D01*
X132949000Y-41941750D01*
X132790250Y-41783000D01*
X131191000Y-41783000D01*
X130937000Y-41783000D01*
X129337750Y-41783000D01*
X129179000Y-41941750D01*
X125455000Y-41941750D01*
X125455000Y-40279691D01*
X129179000Y-40279691D01*
X129179000Y-41370250D01*
X129337750Y-41529000D01*
X130937000Y-41529000D01*
X130937000Y-39929750D01*
X131191000Y-39929750D01*
X131191000Y-41529000D01*
X132790250Y-41529000D01*
X132949000Y-41370250D01*
X132949000Y-40279691D01*
X132852327Y-40046302D01*
X132673699Y-39867673D01*
X132440310Y-39771000D01*
X131349750Y-39771000D01*
X131191000Y-39929750D01*
X130937000Y-39929750D01*
X130778250Y-39771000D01*
X129687690Y-39771000D01*
X129454301Y-39867673D01*
X129275673Y-40046302D01*
X129179000Y-40279691D01*
X125455000Y-40279691D01*
X125455000Y-37369750D01*
X137637000Y-37369750D01*
X137637000Y-38460310D01*
X137733673Y-38693699D01*
X137912302Y-38872327D01*
X138145691Y-38969000D01*
X139986250Y-38969000D01*
X140145000Y-38810250D01*
X140145000Y-37211000D01*
X137795750Y-37211000D01*
X137637000Y-37369750D01*
X125455000Y-37369750D01*
X125455000Y-35707690D01*
X137637000Y-35707690D01*
X137637000Y-36798250D01*
X137795750Y-36957000D01*
X140145000Y-36957000D01*
X140145000Y-35357750D01*
X140399000Y-35357750D01*
X140399000Y-36957000D01*
X142748250Y-36957000D01*
X142907000Y-36798250D01*
X142907000Y-35707690D01*
X142810327Y-35474301D01*
X142631698Y-35295673D01*
X142398309Y-35199000D01*
X140557750Y-35199000D01*
X140399000Y-35357750D01*
X140145000Y-35357750D01*
X139986250Y-35199000D01*
X138145691Y-35199000D01*
X137912302Y-35295673D01*
X137733673Y-35474301D01*
X137637000Y-35707690D01*
X125455000Y-35707690D01*
X125455000Y-30379090D01*
X151612600Y-30379090D01*
X151612600Y-35655250D01*
X151771350Y-35814000D01*
X157353000Y-35814000D01*
X157353000Y-35669718D01*
X157369580Y-35674954D01*
X157607000Y-35654293D01*
X157607000Y-35814000D01*
X163188650Y-35814000D01*
X163347400Y-35655250D01*
X163347400Y-30379090D01*
X163250727Y-30145701D01*
X163072098Y-29967073D01*
X162838709Y-29870400D01*
X157765750Y-29870400D01*
X157607000Y-30029150D01*
X157607000Y-31132282D01*
X157590420Y-31127046D01*
X157353000Y-31147707D01*
X157353000Y-30029150D01*
X157194250Y-29870400D01*
X152121291Y-29870400D01*
X151887902Y-29967073D01*
X151709273Y-30145701D01*
X151612600Y-30379090D01*
X125455000Y-30379090D01*
X125455000Y-29570000D01*
X187653909Y-29570000D01*
X187650398Y-29575139D01*
X187650398Y-29575139D01*
G37*
X187650398Y-29575139D02*
X187574487Y-29950000D01*
X187574487Y-31050000D01*
X187640381Y-31400196D01*
X187847346Y-31721830D01*
X188163139Y-31937602D01*
X188194225Y-31943897D01*
X188254258Y-32033742D01*
X188478516Y-32258000D01*
X188288049Y-32448467D01*
X188140000Y-32418487D01*
X187240000Y-32418487D01*
X187103513Y-32444169D01*
X187103513Y-32432000D01*
X187037619Y-32081804D01*
X186830654Y-31760170D01*
X186514861Y-31544398D01*
X186140000Y-31468487D01*
X185240000Y-31468487D01*
X184889804Y-31534381D01*
X184815491Y-31582200D01*
X183322000Y-31582200D01*
X182843722Y-31677335D01*
X182438258Y-31948258D01*
X180695282Y-33691234D01*
X180634601Y-33716307D01*
X180275568Y-34074714D01*
X180081021Y-34543234D01*
X180080579Y-35050540D01*
X180274307Y-35519399D01*
X180632714Y-35878432D01*
X181101234Y-36072979D01*
X181608540Y-36073421D01*
X182077399Y-35879693D01*
X182436432Y-35521286D01*
X182462162Y-35459322D01*
X182903734Y-35017750D01*
X184605000Y-35017750D01*
X184605000Y-35258310D01*
X184701673Y-35491699D01*
X184880302Y-35670327D01*
X185113691Y-35767000D01*
X185404250Y-35767000D01*
X185563000Y-35608250D01*
X185563000Y-34859000D01*
X184763750Y-34859000D01*
X184605000Y-35017750D01*
X182903734Y-35017750D01*
X183839684Y-34081800D01*
X184656317Y-34081800D01*
X184605000Y-34205690D01*
X184605000Y-34446250D01*
X184763750Y-34605000D01*
X185563000Y-34605000D01*
X185563000Y-34585000D01*
X185817000Y-34585000D01*
X185817000Y-34605000D01*
X185837000Y-34605000D01*
X185837000Y-34859000D01*
X185817000Y-34859000D01*
X185817000Y-35608250D01*
X185975750Y-35767000D01*
X186266309Y-35767000D01*
X186499698Y-35670327D01*
X186678327Y-35491699D01*
X186775000Y-35258310D01*
X186775000Y-35017750D01*
X186744257Y-34987007D01*
X186865139Y-35069602D01*
X187240000Y-35145513D01*
X188140000Y-35145513D01*
X188490196Y-35079619D01*
X188564509Y-35031800D01*
X188722000Y-35031800D01*
X188886805Y-34999018D01*
X188748219Y-35206427D01*
X188608828Y-35264022D01*
X187920439Y-35951211D01*
X187547426Y-36849526D01*
X187546577Y-37822207D01*
X187918022Y-38721172D01*
X188605211Y-39409561D01*
X189503526Y-39782574D01*
X190476207Y-39783423D01*
X191375172Y-39411978D01*
X192063561Y-38724789D01*
X192436574Y-37826474D01*
X192437423Y-36853793D01*
X192318013Y-36564799D01*
X192349001Y-36564799D01*
X193021682Y-36430994D01*
X193591953Y-36049951D01*
X193968745Y-35486043D01*
X194239000Y-35539800D01*
X194584200Y-35539800D01*
X194584200Y-38100000D01*
X194659335Y-38477728D01*
X194658577Y-39346207D01*
X195030022Y-40245172D01*
X195717211Y-40933561D01*
X196615526Y-41306574D01*
X197588207Y-41307423D01*
X198487172Y-40935978D01*
X198522000Y-40901211D01*
X198522000Y-70760000D01*
X179300037Y-70760000D01*
X179380000Y-70358000D01*
X179380000Y-68834000D01*
X179298399Y-68423763D01*
X179250182Y-68351601D01*
X179066018Y-68075981D01*
X178177549Y-67187513D01*
X178878000Y-67187513D01*
X179228196Y-67121619D01*
X179549830Y-66914654D01*
X179639839Y-66782921D01*
X179707346Y-66887830D01*
X180023139Y-67103602D01*
X180398000Y-67179513D01*
X181298000Y-67179513D01*
X181648196Y-67113619D01*
X181969830Y-66906654D01*
X181988867Y-66878792D01*
X182104425Y-66956005D01*
X182215763Y-67030399D01*
X182554662Y-67097810D01*
X182563139Y-67103602D01*
X182938000Y-67179513D01*
X183838000Y-67179513D01*
X184188196Y-67113619D01*
X184509830Y-66906654D01*
X184725602Y-66590861D01*
X184801513Y-66216000D01*
X184801513Y-65016000D01*
X184735619Y-64665804D01*
X184528654Y-64344170D01*
X184420107Y-64270003D01*
X184473000Y-64142309D01*
X184473000Y-63701750D01*
X184314250Y-63543000D01*
X183515000Y-63543000D01*
X183515000Y-63563000D01*
X183261000Y-63563000D01*
X183261000Y-63543000D01*
X183241000Y-63543000D01*
X183241000Y-63289000D01*
X183261000Y-63289000D01*
X183261000Y-62339750D01*
X183137250Y-62216000D01*
X183241000Y-62112250D01*
X183241000Y-61163000D01*
X183495000Y-61163000D01*
X183495000Y-62112250D01*
X183618750Y-62236000D01*
X183515000Y-62339750D01*
X183515000Y-63289000D01*
X184314250Y-63289000D01*
X184473000Y-63130250D01*
X184473000Y-62689691D01*
X184376327Y-62456302D01*
X184197699Y-62277673D01*
X184112949Y-62242569D01*
X184277699Y-62174327D01*
X184456327Y-61995698D01*
X184553000Y-61762309D01*
X184553000Y-61321750D01*
X184394250Y-61163000D01*
X183495000Y-61163000D01*
X183241000Y-61163000D01*
X183221000Y-61163000D01*
X183221000Y-60909000D01*
X183241000Y-60909000D01*
X183241000Y-60889000D01*
X183495000Y-60889000D01*
X183495000Y-60909000D01*
X184394250Y-60909000D01*
X184553000Y-60750250D01*
X184553000Y-60309691D01*
X184500890Y-60183885D01*
X184589830Y-60126654D01*
X184805602Y-59810861D01*
X184881513Y-59436000D01*
X184881513Y-58236000D01*
X184815619Y-57885804D01*
X184608654Y-57564170D01*
X184440000Y-57448934D01*
X184440000Y-57343067D01*
X184589830Y-57246654D01*
X184805602Y-56930861D01*
X184881513Y-56556000D01*
X184881513Y-55513800D01*
X185107896Y-55513800D01*
X186456200Y-56862104D01*
X186456200Y-58674000D01*
X186590005Y-59346681D01*
X186971048Y-59916952D01*
X188749048Y-61694953D01*
X189023352Y-61878236D01*
X189319319Y-62075995D01*
X189992000Y-62209800D01*
X190739796Y-62209800D01*
X190845346Y-62373830D01*
X191161139Y-62589602D01*
X191536000Y-62665513D01*
X194036000Y-62665513D01*
X194386196Y-62599619D01*
X194707830Y-62392654D01*
X194923602Y-62076861D01*
X194999513Y-61702000D01*
X194999513Y-59202000D01*
X194933619Y-58851804D01*
X194726654Y-58530170D01*
X194410861Y-58314398D01*
X194036000Y-58238487D01*
X191536000Y-58238487D01*
X191185804Y-58304381D01*
X190864170Y-58511346D01*
X190739231Y-58694200D01*
X190720105Y-58694200D01*
X189971800Y-57945896D01*
X189971800Y-56785320D01*
X191632285Y-56785320D01*
X191761533Y-57078123D01*
X192461806Y-57346388D01*
X193211435Y-57326250D01*
X193810467Y-57078123D01*
X193939715Y-56785320D01*
X192786000Y-55631605D01*
X191632285Y-56785320D01*
X189971800Y-56785320D01*
X189971800Y-56134000D01*
X189837995Y-55461319D01*
X189615149Y-55127806D01*
X190891612Y-55127806D01*
X190911750Y-55877435D01*
X191159877Y-56476467D01*
X191452680Y-56605715D01*
X192606395Y-55452000D01*
X192965605Y-55452000D01*
X194119320Y-56605715D01*
X194412123Y-56476467D01*
X194680388Y-55776194D01*
X194660250Y-55026565D01*
X194412123Y-54427533D01*
X194119320Y-54298285D01*
X192965605Y-55452000D01*
X192606395Y-55452000D01*
X191452680Y-54298285D01*
X191159877Y-54427533D01*
X190891612Y-55127806D01*
X189615149Y-55127806D01*
X189456952Y-54891048D01*
X188684584Y-54118680D01*
X191632285Y-54118680D01*
X192786000Y-55272395D01*
X193939715Y-54118680D01*
X193810467Y-53825877D01*
X193110194Y-53557612D01*
X192360565Y-53577750D01*
X191761533Y-53825877D01*
X191632285Y-54118680D01*
X188684584Y-54118680D01*
X187078952Y-52513048D01*
X186508681Y-52132005D01*
X185836000Y-51998200D01*
X185125800Y-51998200D01*
X185125800Y-51288000D01*
X184991995Y-50615319D01*
X184610952Y-50045048D01*
X184255132Y-49689228D01*
X184401602Y-49474861D01*
X184477513Y-49100000D01*
X184477513Y-46600000D01*
X184411619Y-46249804D01*
X184247015Y-45994000D01*
X190572487Y-45994000D01*
X190572487Y-48494000D01*
X190638381Y-48844196D01*
X190845346Y-49165830D01*
X191161139Y-49381602D01*
X191536000Y-49457513D01*
X194036000Y-49457513D01*
X194386196Y-49391619D01*
X194707830Y-49184654D01*
X194923602Y-48868861D01*
X194999513Y-48494000D01*
X194999513Y-45994000D01*
X194933619Y-45643804D01*
X194726654Y-45322170D01*
X194410861Y-45106398D01*
X194036000Y-45030487D01*
X191536000Y-45030487D01*
X191185804Y-45096381D01*
X190864170Y-45303346D01*
X190648398Y-45619139D01*
X190572487Y-45994000D01*
X184247015Y-45994000D01*
X184204654Y-45928170D01*
X183888861Y-45712398D01*
X183514000Y-45636487D01*
X180214000Y-45636487D01*
X179863804Y-45702381D01*
X179542170Y-45909346D01*
X179326398Y-46225139D01*
X179250487Y-46600000D01*
X179250487Y-49100000D01*
X179316381Y-49450196D01*
X179376489Y-49543607D01*
X178629048Y-50291048D01*
X178408538Y-50621064D01*
X178269286Y-50481568D01*
X177800766Y-50287021D01*
X177293460Y-50286579D01*
X176824601Y-50480307D01*
X176465568Y-50838714D01*
X176271021Y-51307234D01*
X176270579Y-51814540D01*
X176464307Y-52283399D01*
X176822714Y-52642432D01*
X176884678Y-52668162D01*
X178157326Y-53940810D01*
X178248005Y-54396681D01*
X178420832Y-54655335D01*
X178424381Y-54674196D01*
X178520352Y-54823340D01*
X178500770Y-54852000D01*
X175216000Y-54852000D01*
X174805764Y-54933600D01*
X174457982Y-55165981D01*
X173485982Y-56137982D01*
X173253601Y-56485763D01*
X173172000Y-56896000D01*
X173172000Y-59032423D01*
X172969691Y-58948417D01*
X172472490Y-58947984D01*
X172012970Y-59137853D01*
X171886602Y-59264001D01*
X171580164Y-59264001D01*
X171560219Y-59158004D01*
X171353254Y-58836370D01*
X171037461Y-58620598D01*
X170662600Y-58544687D01*
X169335779Y-58544687D01*
X169335830Y-58544654D01*
X169409997Y-58436107D01*
X169537691Y-58489000D01*
X169978250Y-58489000D01*
X170137000Y-58330250D01*
X170137000Y-57531000D01*
X170391000Y-57531000D01*
X170391000Y-58330250D01*
X170549750Y-58489000D01*
X170990309Y-58489000D01*
X171223698Y-58392327D01*
X171402327Y-58213699D01*
X171499000Y-57980310D01*
X171499000Y-57689750D01*
X171340250Y-57531000D01*
X170391000Y-57531000D01*
X170137000Y-57531000D01*
X170117000Y-57531000D01*
X170117000Y-57277000D01*
X170137000Y-57277000D01*
X170137000Y-56477750D01*
X170391000Y-56477750D01*
X170391000Y-57277000D01*
X171340250Y-57277000D01*
X171499000Y-57118250D01*
X171499000Y-56827690D01*
X171402327Y-56594301D01*
X171223698Y-56415673D01*
X170990309Y-56319000D01*
X170549750Y-56319000D01*
X170391000Y-56477750D01*
X170137000Y-56477750D01*
X169978250Y-56319000D01*
X169537691Y-56319000D01*
X169411885Y-56371110D01*
X169354654Y-56282170D01*
X169038861Y-56066398D01*
X168664000Y-55990487D01*
X167464000Y-55990487D01*
X167113804Y-56056381D01*
X166961788Y-56154200D01*
X166623801Y-56154200D01*
X166512861Y-56078398D01*
X166138000Y-56002487D01*
X165038000Y-56002487D01*
X164687804Y-56068381D01*
X164366170Y-56275346D01*
X164150398Y-56591139D01*
X164074487Y-56966000D01*
X164074487Y-58166000D01*
X164140381Y-58516196D01*
X164236352Y-58665340D01*
X164150398Y-58791139D01*
X164074487Y-59166000D01*
X164074487Y-60366000D01*
X164116727Y-60590487D01*
X164062000Y-60590487D01*
X163711804Y-60656381D01*
X163390170Y-60863346D01*
X163174398Y-61179139D01*
X163098487Y-61554000D01*
X163098487Y-62754000D01*
X163164381Y-63104196D01*
X163260352Y-63253340D01*
X163174398Y-63379139D01*
X163098487Y-63754000D01*
X163098487Y-64100029D01*
X162985670Y-64212846D01*
X162816000Y-64178487D01*
X161316000Y-64178487D01*
X160965804Y-64244381D01*
X160919659Y-64274075D01*
X160890861Y-64254398D01*
X160516000Y-64178487D01*
X159016000Y-64178487D01*
X158665804Y-64244381D01*
X158344170Y-64451346D01*
X158306143Y-64507000D01*
X157751750Y-64507000D01*
X157593000Y-64665750D01*
X157593000Y-66015000D01*
X157613000Y-66015000D01*
X157613000Y-66269000D01*
X157593000Y-66269000D01*
X157593000Y-66289000D01*
X157339000Y-66289000D01*
X157339000Y-66269000D01*
X156239750Y-66269000D01*
X156081000Y-66427750D01*
X156081000Y-66568200D01*
X155956000Y-66568200D01*
X155477722Y-66663335D01*
X155072258Y-66934258D01*
X154767453Y-67239063D01*
X154400755Y-67390579D01*
X154005966Y-67784680D01*
X153792044Y-68299861D01*
X153791560Y-68854200D01*
X152471800Y-68854200D01*
X152471800Y-68814000D01*
X152337995Y-68141319D01*
X152221672Y-67967229D01*
X152211619Y-67913804D01*
X152148581Y-67815840D01*
X152305830Y-67714654D01*
X152521602Y-67398861D01*
X152597513Y-67024000D01*
X152597513Y-66020776D01*
X152626381Y-66174196D01*
X152833346Y-66495830D01*
X153149139Y-66711602D01*
X153524000Y-66787513D01*
X155024000Y-66787513D01*
X155374196Y-66721619D01*
X155695830Y-66514654D01*
X155911602Y-66198861D01*
X155987513Y-65824000D01*
X155987513Y-65246645D01*
X156031800Y-65024000D01*
X156031800Y-65015691D01*
X156081000Y-65015691D01*
X156081000Y-65856250D01*
X156239750Y-66015000D01*
X157339000Y-66015000D01*
X157339000Y-64665750D01*
X157180250Y-64507000D01*
X156589690Y-64507000D01*
X156356301Y-64603673D01*
X156177673Y-64782302D01*
X156081000Y-65015691D01*
X156031800Y-65015691D01*
X156031800Y-58842000D01*
X156902487Y-58842000D01*
X156902487Y-60842000D01*
X156968381Y-61192196D01*
X157175346Y-61513830D01*
X157491139Y-61729602D01*
X157866000Y-61805513D01*
X161666000Y-61805513D01*
X162016196Y-61739619D01*
X162337830Y-61532654D01*
X162553602Y-61216861D01*
X162629513Y-60842000D01*
X162629513Y-58842000D01*
X162563619Y-58491804D01*
X162356654Y-58170170D01*
X162040861Y-57954398D01*
X161666000Y-57878487D01*
X157866000Y-57878487D01*
X157515804Y-57944381D01*
X157194170Y-58151346D01*
X156978398Y-58467139D01*
X156902487Y-58842000D01*
X156031800Y-58842000D01*
X156031800Y-58036104D01*
X159702487Y-54365417D01*
X159702487Y-54458000D01*
X159768381Y-54808196D01*
X159975346Y-55129830D01*
X160291139Y-55345602D01*
X160666000Y-55421513D01*
X164466000Y-55421513D01*
X164816196Y-55355619D01*
X165137830Y-55148654D01*
X165353602Y-54832861D01*
X165429513Y-54458000D01*
X165429513Y-53803166D01*
X166038681Y-53681995D01*
X166608952Y-53300952D01*
X167860104Y-52049800D01*
X169418000Y-52049800D01*
X170090681Y-51915995D01*
X170660952Y-51534952D01*
X171930952Y-50264952D01*
X172311995Y-49694681D01*
X172355720Y-49474861D01*
X172445800Y-49022000D01*
X172445800Y-49016075D01*
X172457690Y-49021000D01*
X173548250Y-49021000D01*
X173707000Y-48862250D01*
X173707000Y-46863000D01*
X173961000Y-46863000D01*
X173961000Y-48862250D01*
X174119750Y-49021000D01*
X175210310Y-49021000D01*
X175443699Y-48924327D01*
X175622327Y-48745698D01*
X175719000Y-48512309D01*
X175719000Y-47021750D01*
X175560250Y-46863000D01*
X173961000Y-46863000D01*
X173707000Y-46863000D01*
X173687000Y-46863000D01*
X173687000Y-46609000D01*
X173707000Y-46609000D01*
X173707000Y-46589000D01*
X173961000Y-46589000D01*
X173961000Y-46609000D01*
X175560250Y-46609000D01*
X175719000Y-46450250D01*
X175719000Y-45191800D01*
X179480000Y-45191800D01*
X180152681Y-45057995D01*
X180722952Y-44676952D01*
X181822584Y-43577320D01*
X191632285Y-43577320D01*
X191761533Y-43870123D01*
X192461806Y-44138388D01*
X193211435Y-44118250D01*
X193810467Y-43870123D01*
X193939715Y-43577320D01*
X192786000Y-42423605D01*
X191632285Y-43577320D01*
X181822584Y-43577320D01*
X182136391Y-43263513D01*
X183514000Y-43263513D01*
X183864196Y-43197619D01*
X184185830Y-42990654D01*
X184401602Y-42674861D01*
X184477513Y-42300000D01*
X184477513Y-41919806D01*
X190891612Y-41919806D01*
X190911750Y-42669435D01*
X191159877Y-43268467D01*
X191452680Y-43397715D01*
X192606395Y-42244000D01*
X192965605Y-42244000D01*
X194119320Y-43397715D01*
X194412123Y-43268467D01*
X194680388Y-42568194D01*
X194660250Y-41818565D01*
X194412123Y-41219533D01*
X194119320Y-41090285D01*
X192965605Y-42244000D01*
X192606395Y-42244000D01*
X191452680Y-41090285D01*
X191159877Y-41219533D01*
X190891612Y-41919806D01*
X184477513Y-41919806D01*
X184477513Y-40910680D01*
X191632285Y-40910680D01*
X192786000Y-42064395D01*
X193939715Y-40910680D01*
X193810467Y-40617877D01*
X193110194Y-40349612D01*
X192360565Y-40369750D01*
X191761533Y-40617877D01*
X191632285Y-40910680D01*
X184477513Y-40910680D01*
X184477513Y-39800000D01*
X184411619Y-39449804D01*
X184204654Y-39128170D01*
X183888861Y-38912398D01*
X183514000Y-38836487D01*
X180214000Y-38836487D01*
X179863804Y-38902381D01*
X179542170Y-39109346D01*
X179326398Y-39425139D01*
X179250487Y-39800000D01*
X179250487Y-41177609D01*
X178751896Y-41676200D01*
X169638104Y-41676200D01*
X169390952Y-41429048D01*
X168820681Y-41048005D01*
X168148000Y-40914200D01*
X166349800Y-40914200D01*
X166349800Y-39297513D01*
X169450000Y-39297513D01*
X169800196Y-39231619D01*
X170121830Y-39024654D01*
X170337602Y-38708861D01*
X170413513Y-38334000D01*
X170413513Y-37369750D01*
X172815000Y-37369750D01*
X172815000Y-38460310D01*
X172911673Y-38693699D01*
X173090302Y-38872327D01*
X173323691Y-38969000D01*
X175164250Y-38969000D01*
X175323000Y-38810250D01*
X175323000Y-37211000D01*
X175577000Y-37211000D01*
X175577000Y-38810250D01*
X175735750Y-38969000D01*
X177576309Y-38969000D01*
X177809698Y-38872327D01*
X177988327Y-38693699D01*
X178085000Y-38460310D01*
X178085000Y-37369750D01*
X177926250Y-37211000D01*
X175577000Y-37211000D01*
X175323000Y-37211000D01*
X172973750Y-37211000D01*
X172815000Y-37369750D01*
X170413513Y-37369750D01*
X170413513Y-35834000D01*
X170389747Y-35707690D01*
X172815000Y-35707690D01*
X172815000Y-36798250D01*
X172973750Y-36957000D01*
X175323000Y-36957000D01*
X175323000Y-35357750D01*
X175577000Y-35357750D01*
X175577000Y-36957000D01*
X177926250Y-36957000D01*
X178085000Y-36798250D01*
X178085000Y-35707690D01*
X177988327Y-35474301D01*
X177809698Y-35295673D01*
X177576309Y-35199000D01*
X175735750Y-35199000D01*
X175577000Y-35357750D01*
X175323000Y-35357750D01*
X175164250Y-35199000D01*
X173323691Y-35199000D01*
X173090302Y-35295673D01*
X172911673Y-35474301D01*
X172815000Y-35707690D01*
X170389747Y-35707690D01*
X170347619Y-35483804D01*
X170140654Y-35162170D01*
X169824861Y-34946398D01*
X169450000Y-34870487D01*
X165450000Y-34870487D01*
X165099804Y-34936381D01*
X164778170Y-35143346D01*
X164582960Y-35429046D01*
X164431673Y-35459139D01*
X164427319Y-35460005D01*
X163857047Y-35841048D01*
X163349048Y-36349048D01*
X163347400Y-36351514D01*
X163347400Y-36226750D01*
X163188650Y-36068000D01*
X157607000Y-36068000D01*
X157607000Y-36088000D01*
X157353000Y-36088000D01*
X157353000Y-36068000D01*
X151771350Y-36068000D01*
X151612600Y-36226750D01*
X151612600Y-39776064D01*
X150893546Y-39057010D01*
X150943830Y-39024654D01*
X151159602Y-38708861D01*
X151235513Y-38334000D01*
X151235513Y-35834000D01*
X151169619Y-35483804D01*
X150962654Y-35162170D01*
X150646861Y-34946398D01*
X150272000Y-34870487D01*
X146272000Y-34870487D01*
X145921804Y-34936381D01*
X145600170Y-35143346D01*
X145384398Y-35459139D01*
X145345556Y-35650945D01*
X145061048Y-35841047D01*
X142907000Y-37995095D01*
X142907000Y-37369750D01*
X142748250Y-37211000D01*
X140399000Y-37211000D01*
X140399000Y-38810250D01*
X140557750Y-38969000D01*
X141933096Y-38969000D01*
X140137048Y-40765048D01*
X139756005Y-41335319D01*
X139622200Y-42008000D01*
X139622200Y-44289796D01*
X139458170Y-44395346D01*
X139242398Y-44711139D01*
X139204517Y-44898200D01*
X132410759Y-44898200D01*
X132308991Y-44796254D01*
X131502528Y-44461381D01*
X130629303Y-44460619D01*
X129822257Y-44794084D01*
X129717959Y-44898200D01*
X128858000Y-44898200D01*
X128185319Y-45032005D01*
X127615048Y-45413048D01*
X125455000Y-47573096D01*
X125455000Y-41941750D01*
X129179000Y-41941750D01*
X129179000Y-43032309D01*
X129275673Y-43265698D01*
X129454301Y-43444327D01*
X129687690Y-43541000D01*
X130778250Y-43541000D01*
X130937000Y-43382250D01*
X130937000Y-41783000D01*
X131191000Y-41783000D01*
X131191000Y-43382250D01*
X131349750Y-43541000D01*
X132440310Y-43541000D01*
X132673699Y-43444327D01*
X132852327Y-43265698D01*
X132949000Y-43032309D01*
X132949000Y-41941750D01*
X132790250Y-41783000D01*
X131191000Y-41783000D01*
X130937000Y-41783000D01*
X129337750Y-41783000D01*
X129179000Y-41941750D01*
X125455000Y-41941750D01*
X125455000Y-40279691D01*
X129179000Y-40279691D01*
X129179000Y-41370250D01*
X129337750Y-41529000D01*
X130937000Y-41529000D01*
X130937000Y-39929750D01*
X131191000Y-39929750D01*
X131191000Y-41529000D01*
X132790250Y-41529000D01*
X132949000Y-41370250D01*
X132949000Y-40279691D01*
X132852327Y-40046302D01*
X132673699Y-39867673D01*
X132440310Y-39771000D01*
X131349750Y-39771000D01*
X131191000Y-39929750D01*
X130937000Y-39929750D01*
X130778250Y-39771000D01*
X129687690Y-39771000D01*
X129454301Y-39867673D01*
X129275673Y-40046302D01*
X129179000Y-40279691D01*
X125455000Y-40279691D01*
X125455000Y-37369750D01*
X137637000Y-37369750D01*
X137637000Y-38460310D01*
X137733673Y-38693699D01*
X137912302Y-38872327D01*
X138145691Y-38969000D01*
X139986250Y-38969000D01*
X140145000Y-38810250D01*
X140145000Y-37211000D01*
X137795750Y-37211000D01*
X137637000Y-37369750D01*
X125455000Y-37369750D01*
X125455000Y-35707690D01*
X137637000Y-35707690D01*
X137637000Y-36798250D01*
X137795750Y-36957000D01*
X140145000Y-36957000D01*
X140145000Y-35357750D01*
X140399000Y-35357750D01*
X140399000Y-36957000D01*
X142748250Y-36957000D01*
X142907000Y-36798250D01*
X142907000Y-35707690D01*
X142810327Y-35474301D01*
X142631698Y-35295673D01*
X142398309Y-35199000D01*
X140557750Y-35199000D01*
X140399000Y-35357750D01*
X140145000Y-35357750D01*
X139986250Y-35199000D01*
X138145691Y-35199000D01*
X137912302Y-35295673D01*
X137733673Y-35474301D01*
X137637000Y-35707690D01*
X125455000Y-35707690D01*
X125455000Y-30379090D01*
X151612600Y-30379090D01*
X151612600Y-35655250D01*
X151771350Y-35814000D01*
X157353000Y-35814000D01*
X157353000Y-35669718D01*
X157369580Y-35674954D01*
X157607000Y-35654293D01*
X157607000Y-35814000D01*
X163188650Y-35814000D01*
X163347400Y-35655250D01*
X163347400Y-30379090D01*
X163250727Y-30145701D01*
X163072098Y-29967073D01*
X162838709Y-29870400D01*
X157765750Y-29870400D01*
X157607000Y-30029150D01*
X157607000Y-31132282D01*
X157590420Y-31127046D01*
X157353000Y-31147707D01*
X157353000Y-30029150D01*
X157194250Y-29870400D01*
X152121291Y-29870400D01*
X151887902Y-29967073D01*
X151709273Y-30145701D01*
X151612600Y-30379090D01*
X125455000Y-30379090D01*
X125455000Y-29570000D01*
X187653909Y-29570000D01*
X187650398Y-29575139D01*
G36*
X157607000Y-34590110D02*
X157607000Y-34751890D01*
X157494143Y-34864748D01*
X157480000Y-34850605D01*
X157465858Y-34864748D01*
X157353000Y-34751890D01*
X157353000Y-34590110D01*
X157465858Y-34477253D01*
X157480000Y-34491395D01*
X157494143Y-34477253D01*
X157607000Y-34590110D01*
X157607000Y-34590110D01*
G37*
X157607000Y-34590110D02*
X157607000Y-34751890D01*
X157494143Y-34864748D01*
X157480000Y-34850605D01*
X157465858Y-34864748D01*
X157353000Y-34751890D01*
X157353000Y-34590110D01*
X157465858Y-34477253D01*
X157480000Y-34491395D01*
X157494143Y-34477253D01*
X157607000Y-34590110D01*
G36*
X157607000Y-32050110D02*
X157607000Y-32211890D01*
X157494143Y-32324748D01*
X157480000Y-32310605D01*
X157465858Y-32324748D01*
X157353000Y-32211890D01*
X157353000Y-32050110D01*
X157465858Y-31937253D01*
X157480000Y-31951395D01*
X157494143Y-31937253D01*
X157607000Y-32050110D01*
X157607000Y-32050110D01*
G37*
X157607000Y-32050110D02*
X157607000Y-32211890D01*
X157494143Y-32324748D01*
X157480000Y-32310605D01*
X157465858Y-32324748D01*
X157353000Y-32211890D01*
X157353000Y-32050110D01*
X157465858Y-31937253D01*
X157480000Y-31951395D01*
X157494143Y-31937253D01*
X157607000Y-32050110D01*
G36*
X174117000Y-69215000D02*
X174137000Y-69215000D01*
X174137000Y-69469000D01*
X174117000Y-69469000D01*
X174117000Y-69489000D01*
X173863000Y-69489000D01*
X173863000Y-69469000D01*
X173843000Y-69469000D01*
X173843000Y-69215000D01*
X173863000Y-69215000D01*
X173863000Y-69195000D01*
X174117000Y-69195000D01*
X174117000Y-69215000D01*
X174117000Y-69215000D01*
G37*
X174117000Y-69215000D02*
X174137000Y-69215000D01*
X174137000Y-69469000D01*
X174117000Y-69469000D01*
X174117000Y-69489000D01*
X173863000Y-69489000D01*
X173863000Y-69469000D01*
X173843000Y-69469000D01*
X173843000Y-69215000D01*
X173863000Y-69215000D01*
X173863000Y-69195000D01*
X174117000Y-69195000D01*
X174117000Y-69215000D01*
G36*
X142861722Y-66770665D02*
X143084462Y-66814971D01*
X143108670Y-66852590D01*
X143022417Y-67060309D01*
X143021984Y-67557510D01*
X143051523Y-67629000D01*
X142961691Y-67629000D01*
X142728302Y-67725673D01*
X142549673Y-67904301D01*
X142453000Y-68137690D01*
X142453000Y-68528250D01*
X142611750Y-68687000D01*
X143561000Y-68687000D01*
X143561000Y-68667000D01*
X143815000Y-68667000D01*
X143815000Y-68687000D01*
X143835000Y-68687000D01*
X143835000Y-68854200D01*
X137546183Y-68854200D01*
X137546443Y-68556309D01*
X137393800Y-68186884D01*
X137393800Y-68171913D01*
X137613393Y-68171913D01*
X137611000Y-68177690D01*
X137611000Y-68568250D01*
X137769750Y-68727000D01*
X138719000Y-68727000D01*
X138719000Y-68707000D01*
X138973000Y-68707000D01*
X138973000Y-68727000D01*
X139922250Y-68727000D01*
X139946000Y-68703250D01*
X139969750Y-68727000D01*
X140919000Y-68727000D01*
X140919000Y-68707000D01*
X141173000Y-68707000D01*
X141173000Y-68727000D01*
X142122250Y-68727000D01*
X142281000Y-68568250D01*
X142281000Y-68177690D01*
X142184327Y-67944301D01*
X142005698Y-67765673D01*
X141772309Y-67669000D01*
X141652467Y-67669000D01*
X141796432Y-67525286D01*
X141941028Y-67177062D01*
X142278196Y-67113619D01*
X142599830Y-66906654D01*
X142745712Y-66693149D01*
X142861722Y-66770665D01*
X142861722Y-66770665D01*
G37*
X142861722Y-66770665D02*
X143084462Y-66814971D01*
X143108670Y-66852590D01*
X143022417Y-67060309D01*
X143021984Y-67557510D01*
X143051523Y-67629000D01*
X142961691Y-67629000D01*
X142728302Y-67725673D01*
X142549673Y-67904301D01*
X142453000Y-68137690D01*
X142453000Y-68528250D01*
X142611750Y-68687000D01*
X143561000Y-68687000D01*
X143561000Y-68667000D01*
X143815000Y-68667000D01*
X143815000Y-68687000D01*
X143835000Y-68687000D01*
X143835000Y-68854200D01*
X137546183Y-68854200D01*
X137546443Y-68556309D01*
X137393800Y-68186884D01*
X137393800Y-68171913D01*
X137613393Y-68171913D01*
X137611000Y-68177690D01*
X137611000Y-68568250D01*
X137769750Y-68727000D01*
X138719000Y-68727000D01*
X138719000Y-68707000D01*
X138973000Y-68707000D01*
X138973000Y-68727000D01*
X139922250Y-68727000D01*
X139946000Y-68703250D01*
X139969750Y-68727000D01*
X140919000Y-68727000D01*
X140919000Y-68707000D01*
X141173000Y-68707000D01*
X141173000Y-68727000D01*
X142122250Y-68727000D01*
X142281000Y-68568250D01*
X142281000Y-68177690D01*
X142184327Y-67944301D01*
X142005698Y-67765673D01*
X141772309Y-67669000D01*
X141652467Y-67669000D01*
X141796432Y-67525286D01*
X141941028Y-67177062D01*
X142278196Y-67113619D01*
X142599830Y-66906654D01*
X142745712Y-66693149D01*
X142861722Y-66770665D01*
G36*
X134894200Y-68187429D02*
X134742044Y-68553861D01*
X134741782Y-68854200D01*
X133989961Y-68854200D01*
X133990443Y-68302309D01*
X133800826Y-67843400D01*
X134289109Y-67843400D01*
X134522498Y-67746727D01*
X134701127Y-67568099D01*
X134797800Y-67334710D01*
X134797800Y-67214750D01*
X134639050Y-67056000D01*
X133299200Y-67056000D01*
X133299200Y-67076000D01*
X133045200Y-67076000D01*
X133045200Y-67056000D01*
X131705350Y-67056000D01*
X131609093Y-67152257D01*
X131516327Y-66928301D01*
X131395246Y-66807221D01*
X131473830Y-66756654D01*
X131549401Y-66646051D01*
X131705350Y-66802000D01*
X133045200Y-66802000D01*
X133045200Y-65786000D01*
X133299200Y-65786000D01*
X133299200Y-66802000D01*
X134639050Y-66802000D01*
X134797800Y-66643250D01*
X134797800Y-66523290D01*
X134702825Y-66294000D01*
X134797800Y-66064710D01*
X134797800Y-65944750D01*
X134639050Y-65786000D01*
X133299200Y-65786000D01*
X133045200Y-65786000D01*
X133025200Y-65786000D01*
X133025200Y-65638800D01*
X134493000Y-65638800D01*
X134894200Y-65558997D01*
X134894200Y-68187429D01*
X134894200Y-68187429D01*
G37*
X134894200Y-68187429D02*
X134742044Y-68553861D01*
X134741782Y-68854200D01*
X133989961Y-68854200D01*
X133990443Y-68302309D01*
X133800826Y-67843400D01*
X134289109Y-67843400D01*
X134522498Y-67746727D01*
X134701127Y-67568099D01*
X134797800Y-67334710D01*
X134797800Y-67214750D01*
X134639050Y-67056000D01*
X133299200Y-67056000D01*
X133299200Y-67076000D01*
X133045200Y-67076000D01*
X133045200Y-67056000D01*
X131705350Y-67056000D01*
X131609093Y-67152257D01*
X131516327Y-66928301D01*
X131395246Y-66807221D01*
X131473830Y-66756654D01*
X131549401Y-66646051D01*
X131705350Y-66802000D01*
X133045200Y-66802000D01*
X133045200Y-65786000D01*
X133299200Y-65786000D01*
X133299200Y-66802000D01*
X134639050Y-66802000D01*
X134797800Y-66643250D01*
X134797800Y-66523290D01*
X134702825Y-66294000D01*
X134797800Y-66064710D01*
X134797800Y-65944750D01*
X134639050Y-65786000D01*
X133299200Y-65786000D01*
X133045200Y-65786000D01*
X133025200Y-65786000D01*
X133025200Y-65638800D01*
X134493000Y-65638800D01*
X134894200Y-65558997D01*
X134894200Y-68187429D01*
G36*
X130505000Y-67711000D02*
X130525000Y-67711000D01*
X130525000Y-67838200D01*
X130231000Y-67838200D01*
X130231000Y-67711000D01*
X130251000Y-67711000D01*
X130251000Y-67691000D01*
X130505000Y-67691000D01*
X130505000Y-67711000D01*
X130505000Y-67711000D01*
G37*
X130505000Y-67711000D02*
X130525000Y-67711000D01*
X130525000Y-67838200D01*
X130231000Y-67838200D01*
X130231000Y-67711000D01*
X130251000Y-67711000D01*
X130251000Y-67691000D01*
X130505000Y-67691000D01*
X130505000Y-67711000D01*
G36*
X149118022Y-61657172D02*
X149780952Y-62321260D01*
X149762170Y-62333346D01*
X149546398Y-62649139D01*
X149517907Y-62789832D01*
X149410005Y-62951319D01*
X149276200Y-63624000D01*
X149410005Y-64296681D01*
X149513232Y-64451172D01*
X149536381Y-64574196D01*
X149743346Y-64895830D01*
X149931497Y-65024388D01*
X149762170Y-65133346D01*
X149734256Y-65174200D01*
X149730000Y-65174200D01*
X149251722Y-65269335D01*
X148846258Y-65540258D01*
X148671453Y-65715063D01*
X148413073Y-65821823D01*
X148326250Y-65735000D01*
X147427000Y-65735000D01*
X147427000Y-66684250D01*
X147585750Y-66843000D01*
X147695985Y-66843000D01*
X147695557Y-67333691D01*
X147698585Y-67341020D01*
X147563804Y-67366381D01*
X147242170Y-67573346D01*
X147203221Y-67630349D01*
X147178654Y-67592170D01*
X146862861Y-67376398D01*
X146488000Y-67300487D01*
X145778523Y-67300487D01*
X145508982Y-67030946D01*
X145433585Y-66848470D01*
X145609602Y-66590861D01*
X145685513Y-66216000D01*
X145685513Y-65893750D01*
X146115000Y-65893750D01*
X146115000Y-66334309D01*
X146211673Y-66567698D01*
X146390301Y-66746327D01*
X146623690Y-66843000D01*
X147014250Y-66843000D01*
X147173000Y-66684250D01*
X147173000Y-65735000D01*
X146273750Y-65735000D01*
X146115000Y-65893750D01*
X145685513Y-65893750D01*
X145685513Y-65016000D01*
X145619619Y-64665804D01*
X145619616Y-64665800D01*
X146050318Y-64665800D01*
X146059346Y-64679830D01*
X146167893Y-64753997D01*
X146115000Y-64881691D01*
X146115000Y-65322250D01*
X146273750Y-65481000D01*
X147173000Y-65481000D01*
X147173000Y-65461000D01*
X147427000Y-65461000D01*
X147427000Y-65481000D01*
X148326250Y-65481000D01*
X148485000Y-65322250D01*
X148485000Y-64881691D01*
X148432890Y-64755885D01*
X148521830Y-64698654D01*
X148737602Y-64382861D01*
X148813513Y-64008000D01*
X148813513Y-62808000D01*
X148747619Y-62457804D01*
X148540654Y-62136170D01*
X148224861Y-61920398D01*
X147850000Y-61844487D01*
X147198094Y-61844487D01*
X147198443Y-61444309D01*
X147117129Y-61247513D01*
X148084000Y-61247513D01*
X148434196Y-61181619D01*
X148651482Y-61041800D01*
X148863755Y-61041800D01*
X149118022Y-61657172D01*
X149118022Y-61657172D01*
G37*
X149118022Y-61657172D02*
X149780952Y-62321260D01*
X149762170Y-62333346D01*
X149546398Y-62649139D01*
X149517907Y-62789832D01*
X149410005Y-62951319D01*
X149276200Y-63624000D01*
X149410005Y-64296681D01*
X149513232Y-64451172D01*
X149536381Y-64574196D01*
X149743346Y-64895830D01*
X149931497Y-65024388D01*
X149762170Y-65133346D01*
X149734256Y-65174200D01*
X149730000Y-65174200D01*
X149251722Y-65269335D01*
X148846258Y-65540258D01*
X148671453Y-65715063D01*
X148413073Y-65821823D01*
X148326250Y-65735000D01*
X147427000Y-65735000D01*
X147427000Y-66684250D01*
X147585750Y-66843000D01*
X147695985Y-66843000D01*
X147695557Y-67333691D01*
X147698585Y-67341020D01*
X147563804Y-67366381D01*
X147242170Y-67573346D01*
X147203221Y-67630349D01*
X147178654Y-67592170D01*
X146862861Y-67376398D01*
X146488000Y-67300487D01*
X145778523Y-67300487D01*
X145508982Y-67030946D01*
X145433585Y-66848470D01*
X145609602Y-66590861D01*
X145685513Y-66216000D01*
X145685513Y-65893750D01*
X146115000Y-65893750D01*
X146115000Y-66334309D01*
X146211673Y-66567698D01*
X146390301Y-66746327D01*
X146623690Y-66843000D01*
X147014250Y-66843000D01*
X147173000Y-66684250D01*
X147173000Y-65735000D01*
X146273750Y-65735000D01*
X146115000Y-65893750D01*
X145685513Y-65893750D01*
X145685513Y-65016000D01*
X145619619Y-64665804D01*
X145619616Y-64665800D01*
X146050318Y-64665800D01*
X146059346Y-64679830D01*
X146167893Y-64753997D01*
X146115000Y-64881691D01*
X146115000Y-65322250D01*
X146273750Y-65481000D01*
X147173000Y-65481000D01*
X147173000Y-65461000D01*
X147427000Y-65461000D01*
X147427000Y-65481000D01*
X148326250Y-65481000D01*
X148485000Y-65322250D01*
X148485000Y-64881691D01*
X148432890Y-64755885D01*
X148521830Y-64698654D01*
X148737602Y-64382861D01*
X148813513Y-64008000D01*
X148813513Y-62808000D01*
X148747619Y-62457804D01*
X148540654Y-62136170D01*
X148224861Y-61920398D01*
X147850000Y-61844487D01*
X147198094Y-61844487D01*
X147198443Y-61444309D01*
X147117129Y-61247513D01*
X148084000Y-61247513D01*
X148434196Y-61181619D01*
X148651482Y-61041800D01*
X148863755Y-61041800D01*
X149118022Y-61657172D01*
G36*
X138099800Y-65638800D02*
X138246800Y-65638800D01*
X138246800Y-65679200D01*
X138099800Y-65679200D01*
X138065177Y-65686087D01*
X137952800Y-65686087D01*
X137952800Y-65631913D01*
X138065177Y-65631913D01*
X138099800Y-65638800D01*
X138099800Y-65638800D01*
G37*
X138099800Y-65638800D02*
X138246800Y-65638800D01*
X138246800Y-65679200D01*
X138099800Y-65679200D01*
X138065177Y-65686087D01*
X137952800Y-65686087D01*
X137952800Y-65631913D01*
X138065177Y-65631913D01*
X138099800Y-65638800D01*
G36*
X167787000Y-62423000D02*
X167767000Y-62423000D01*
X167767000Y-62443000D01*
X167513000Y-62443000D01*
X167513000Y-62423000D01*
X166663750Y-62423000D01*
X166505000Y-62581750D01*
X166505000Y-62881647D01*
X166468170Y-62905346D01*
X166252398Y-63221139D01*
X166176487Y-63596000D01*
X166176487Y-64206000D01*
X166125513Y-64206000D01*
X166125513Y-63754000D01*
X166059619Y-63403804D01*
X165963648Y-63254660D01*
X166049602Y-63128861D01*
X166125513Y-62754000D01*
X166125513Y-62466523D01*
X166306037Y-62286000D01*
X167787000Y-62286000D01*
X167787000Y-62423000D01*
X167787000Y-62423000D01*
G37*
X167787000Y-62423000D02*
X167767000Y-62423000D01*
X167767000Y-62443000D01*
X167513000Y-62443000D01*
X167513000Y-62423000D01*
X166663750Y-62423000D01*
X166505000Y-62581750D01*
X166505000Y-62881647D01*
X166468170Y-62905346D01*
X166252398Y-63221139D01*
X166176487Y-63596000D01*
X166176487Y-64206000D01*
X166125513Y-64206000D01*
X166125513Y-63754000D01*
X166059619Y-63403804D01*
X165963648Y-63254660D01*
X166049602Y-63128861D01*
X166125513Y-62754000D01*
X166125513Y-62466523D01*
X166306037Y-62286000D01*
X167787000Y-62286000D01*
X167787000Y-62423000D01*
G36*
X180975000Y-63289000D02*
X180995000Y-63289000D01*
X180995000Y-63543000D01*
X180975000Y-63543000D01*
X180975000Y-63563000D01*
X180721000Y-63563000D01*
X180721000Y-63543000D01*
X180701000Y-63543000D01*
X180701000Y-63289000D01*
X180721000Y-63289000D01*
X180721000Y-63269000D01*
X180975000Y-63269000D01*
X180975000Y-63289000D01*
X180975000Y-63289000D01*
G37*
X180975000Y-63289000D02*
X180995000Y-63289000D01*
X180995000Y-63543000D01*
X180975000Y-63543000D01*
X180975000Y-63563000D01*
X180721000Y-63563000D01*
X180721000Y-63543000D01*
X180701000Y-63543000D01*
X180701000Y-63289000D01*
X180721000Y-63289000D01*
X180721000Y-63269000D01*
X180975000Y-63269000D01*
X180975000Y-63289000D01*
G36*
X146996032Y-39468818D02*
X147172732Y-39733268D01*
X150862732Y-43423268D01*
X151367080Y-43760263D01*
X151962000Y-43878600D01*
X152521800Y-43878600D01*
X152521800Y-44221400D01*
X152604887Y-44639106D01*
X152604887Y-45567600D01*
X152670781Y-45917796D01*
X152877746Y-46239430D01*
X152998297Y-46321799D01*
X151290048Y-48030048D01*
X150909005Y-48600319D01*
X150890274Y-48694487D01*
X150633000Y-48694487D01*
X150282804Y-48760381D01*
X149961170Y-48967346D01*
X149745398Y-49283139D01*
X149669487Y-49658000D01*
X149669487Y-54458000D01*
X149735381Y-54808196D01*
X149942346Y-55129830D01*
X150258139Y-55345602D01*
X150633000Y-55421513D01*
X153674583Y-55421513D01*
X152909048Y-56187048D01*
X152528005Y-56757319D01*
X152394200Y-57430000D01*
X152516200Y-58043333D01*
X152516200Y-58176450D01*
X151680474Y-57829426D01*
X151127515Y-57828943D01*
X150874681Y-57660005D01*
X150202000Y-57526200D01*
X148648833Y-57526200D01*
X148458861Y-57396398D01*
X148084000Y-57320487D01*
X146584000Y-57320487D01*
X146233804Y-57386381D01*
X146187659Y-57416075D01*
X146158861Y-57396398D01*
X145784000Y-57320487D01*
X144284000Y-57320487D01*
X143933804Y-57386381D01*
X143612170Y-57593346D01*
X143574143Y-57649000D01*
X143019750Y-57649000D01*
X142861000Y-57807750D01*
X142861000Y-59157000D01*
X142881000Y-59157000D01*
X142881000Y-59411000D01*
X142861000Y-59411000D01*
X142861000Y-60760250D01*
X143019750Y-60919000D01*
X143569647Y-60919000D01*
X143593346Y-60955830D01*
X143813259Y-61106090D01*
X143879335Y-61438278D01*
X144150258Y-61843742D01*
X144159003Y-61852487D01*
X143822000Y-61852487D01*
X143471804Y-61918381D01*
X143150170Y-62125346D01*
X142934398Y-62441139D01*
X142875606Y-62731463D01*
X142825619Y-62465804D01*
X142727800Y-62313788D01*
X142727800Y-61722000D01*
X142632665Y-61243722D01*
X142415692Y-60919000D01*
X142448250Y-60919000D01*
X142607000Y-60760250D01*
X142607000Y-59411000D01*
X141507750Y-59411000D01*
X141349000Y-59569750D01*
X141349000Y-59915354D01*
X141214278Y-59825335D01*
X140786387Y-59740223D01*
X140496861Y-59542398D01*
X140122000Y-59466487D01*
X138922000Y-59466487D01*
X138571804Y-59532381D01*
X138571800Y-59532384D01*
X138571800Y-58157691D01*
X141349000Y-58157691D01*
X141349000Y-58998250D01*
X141507750Y-59157000D01*
X142607000Y-59157000D01*
X142607000Y-57807750D01*
X142448250Y-57649000D01*
X141857690Y-57649000D01*
X141624301Y-57745673D01*
X141445673Y-57924302D01*
X141349000Y-58157691D01*
X138571800Y-58157691D01*
X138571800Y-57572726D01*
X138661673Y-57789698D01*
X138840301Y-57968327D01*
X139073690Y-58065000D01*
X139414250Y-58065000D01*
X139573000Y-57906250D01*
X139573000Y-56957000D01*
X139827000Y-56957000D01*
X139827000Y-57906250D01*
X139985750Y-58065000D01*
X140326310Y-58065000D01*
X140559699Y-57968327D01*
X140738327Y-57789698D01*
X140835000Y-57556309D01*
X140835000Y-57115750D01*
X140676250Y-56957000D01*
X139827000Y-56957000D01*
X139573000Y-56957000D01*
X139553000Y-56957000D01*
X139553000Y-56703000D01*
X139573000Y-56703000D01*
X139573000Y-56683000D01*
X139827000Y-56683000D01*
X139827000Y-56703000D01*
X140676250Y-56703000D01*
X140835000Y-56544250D01*
X140835000Y-56244353D01*
X140871830Y-56220654D01*
X141087602Y-55904861D01*
X141163513Y-55530000D01*
X141163513Y-54330000D01*
X141097619Y-53979804D01*
X140890654Y-53658170D01*
X140787800Y-53587893D01*
X140787800Y-53558830D01*
X140809830Y-53544654D01*
X141025602Y-53228861D01*
X141101513Y-52854000D01*
X141101513Y-51984000D01*
X142170487Y-51984000D01*
X142170487Y-53984000D01*
X142236381Y-54334196D01*
X142443346Y-54655830D01*
X142759139Y-54871602D01*
X143134000Y-54947513D01*
X146934000Y-54947513D01*
X147284196Y-54881619D01*
X147605830Y-54674654D01*
X147821602Y-54358861D01*
X147897513Y-53984000D01*
X147897513Y-51984000D01*
X147831619Y-51633804D01*
X147624654Y-51312170D01*
X147308861Y-51096398D01*
X146934000Y-51020487D01*
X143134000Y-51020487D01*
X142783804Y-51086381D01*
X142462170Y-51293346D01*
X142246398Y-51609139D01*
X142170487Y-51984000D01*
X141101513Y-51984000D01*
X141101513Y-51754000D01*
X141035619Y-51403804D01*
X140828654Y-51082170D01*
X140512861Y-50866398D01*
X140138000Y-50790487D01*
X138938000Y-50790487D01*
X138587804Y-50856381D01*
X138438660Y-50952352D01*
X138312861Y-50866398D01*
X137938000Y-50790487D01*
X136738000Y-50790487D01*
X136387804Y-50856381D01*
X136080383Y-51054200D01*
X132080145Y-51054200D01*
X131942861Y-50960398D01*
X131568000Y-50884487D01*
X130368000Y-50884487D01*
X130017804Y-50950381D01*
X129696170Y-51157346D01*
X129480398Y-51473139D01*
X129404487Y-51848000D01*
X129404487Y-53048000D01*
X129470381Y-53398196D01*
X129677346Y-53719830D01*
X129993139Y-53935602D01*
X130368000Y-54011513D01*
X131568000Y-54011513D01*
X131918196Y-53945619D01*
X132239830Y-53738654D01*
X132366135Y-53553800D01*
X132494487Y-53553800D01*
X132494487Y-54648000D01*
X132560381Y-54998196D01*
X132767346Y-55319830D01*
X133083139Y-55535602D01*
X133458000Y-55611513D01*
X134204029Y-55611513D01*
X134492716Y-55900200D01*
X132203000Y-55900200D01*
X132203000Y-55533750D01*
X132044250Y-55375000D01*
X131095000Y-55375000D01*
X131095000Y-55395000D01*
X130841000Y-55395000D01*
X130841000Y-55375000D01*
X129891750Y-55375000D01*
X129733000Y-55533750D01*
X129733000Y-55974309D01*
X129829673Y-56207698D01*
X130008301Y-56386327D01*
X130241690Y-56483000D01*
X130312128Y-56483000D01*
X130017804Y-56538381D01*
X129696170Y-56745346D01*
X129480398Y-57061139D01*
X129404487Y-57436000D01*
X129404487Y-58636000D01*
X129470381Y-58986196D01*
X129677346Y-59307830D01*
X129993139Y-59523602D01*
X130368000Y-59599513D01*
X131568000Y-59599513D01*
X131918196Y-59533619D01*
X131929244Y-59526510D01*
X131897671Y-59685235D01*
X131694310Y-59601000D01*
X131253750Y-59601000D01*
X131095000Y-59759750D01*
X131095000Y-60709000D01*
X131115000Y-60709000D01*
X131115000Y-60963000D01*
X131095000Y-60963000D01*
X131095000Y-60983000D01*
X130841000Y-60983000D01*
X130841000Y-60963000D01*
X129891750Y-60963000D01*
X129733000Y-61121750D01*
X129733000Y-61562309D01*
X129829673Y-61795698D01*
X130008301Y-61974327D01*
X130076285Y-62002487D01*
X129802000Y-62002487D01*
X129451804Y-62068381D01*
X129299788Y-62166200D01*
X129170830Y-62166200D01*
X129156654Y-62144170D01*
X128840861Y-61928398D01*
X128466000Y-61852487D01*
X127566000Y-61852487D01*
X127487800Y-61867201D01*
X127487800Y-60109691D01*
X129733000Y-60109691D01*
X129733000Y-60550250D01*
X129891750Y-60709000D01*
X130841000Y-60709000D01*
X130841000Y-59759750D01*
X130682250Y-59601000D01*
X130241690Y-59601000D01*
X130008301Y-59697673D01*
X129829673Y-59876302D01*
X129733000Y-60109691D01*
X127487800Y-60109691D01*
X127487800Y-54521691D01*
X129733000Y-54521691D01*
X129733000Y-54962250D01*
X129891750Y-55121000D01*
X130841000Y-55121000D01*
X130841000Y-54171750D01*
X131095000Y-54171750D01*
X131095000Y-55121000D01*
X132044250Y-55121000D01*
X132203000Y-54962250D01*
X132203000Y-54521691D01*
X132106327Y-54288302D01*
X131927699Y-54109673D01*
X131694310Y-54013000D01*
X131253750Y-54013000D01*
X131095000Y-54171750D01*
X130841000Y-54171750D01*
X130682250Y-54013000D01*
X130241690Y-54013000D01*
X130008301Y-54109673D01*
X129829673Y-54288302D01*
X129733000Y-54521691D01*
X127487800Y-54521691D01*
X127487800Y-50512104D01*
X129586104Y-48413800D01*
X129717241Y-48413800D01*
X129819009Y-48515746D01*
X130625472Y-48850619D01*
X131498697Y-48851381D01*
X132305743Y-48517916D01*
X132410041Y-48413800D01*
X139171718Y-48413800D01*
X139232381Y-48736196D01*
X139439346Y-49057830D01*
X139755139Y-49273602D01*
X140130000Y-49349513D01*
X142630000Y-49349513D01*
X142980196Y-49283619D01*
X143301830Y-49076654D01*
X143517602Y-48760861D01*
X143593513Y-48386000D01*
X143593513Y-47021750D01*
X146295000Y-47021750D01*
X146295000Y-48512309D01*
X146391673Y-48745698D01*
X146570301Y-48924327D01*
X146803690Y-49021000D01*
X147894250Y-49021000D01*
X148053000Y-48862250D01*
X148053000Y-46863000D01*
X148307000Y-46863000D01*
X148307000Y-48862250D01*
X148465750Y-49021000D01*
X149556310Y-49021000D01*
X149789699Y-48924327D01*
X149968327Y-48745698D01*
X150065000Y-48512309D01*
X150065000Y-47021750D01*
X149906250Y-46863000D01*
X148307000Y-46863000D01*
X148053000Y-46863000D01*
X146453750Y-46863000D01*
X146295000Y-47021750D01*
X143593513Y-47021750D01*
X143593513Y-45086000D01*
X143569747Y-44959691D01*
X146295000Y-44959691D01*
X146295000Y-46450250D01*
X146453750Y-46609000D01*
X148053000Y-46609000D01*
X148053000Y-44609750D01*
X148307000Y-44609750D01*
X148307000Y-46609000D01*
X149906250Y-46609000D01*
X150065000Y-46450250D01*
X150065000Y-44959691D01*
X149968327Y-44726302D01*
X149789699Y-44547673D01*
X149556310Y-44451000D01*
X148465750Y-44451000D01*
X148307000Y-44609750D01*
X148053000Y-44609750D01*
X147894250Y-44451000D01*
X146803690Y-44451000D01*
X146570301Y-44547673D01*
X146391673Y-44726302D01*
X146295000Y-44959691D01*
X143569747Y-44959691D01*
X143527619Y-44735804D01*
X143320654Y-44414170D01*
X143137800Y-44289231D01*
X143137800Y-42736104D01*
X146576392Y-39297513D01*
X146881569Y-39297513D01*
X146996032Y-39468818D01*
X146996032Y-39468818D01*
G37*
X146996032Y-39468818D02*
X147172732Y-39733268D01*
X150862732Y-43423268D01*
X151367080Y-43760263D01*
X151962000Y-43878600D01*
X152521800Y-43878600D01*
X152521800Y-44221400D01*
X152604887Y-44639106D01*
X152604887Y-45567600D01*
X152670781Y-45917796D01*
X152877746Y-46239430D01*
X152998297Y-46321799D01*
X151290048Y-48030048D01*
X150909005Y-48600319D01*
X150890274Y-48694487D01*
X150633000Y-48694487D01*
X150282804Y-48760381D01*
X149961170Y-48967346D01*
X149745398Y-49283139D01*
X149669487Y-49658000D01*
X149669487Y-54458000D01*
X149735381Y-54808196D01*
X149942346Y-55129830D01*
X150258139Y-55345602D01*
X150633000Y-55421513D01*
X153674583Y-55421513D01*
X152909048Y-56187048D01*
X152528005Y-56757319D01*
X152394200Y-57430000D01*
X152516200Y-58043333D01*
X152516200Y-58176450D01*
X151680474Y-57829426D01*
X151127515Y-57828943D01*
X150874681Y-57660005D01*
X150202000Y-57526200D01*
X148648833Y-57526200D01*
X148458861Y-57396398D01*
X148084000Y-57320487D01*
X146584000Y-57320487D01*
X146233804Y-57386381D01*
X146187659Y-57416075D01*
X146158861Y-57396398D01*
X145784000Y-57320487D01*
X144284000Y-57320487D01*
X143933804Y-57386381D01*
X143612170Y-57593346D01*
X143574143Y-57649000D01*
X143019750Y-57649000D01*
X142861000Y-57807750D01*
X142861000Y-59157000D01*
X142881000Y-59157000D01*
X142881000Y-59411000D01*
X142861000Y-59411000D01*
X142861000Y-60760250D01*
X143019750Y-60919000D01*
X143569647Y-60919000D01*
X143593346Y-60955830D01*
X143813259Y-61106090D01*
X143879335Y-61438278D01*
X144150258Y-61843742D01*
X144159003Y-61852487D01*
X143822000Y-61852487D01*
X143471804Y-61918381D01*
X143150170Y-62125346D01*
X142934398Y-62441139D01*
X142875606Y-62731463D01*
X142825619Y-62465804D01*
X142727800Y-62313788D01*
X142727800Y-61722000D01*
X142632665Y-61243722D01*
X142415692Y-60919000D01*
X142448250Y-60919000D01*
X142607000Y-60760250D01*
X142607000Y-59411000D01*
X141507750Y-59411000D01*
X141349000Y-59569750D01*
X141349000Y-59915354D01*
X141214278Y-59825335D01*
X140786387Y-59740223D01*
X140496861Y-59542398D01*
X140122000Y-59466487D01*
X138922000Y-59466487D01*
X138571804Y-59532381D01*
X138571800Y-59532384D01*
X138571800Y-58157691D01*
X141349000Y-58157691D01*
X141349000Y-58998250D01*
X141507750Y-59157000D01*
X142607000Y-59157000D01*
X142607000Y-57807750D01*
X142448250Y-57649000D01*
X141857690Y-57649000D01*
X141624301Y-57745673D01*
X141445673Y-57924302D01*
X141349000Y-58157691D01*
X138571800Y-58157691D01*
X138571800Y-57572726D01*
X138661673Y-57789698D01*
X138840301Y-57968327D01*
X139073690Y-58065000D01*
X139414250Y-58065000D01*
X139573000Y-57906250D01*
X139573000Y-56957000D01*
X139827000Y-56957000D01*
X139827000Y-57906250D01*
X139985750Y-58065000D01*
X140326310Y-58065000D01*
X140559699Y-57968327D01*
X140738327Y-57789698D01*
X140835000Y-57556309D01*
X140835000Y-57115750D01*
X140676250Y-56957000D01*
X139827000Y-56957000D01*
X139573000Y-56957000D01*
X139553000Y-56957000D01*
X139553000Y-56703000D01*
X139573000Y-56703000D01*
X139573000Y-56683000D01*
X139827000Y-56683000D01*
X139827000Y-56703000D01*
X140676250Y-56703000D01*
X140835000Y-56544250D01*
X140835000Y-56244353D01*
X140871830Y-56220654D01*
X141087602Y-55904861D01*
X141163513Y-55530000D01*
X141163513Y-54330000D01*
X141097619Y-53979804D01*
X140890654Y-53658170D01*
X140787800Y-53587893D01*
X140787800Y-53558830D01*
X140809830Y-53544654D01*
X141025602Y-53228861D01*
X141101513Y-52854000D01*
X141101513Y-51984000D01*
X142170487Y-51984000D01*
X142170487Y-53984000D01*
X142236381Y-54334196D01*
X142443346Y-54655830D01*
X142759139Y-54871602D01*
X143134000Y-54947513D01*
X146934000Y-54947513D01*
X147284196Y-54881619D01*
X147605830Y-54674654D01*
X147821602Y-54358861D01*
X147897513Y-53984000D01*
X147897513Y-51984000D01*
X147831619Y-51633804D01*
X147624654Y-51312170D01*
X147308861Y-51096398D01*
X146934000Y-51020487D01*
X143134000Y-51020487D01*
X142783804Y-51086381D01*
X142462170Y-51293346D01*
X142246398Y-51609139D01*
X142170487Y-51984000D01*
X141101513Y-51984000D01*
X141101513Y-51754000D01*
X141035619Y-51403804D01*
X140828654Y-51082170D01*
X140512861Y-50866398D01*
X140138000Y-50790487D01*
X138938000Y-50790487D01*
X138587804Y-50856381D01*
X138438660Y-50952352D01*
X138312861Y-50866398D01*
X137938000Y-50790487D01*
X136738000Y-50790487D01*
X136387804Y-50856381D01*
X136080383Y-51054200D01*
X132080145Y-51054200D01*
X131942861Y-50960398D01*
X131568000Y-50884487D01*
X130368000Y-50884487D01*
X130017804Y-50950381D01*
X129696170Y-51157346D01*
X129480398Y-51473139D01*
X129404487Y-51848000D01*
X129404487Y-53048000D01*
X129470381Y-53398196D01*
X129677346Y-53719830D01*
X129993139Y-53935602D01*
X130368000Y-54011513D01*
X131568000Y-54011513D01*
X131918196Y-53945619D01*
X132239830Y-53738654D01*
X132366135Y-53553800D01*
X132494487Y-53553800D01*
X132494487Y-54648000D01*
X132560381Y-54998196D01*
X132767346Y-55319830D01*
X133083139Y-55535602D01*
X133458000Y-55611513D01*
X134204029Y-55611513D01*
X134492716Y-55900200D01*
X132203000Y-55900200D01*
X132203000Y-55533750D01*
X132044250Y-55375000D01*
X131095000Y-55375000D01*
X131095000Y-55395000D01*
X130841000Y-55395000D01*
X130841000Y-55375000D01*
X129891750Y-55375000D01*
X129733000Y-55533750D01*
X129733000Y-55974309D01*
X129829673Y-56207698D01*
X130008301Y-56386327D01*
X130241690Y-56483000D01*
X130312128Y-56483000D01*
X130017804Y-56538381D01*
X129696170Y-56745346D01*
X129480398Y-57061139D01*
X129404487Y-57436000D01*
X129404487Y-58636000D01*
X129470381Y-58986196D01*
X129677346Y-59307830D01*
X129993139Y-59523602D01*
X130368000Y-59599513D01*
X131568000Y-59599513D01*
X131918196Y-59533619D01*
X131929244Y-59526510D01*
X131897671Y-59685235D01*
X131694310Y-59601000D01*
X131253750Y-59601000D01*
X131095000Y-59759750D01*
X131095000Y-60709000D01*
X131115000Y-60709000D01*
X131115000Y-60963000D01*
X131095000Y-60963000D01*
X131095000Y-60983000D01*
X130841000Y-60983000D01*
X130841000Y-60963000D01*
X129891750Y-60963000D01*
X129733000Y-61121750D01*
X129733000Y-61562309D01*
X129829673Y-61795698D01*
X130008301Y-61974327D01*
X130076285Y-62002487D01*
X129802000Y-62002487D01*
X129451804Y-62068381D01*
X129299788Y-62166200D01*
X129170830Y-62166200D01*
X129156654Y-62144170D01*
X128840861Y-61928398D01*
X128466000Y-61852487D01*
X127566000Y-61852487D01*
X127487800Y-61867201D01*
X127487800Y-60109691D01*
X129733000Y-60109691D01*
X129733000Y-60550250D01*
X129891750Y-60709000D01*
X130841000Y-60709000D01*
X130841000Y-59759750D01*
X130682250Y-59601000D01*
X130241690Y-59601000D01*
X130008301Y-59697673D01*
X129829673Y-59876302D01*
X129733000Y-60109691D01*
X127487800Y-60109691D01*
X127487800Y-54521691D01*
X129733000Y-54521691D01*
X129733000Y-54962250D01*
X129891750Y-55121000D01*
X130841000Y-55121000D01*
X130841000Y-54171750D01*
X131095000Y-54171750D01*
X131095000Y-55121000D01*
X132044250Y-55121000D01*
X132203000Y-54962250D01*
X132203000Y-54521691D01*
X132106327Y-54288302D01*
X131927699Y-54109673D01*
X131694310Y-54013000D01*
X131253750Y-54013000D01*
X131095000Y-54171750D01*
X130841000Y-54171750D01*
X130682250Y-54013000D01*
X130241690Y-54013000D01*
X130008301Y-54109673D01*
X129829673Y-54288302D01*
X129733000Y-54521691D01*
X127487800Y-54521691D01*
X127487800Y-50512104D01*
X129586104Y-48413800D01*
X129717241Y-48413800D01*
X129819009Y-48515746D01*
X130625472Y-48850619D01*
X131498697Y-48851381D01*
X132305743Y-48517916D01*
X132410041Y-48413800D01*
X139171718Y-48413800D01*
X139232381Y-48736196D01*
X139439346Y-49057830D01*
X139755139Y-49273602D01*
X140130000Y-49349513D01*
X142630000Y-49349513D01*
X142980196Y-49283619D01*
X143301830Y-49076654D01*
X143517602Y-48760861D01*
X143593513Y-48386000D01*
X143593513Y-47021750D01*
X146295000Y-47021750D01*
X146295000Y-48512309D01*
X146391673Y-48745698D01*
X146570301Y-48924327D01*
X146803690Y-49021000D01*
X147894250Y-49021000D01*
X148053000Y-48862250D01*
X148053000Y-46863000D01*
X148307000Y-46863000D01*
X148307000Y-48862250D01*
X148465750Y-49021000D01*
X149556310Y-49021000D01*
X149789699Y-48924327D01*
X149968327Y-48745698D01*
X150065000Y-48512309D01*
X150065000Y-47021750D01*
X149906250Y-46863000D01*
X148307000Y-46863000D01*
X148053000Y-46863000D01*
X146453750Y-46863000D01*
X146295000Y-47021750D01*
X143593513Y-47021750D01*
X143593513Y-45086000D01*
X143569747Y-44959691D01*
X146295000Y-44959691D01*
X146295000Y-46450250D01*
X146453750Y-46609000D01*
X148053000Y-46609000D01*
X148053000Y-44609750D01*
X148307000Y-44609750D01*
X148307000Y-46609000D01*
X149906250Y-46609000D01*
X150065000Y-46450250D01*
X150065000Y-44959691D01*
X149968327Y-44726302D01*
X149789699Y-44547673D01*
X149556310Y-44451000D01*
X148465750Y-44451000D01*
X148307000Y-44609750D01*
X148053000Y-44609750D01*
X147894250Y-44451000D01*
X146803690Y-44451000D01*
X146570301Y-44547673D01*
X146391673Y-44726302D01*
X146295000Y-44959691D01*
X143569747Y-44959691D01*
X143527619Y-44735804D01*
X143320654Y-44414170D01*
X143137800Y-44289231D01*
X143137800Y-42736104D01*
X146576392Y-39297513D01*
X146881569Y-39297513D01*
X146996032Y-39468818D01*
G36*
X162968005Y-42328681D02*
X163349048Y-42898952D01*
X163939180Y-43489084D01*
X163357793Y-43488577D01*
X162458828Y-43860022D01*
X161918679Y-44399229D01*
X161867850Y-44348400D01*
X161010600Y-44348400D01*
X161010600Y-44368400D01*
X160756600Y-44368400D01*
X160756600Y-44348400D01*
X160736600Y-44348400D01*
X160736600Y-44094400D01*
X160756600Y-44094400D01*
X160756600Y-42398950D01*
X161010600Y-42398950D01*
X161010600Y-44094400D01*
X161867850Y-44094400D01*
X162026600Y-43935650D01*
X162026600Y-42748890D01*
X161929927Y-42515501D01*
X161751298Y-42336873D01*
X161517909Y-42240200D01*
X161169350Y-42240200D01*
X161010600Y-42398950D01*
X160756600Y-42398950D01*
X160597850Y-42240200D01*
X160404153Y-42240200D01*
X160380454Y-42203370D01*
X160099789Y-42011600D01*
X162838709Y-42011600D01*
X162899892Y-41986257D01*
X162968005Y-42328681D01*
X162968005Y-42328681D01*
G37*
X162968005Y-42328681D02*
X163349048Y-42898952D01*
X163939180Y-43489084D01*
X163357793Y-43488577D01*
X162458828Y-43860022D01*
X161918679Y-44399229D01*
X161867850Y-44348400D01*
X161010600Y-44348400D01*
X161010600Y-44368400D01*
X160756600Y-44368400D01*
X160756600Y-44348400D01*
X160736600Y-44348400D01*
X160736600Y-44094400D01*
X160756600Y-44094400D01*
X160756600Y-42398950D01*
X161010600Y-42398950D01*
X161010600Y-44094400D01*
X161867850Y-44094400D01*
X162026600Y-43935650D01*
X162026600Y-42748890D01*
X161929927Y-42515501D01*
X161751298Y-42336873D01*
X161517909Y-42240200D01*
X161169350Y-42240200D01*
X161010600Y-42398950D01*
X160756600Y-42398950D01*
X160597850Y-42240200D01*
X160404153Y-42240200D01*
X160380454Y-42203370D01*
X160099789Y-42011600D01*
X162838709Y-42011600D01*
X162899892Y-41986257D01*
X162968005Y-42328681D01*
M02*
