EESchema Schematic File Version 2
LIBS:power
LIBS:device
LIBS:switches
LIBS:relays
LIBS:motors
LIBS:transistors
LIBS:conn
LIBS:linear
LIBS:regul
LIBS:74xx
LIBS:cmos4000
LIBS:adc-dac
LIBS:memory
LIBS:xilinx
LIBS:microcontrollers
LIBS:dsp
LIBS:microchip
LIBS:analog_switches
LIBS:motorola
LIBS:texas
LIBS:intel
LIBS:audio
LIBS:interface
LIBS:digital-audio
LIBS:philips
LIBS:display
LIBS:cypress
LIBS:siliconi
LIBS:opto
LIBS:atmel
LIBS:contrib
LIBS:valves
LIBS:LM1117MP-3.3
EELAYER 25 0
EELAYER END
$Descr A4 11693 8268
encoding utf-8
Sheet 1 1
Title ""
Date ""
Rev ""
Comp ""
Comment1 ""
Comment2 ""
Comment3 ""
Comment4 ""
$EndDescr
$Comp
L C C1
U 1 1 5A0D5D89
P 6500 2900
F 0 "C1" H 6525 3000 50  0000 L CNN
F 1 "10uF" H 6525 2800 50  0000 L CNN
F 2 "MY_LIB:Capacitor_0603_Hand_Solder" H 6538 2750 50  0001 C CNN
F 3 "" H 6500 2900 50  0001 C CNN
	1    6500 2900
	1    0    0    -1  
$EndComp
$Comp
L C C2
U 1 1 5A0D5DC0
P 4400 2850
F 0 "C2" H 4425 2950 50  0000 L CNN
F 1 "10uF" H 4425 2750 50  0000 L CNN
F 2 "MY_LIB:Capacitor_0603_Hand_Solder" H 4438 2700 50  0001 C CNN
F 3 "" H 4400 2850 50  0001 C CNN
	1    4400 2850
	1    0    0    -1  
$EndComp
$Comp
L GND #PWR01
U 1 1 5A0D5DFC
P 5550 3300
F 0 "#PWR01" H 5550 3050 50  0001 C CNN
F 1 "GND" H 5550 3150 50  0000 C CNN
F 2 "" H 5550 3300 50  0001 C CNN
F 3 "" H 5550 3300 50  0001 C CNN
	1    5550 3300
	1    0    0    -1  
$EndComp
$Comp
L VDD #PWR02
U 1 1 5A0D5E29
P 4400 2550
F 0 "#PWR02" H 4400 2400 50  0001 C CNN
F 1 "VDD" H 4400 2700 50  0000 C CNN
F 2 "" H 4400 2550 50  0001 C CNN
F 3 "" H 4400 2550 50  0001 C CNN
	1    4400 2550
	1    0    0    -1  
$EndComp
$Comp
L +5V #PWR03
U 1 1 5A0D5E58
P 6500 2650
F 0 "#PWR03" H 6500 2500 50  0001 C CNN
F 1 "+5V" H 6500 2790 50  0000 C CNN
F 2 "" H 6500 2650 50  0001 C CNN
F 3 "" H 6500 2650 50  0001 C CNN
	1    6500 2650
	1    0    0    -1  
$EndComp
$Comp
L Conn_01x04 J1
U 1 1 5A0D5F14
P 7800 2000
F 0 "J1" H 7800 2200 50  0000 C CNN
F 1 "CONNECTOR" H 7800 1700 50  0000 C CNN
F 2 "Pin_Headers:Pin_Header_Straight_1x04_Pitch2.54mm" H 7800 2000 50  0001 C CNN
F 3 "" H 7800 2000 50  0001 C CNN
	1    7800 2000
	1    0    0    -1  
$EndComp
$Comp
L GND #PWR04
U 1 1 5A0D5F70
P 7450 2100
F 0 "#PWR04" H 7450 1850 50  0001 C CNN
F 1 "GND" H 7450 1950 50  0000 C CNN
F 2 "" H 7450 2100 50  0001 C CNN
F 3 "" H 7450 2100 50  0001 C CNN
	1    7450 2100
	1    0    0    -1  
$EndComp
$Comp
L Conn_01x01 J2
U 1 1 5A0D60C3
P 7800 2700
F 0 "J2" H 7800 2800 50  0000 C CNN
F 1 "VDD_PAD" H 7800 2600 50  0000 C CNN
F 2 "MY_LIB:SMD_PAD" H 7800 2700 50  0001 C CNN
F 3 "" H 7800 2700 50  0001 C CNN
	1    7800 2700
	1    0    0    -1  
$EndComp
$Comp
L Conn_01x01 J3
U 1 1 5A0D613E
P 7800 3050
F 0 "J3" H 7800 3150 50  0000 C CNN
F 1 "GND_PAD" H 7800 2950 50  0000 C CNN
F 2 "MY_LIB:SMD_PAD" H 7800 3050 50  0001 C CNN
F 3 "" H 7800 3050 50  0001 C CNN
	1    7800 3050
	1    0    0    -1  
$EndComp
$Comp
L VDD #PWR05
U 1 1 5A0D6178
P 7500 2650
F 0 "#PWR05" H 7500 2500 50  0001 C CNN
F 1 "VDD" H 7500 2800 50  0000 C CNN
F 2 "" H 7500 2650 50  0001 C CNN
F 3 "" H 7500 2650 50  0001 C CNN
	1    7500 2650
	1    0    0    -1  
$EndComp
$Comp
L GND #PWR06
U 1 1 5A0D61A7
P 7500 3050
F 0 "#PWR06" H 7500 2800 50  0001 C CNN
F 1 "GND" H 7500 2900 50  0000 C CNN
F 2 "" H 7500 3050 50  0001 C CNN
F 3 "" H 7500 3050 50  0001 C CNN
	1    7500 3050
	1    0    0    -1  
$EndComp
$Comp
L +5V #PWR07
U 1 1 5A0D6344
P 7450 1850
F 0 "#PWR07" H 7450 1700 50  0001 C CNN
F 1 "+5V" H 7450 1990 50  0000 C CNN
F 2 "" H 7450 1850 50  0001 C CNN
F 3 "" H 7450 1850 50  0001 C CNN
	1    7450 1850
	1    0    0    -1  
$EndComp
$Comp
L LM1117MP-3.3 U1
U 1 1 5A0D649F
P 5500 2700
F 0 "U1" H 5285 2940 50  0000 L BNN
F 1 "LM1117-ADJ" H 5328 2198 50  0000 L BNN
F 2 "TO_SOT_Packages_SMD:SOT-223" H 5500 2700 50  0001 L BNN
F 3 "Good" H 5500 2700 50  0001 L BNN
F 4 "SOT-223 Texas Instruments" H 5500 2700 50  0001 L BNN "Package"
F 5 "0.69 USD" H 5500 2700 50  0001 L BNN "Price"
F 6 "LM1117MP-3.3/NOPB" H 5500 2700 50  0001 L BNN "MP"
F 7 "Voltage stabiliser%3B LDO%2C fixed%3B 3.3V%3B 0.8A%3B SOT223%3B SMD" H 5500 2700 50  0001 L BNN "Description"
F 8 "Texas Instruments" H 5500 2700 50  0001 L BNN "MF"
	1    5500 2700
	1    0    0    -1  
$EndComp
Wire Wire Line
	7450 1850 7450 1900
Wire Wire Line
	7450 1900 7600 1900
Wire Wire Line
	7500 2650 7500 2700
Wire Wire Line
	7500 2700 7600 2700
Wire Wire Line
	7600 3050 7500 3050
Wire Wire Line
	4400 2550 4400 2700
Wire Wire Line
	4400 3000 4400 3250
Wire Wire Line
	4400 3250 6500 3250
Wire Wire Line
	5550 3250 5550 3300
Wire Wire Line
	4400 2700 4800 2700
Wire Wire Line
	4800 2900 4800 3250
Connection ~ 4800 3250
Wire Wire Line
	6200 2700 6500 2700
Wire Wire Line
	6500 2650 6500 2750
Connection ~ 6500 2700
Wire Wire Line
	6200 2800 6200 2700
Wire Wire Line
	6500 3250 6500 3050
Connection ~ 5550 3250
Wire Wire Line
	7600 2100 7450 2100
$EndSCHEMATC
