G75*
%MOIN*%
%OFA0B0*%
%FSLAX25Y25*%
%IPPOS*%
%LPD*%
%AMOC8*
5,1,8,0,0,1.08239X$1,22.5*
%
%ADD10C,0.00100*%
%ADD11C,0.10000*%
%ADD12C,0.16598*%
%ADD13C,0.15024*%
%ADD14C,0.00000*%
%ADD15C,0.03000*%
%ADD16C,0.01600*%
%ADD17C,0.00800*%
%ADD18C,0.06400*%
%ADD19C,0.02800*%
%ADD20C,0.01000*%
D10*
X0051400Y0046400D02*
X0051400Y0196006D01*
X0287620Y0196006D01*
X0287620Y0046400D01*
X0051400Y0046400D01*
D11*
X0076400Y0131400D03*
X0076400Y0151400D03*
X0260400Y0156400D03*
X0260400Y0136400D03*
X0260400Y0106400D03*
X0260400Y0086400D03*
D12*
X0104943Y0096400D03*
D13*
X0080337Y0096400D03*
X0093723Y0077502D03*
D14*
X0060101Y0061400D02*
X0060103Y0061558D01*
X0060109Y0061716D01*
X0060119Y0061874D01*
X0060133Y0062032D01*
X0060151Y0062189D01*
X0060172Y0062346D01*
X0060198Y0062502D01*
X0060228Y0062658D01*
X0060261Y0062813D01*
X0060299Y0062966D01*
X0060340Y0063119D01*
X0060385Y0063271D01*
X0060434Y0063422D01*
X0060487Y0063571D01*
X0060543Y0063719D01*
X0060603Y0063865D01*
X0060667Y0064010D01*
X0060735Y0064153D01*
X0060806Y0064295D01*
X0060880Y0064435D01*
X0060958Y0064572D01*
X0061040Y0064708D01*
X0061124Y0064842D01*
X0061213Y0064973D01*
X0061304Y0065102D01*
X0061399Y0065229D01*
X0061496Y0065354D01*
X0061597Y0065476D01*
X0061701Y0065595D01*
X0061808Y0065712D01*
X0061918Y0065826D01*
X0062031Y0065937D01*
X0062146Y0066046D01*
X0062264Y0066151D01*
X0062385Y0066253D01*
X0062508Y0066353D01*
X0062634Y0066449D01*
X0062762Y0066542D01*
X0062892Y0066632D01*
X0063025Y0066718D01*
X0063160Y0066802D01*
X0063296Y0066881D01*
X0063435Y0066958D01*
X0063576Y0067030D01*
X0063718Y0067100D01*
X0063862Y0067165D01*
X0064008Y0067227D01*
X0064155Y0067285D01*
X0064304Y0067340D01*
X0064454Y0067391D01*
X0064605Y0067438D01*
X0064757Y0067481D01*
X0064910Y0067520D01*
X0065065Y0067556D01*
X0065220Y0067587D01*
X0065376Y0067615D01*
X0065532Y0067639D01*
X0065689Y0067659D01*
X0065847Y0067675D01*
X0066004Y0067687D01*
X0066163Y0067695D01*
X0066321Y0067699D01*
X0066479Y0067699D01*
X0066637Y0067695D01*
X0066796Y0067687D01*
X0066953Y0067675D01*
X0067111Y0067659D01*
X0067268Y0067639D01*
X0067424Y0067615D01*
X0067580Y0067587D01*
X0067735Y0067556D01*
X0067890Y0067520D01*
X0068043Y0067481D01*
X0068195Y0067438D01*
X0068346Y0067391D01*
X0068496Y0067340D01*
X0068645Y0067285D01*
X0068792Y0067227D01*
X0068938Y0067165D01*
X0069082Y0067100D01*
X0069224Y0067030D01*
X0069365Y0066958D01*
X0069504Y0066881D01*
X0069640Y0066802D01*
X0069775Y0066718D01*
X0069908Y0066632D01*
X0070038Y0066542D01*
X0070166Y0066449D01*
X0070292Y0066353D01*
X0070415Y0066253D01*
X0070536Y0066151D01*
X0070654Y0066046D01*
X0070769Y0065937D01*
X0070882Y0065826D01*
X0070992Y0065712D01*
X0071099Y0065595D01*
X0071203Y0065476D01*
X0071304Y0065354D01*
X0071401Y0065229D01*
X0071496Y0065102D01*
X0071587Y0064973D01*
X0071676Y0064842D01*
X0071760Y0064708D01*
X0071842Y0064572D01*
X0071920Y0064435D01*
X0071994Y0064295D01*
X0072065Y0064153D01*
X0072133Y0064010D01*
X0072197Y0063865D01*
X0072257Y0063719D01*
X0072313Y0063571D01*
X0072366Y0063422D01*
X0072415Y0063271D01*
X0072460Y0063119D01*
X0072501Y0062966D01*
X0072539Y0062813D01*
X0072572Y0062658D01*
X0072602Y0062502D01*
X0072628Y0062346D01*
X0072649Y0062189D01*
X0072667Y0062032D01*
X0072681Y0061874D01*
X0072691Y0061716D01*
X0072697Y0061558D01*
X0072699Y0061400D01*
X0072697Y0061242D01*
X0072691Y0061084D01*
X0072681Y0060926D01*
X0072667Y0060768D01*
X0072649Y0060611D01*
X0072628Y0060454D01*
X0072602Y0060298D01*
X0072572Y0060142D01*
X0072539Y0059987D01*
X0072501Y0059834D01*
X0072460Y0059681D01*
X0072415Y0059529D01*
X0072366Y0059378D01*
X0072313Y0059229D01*
X0072257Y0059081D01*
X0072197Y0058935D01*
X0072133Y0058790D01*
X0072065Y0058647D01*
X0071994Y0058505D01*
X0071920Y0058365D01*
X0071842Y0058228D01*
X0071760Y0058092D01*
X0071676Y0057958D01*
X0071587Y0057827D01*
X0071496Y0057698D01*
X0071401Y0057571D01*
X0071304Y0057446D01*
X0071203Y0057324D01*
X0071099Y0057205D01*
X0070992Y0057088D01*
X0070882Y0056974D01*
X0070769Y0056863D01*
X0070654Y0056754D01*
X0070536Y0056649D01*
X0070415Y0056547D01*
X0070292Y0056447D01*
X0070166Y0056351D01*
X0070038Y0056258D01*
X0069908Y0056168D01*
X0069775Y0056082D01*
X0069640Y0055998D01*
X0069504Y0055919D01*
X0069365Y0055842D01*
X0069224Y0055770D01*
X0069082Y0055700D01*
X0068938Y0055635D01*
X0068792Y0055573D01*
X0068645Y0055515D01*
X0068496Y0055460D01*
X0068346Y0055409D01*
X0068195Y0055362D01*
X0068043Y0055319D01*
X0067890Y0055280D01*
X0067735Y0055244D01*
X0067580Y0055213D01*
X0067424Y0055185D01*
X0067268Y0055161D01*
X0067111Y0055141D01*
X0066953Y0055125D01*
X0066796Y0055113D01*
X0066637Y0055105D01*
X0066479Y0055101D01*
X0066321Y0055101D01*
X0066163Y0055105D01*
X0066004Y0055113D01*
X0065847Y0055125D01*
X0065689Y0055141D01*
X0065532Y0055161D01*
X0065376Y0055185D01*
X0065220Y0055213D01*
X0065065Y0055244D01*
X0064910Y0055280D01*
X0064757Y0055319D01*
X0064605Y0055362D01*
X0064454Y0055409D01*
X0064304Y0055460D01*
X0064155Y0055515D01*
X0064008Y0055573D01*
X0063862Y0055635D01*
X0063718Y0055700D01*
X0063576Y0055770D01*
X0063435Y0055842D01*
X0063296Y0055919D01*
X0063160Y0055998D01*
X0063025Y0056082D01*
X0062892Y0056168D01*
X0062762Y0056258D01*
X0062634Y0056351D01*
X0062508Y0056447D01*
X0062385Y0056547D01*
X0062264Y0056649D01*
X0062146Y0056754D01*
X0062031Y0056863D01*
X0061918Y0056974D01*
X0061808Y0057088D01*
X0061701Y0057205D01*
X0061597Y0057324D01*
X0061496Y0057446D01*
X0061399Y0057571D01*
X0061304Y0057698D01*
X0061213Y0057827D01*
X0061124Y0057958D01*
X0061040Y0058092D01*
X0060958Y0058228D01*
X0060880Y0058365D01*
X0060806Y0058505D01*
X0060735Y0058647D01*
X0060667Y0058790D01*
X0060603Y0058935D01*
X0060543Y0059081D01*
X0060487Y0059229D01*
X0060434Y0059378D01*
X0060385Y0059529D01*
X0060340Y0059681D01*
X0060299Y0059834D01*
X0060261Y0059987D01*
X0060228Y0060142D01*
X0060198Y0060298D01*
X0060172Y0060454D01*
X0060151Y0060611D01*
X0060133Y0060768D01*
X0060119Y0060926D01*
X0060109Y0061084D01*
X0060103Y0061242D01*
X0060101Y0061400D01*
X0060101Y0181400D02*
X0060103Y0181558D01*
X0060109Y0181716D01*
X0060119Y0181874D01*
X0060133Y0182032D01*
X0060151Y0182189D01*
X0060172Y0182346D01*
X0060198Y0182502D01*
X0060228Y0182658D01*
X0060261Y0182813D01*
X0060299Y0182966D01*
X0060340Y0183119D01*
X0060385Y0183271D01*
X0060434Y0183422D01*
X0060487Y0183571D01*
X0060543Y0183719D01*
X0060603Y0183865D01*
X0060667Y0184010D01*
X0060735Y0184153D01*
X0060806Y0184295D01*
X0060880Y0184435D01*
X0060958Y0184572D01*
X0061040Y0184708D01*
X0061124Y0184842D01*
X0061213Y0184973D01*
X0061304Y0185102D01*
X0061399Y0185229D01*
X0061496Y0185354D01*
X0061597Y0185476D01*
X0061701Y0185595D01*
X0061808Y0185712D01*
X0061918Y0185826D01*
X0062031Y0185937D01*
X0062146Y0186046D01*
X0062264Y0186151D01*
X0062385Y0186253D01*
X0062508Y0186353D01*
X0062634Y0186449D01*
X0062762Y0186542D01*
X0062892Y0186632D01*
X0063025Y0186718D01*
X0063160Y0186802D01*
X0063296Y0186881D01*
X0063435Y0186958D01*
X0063576Y0187030D01*
X0063718Y0187100D01*
X0063862Y0187165D01*
X0064008Y0187227D01*
X0064155Y0187285D01*
X0064304Y0187340D01*
X0064454Y0187391D01*
X0064605Y0187438D01*
X0064757Y0187481D01*
X0064910Y0187520D01*
X0065065Y0187556D01*
X0065220Y0187587D01*
X0065376Y0187615D01*
X0065532Y0187639D01*
X0065689Y0187659D01*
X0065847Y0187675D01*
X0066004Y0187687D01*
X0066163Y0187695D01*
X0066321Y0187699D01*
X0066479Y0187699D01*
X0066637Y0187695D01*
X0066796Y0187687D01*
X0066953Y0187675D01*
X0067111Y0187659D01*
X0067268Y0187639D01*
X0067424Y0187615D01*
X0067580Y0187587D01*
X0067735Y0187556D01*
X0067890Y0187520D01*
X0068043Y0187481D01*
X0068195Y0187438D01*
X0068346Y0187391D01*
X0068496Y0187340D01*
X0068645Y0187285D01*
X0068792Y0187227D01*
X0068938Y0187165D01*
X0069082Y0187100D01*
X0069224Y0187030D01*
X0069365Y0186958D01*
X0069504Y0186881D01*
X0069640Y0186802D01*
X0069775Y0186718D01*
X0069908Y0186632D01*
X0070038Y0186542D01*
X0070166Y0186449D01*
X0070292Y0186353D01*
X0070415Y0186253D01*
X0070536Y0186151D01*
X0070654Y0186046D01*
X0070769Y0185937D01*
X0070882Y0185826D01*
X0070992Y0185712D01*
X0071099Y0185595D01*
X0071203Y0185476D01*
X0071304Y0185354D01*
X0071401Y0185229D01*
X0071496Y0185102D01*
X0071587Y0184973D01*
X0071676Y0184842D01*
X0071760Y0184708D01*
X0071842Y0184572D01*
X0071920Y0184435D01*
X0071994Y0184295D01*
X0072065Y0184153D01*
X0072133Y0184010D01*
X0072197Y0183865D01*
X0072257Y0183719D01*
X0072313Y0183571D01*
X0072366Y0183422D01*
X0072415Y0183271D01*
X0072460Y0183119D01*
X0072501Y0182966D01*
X0072539Y0182813D01*
X0072572Y0182658D01*
X0072602Y0182502D01*
X0072628Y0182346D01*
X0072649Y0182189D01*
X0072667Y0182032D01*
X0072681Y0181874D01*
X0072691Y0181716D01*
X0072697Y0181558D01*
X0072699Y0181400D01*
X0072697Y0181242D01*
X0072691Y0181084D01*
X0072681Y0180926D01*
X0072667Y0180768D01*
X0072649Y0180611D01*
X0072628Y0180454D01*
X0072602Y0180298D01*
X0072572Y0180142D01*
X0072539Y0179987D01*
X0072501Y0179834D01*
X0072460Y0179681D01*
X0072415Y0179529D01*
X0072366Y0179378D01*
X0072313Y0179229D01*
X0072257Y0179081D01*
X0072197Y0178935D01*
X0072133Y0178790D01*
X0072065Y0178647D01*
X0071994Y0178505D01*
X0071920Y0178365D01*
X0071842Y0178228D01*
X0071760Y0178092D01*
X0071676Y0177958D01*
X0071587Y0177827D01*
X0071496Y0177698D01*
X0071401Y0177571D01*
X0071304Y0177446D01*
X0071203Y0177324D01*
X0071099Y0177205D01*
X0070992Y0177088D01*
X0070882Y0176974D01*
X0070769Y0176863D01*
X0070654Y0176754D01*
X0070536Y0176649D01*
X0070415Y0176547D01*
X0070292Y0176447D01*
X0070166Y0176351D01*
X0070038Y0176258D01*
X0069908Y0176168D01*
X0069775Y0176082D01*
X0069640Y0175998D01*
X0069504Y0175919D01*
X0069365Y0175842D01*
X0069224Y0175770D01*
X0069082Y0175700D01*
X0068938Y0175635D01*
X0068792Y0175573D01*
X0068645Y0175515D01*
X0068496Y0175460D01*
X0068346Y0175409D01*
X0068195Y0175362D01*
X0068043Y0175319D01*
X0067890Y0175280D01*
X0067735Y0175244D01*
X0067580Y0175213D01*
X0067424Y0175185D01*
X0067268Y0175161D01*
X0067111Y0175141D01*
X0066953Y0175125D01*
X0066796Y0175113D01*
X0066637Y0175105D01*
X0066479Y0175101D01*
X0066321Y0175101D01*
X0066163Y0175105D01*
X0066004Y0175113D01*
X0065847Y0175125D01*
X0065689Y0175141D01*
X0065532Y0175161D01*
X0065376Y0175185D01*
X0065220Y0175213D01*
X0065065Y0175244D01*
X0064910Y0175280D01*
X0064757Y0175319D01*
X0064605Y0175362D01*
X0064454Y0175409D01*
X0064304Y0175460D01*
X0064155Y0175515D01*
X0064008Y0175573D01*
X0063862Y0175635D01*
X0063718Y0175700D01*
X0063576Y0175770D01*
X0063435Y0175842D01*
X0063296Y0175919D01*
X0063160Y0175998D01*
X0063025Y0176082D01*
X0062892Y0176168D01*
X0062762Y0176258D01*
X0062634Y0176351D01*
X0062508Y0176447D01*
X0062385Y0176547D01*
X0062264Y0176649D01*
X0062146Y0176754D01*
X0062031Y0176863D01*
X0061918Y0176974D01*
X0061808Y0177088D01*
X0061701Y0177205D01*
X0061597Y0177324D01*
X0061496Y0177446D01*
X0061399Y0177571D01*
X0061304Y0177698D01*
X0061213Y0177827D01*
X0061124Y0177958D01*
X0061040Y0178092D01*
X0060958Y0178228D01*
X0060880Y0178365D01*
X0060806Y0178505D01*
X0060735Y0178647D01*
X0060667Y0178790D01*
X0060603Y0178935D01*
X0060543Y0179081D01*
X0060487Y0179229D01*
X0060434Y0179378D01*
X0060385Y0179529D01*
X0060340Y0179681D01*
X0060299Y0179834D01*
X0060261Y0179987D01*
X0060228Y0180142D01*
X0060198Y0180298D01*
X0060172Y0180454D01*
X0060151Y0180611D01*
X0060133Y0180768D01*
X0060119Y0180926D01*
X0060109Y0181084D01*
X0060103Y0181242D01*
X0060101Y0181400D01*
X0265101Y0181400D02*
X0265103Y0181558D01*
X0265109Y0181716D01*
X0265119Y0181874D01*
X0265133Y0182032D01*
X0265151Y0182189D01*
X0265172Y0182346D01*
X0265198Y0182502D01*
X0265228Y0182658D01*
X0265261Y0182813D01*
X0265299Y0182966D01*
X0265340Y0183119D01*
X0265385Y0183271D01*
X0265434Y0183422D01*
X0265487Y0183571D01*
X0265543Y0183719D01*
X0265603Y0183865D01*
X0265667Y0184010D01*
X0265735Y0184153D01*
X0265806Y0184295D01*
X0265880Y0184435D01*
X0265958Y0184572D01*
X0266040Y0184708D01*
X0266124Y0184842D01*
X0266213Y0184973D01*
X0266304Y0185102D01*
X0266399Y0185229D01*
X0266496Y0185354D01*
X0266597Y0185476D01*
X0266701Y0185595D01*
X0266808Y0185712D01*
X0266918Y0185826D01*
X0267031Y0185937D01*
X0267146Y0186046D01*
X0267264Y0186151D01*
X0267385Y0186253D01*
X0267508Y0186353D01*
X0267634Y0186449D01*
X0267762Y0186542D01*
X0267892Y0186632D01*
X0268025Y0186718D01*
X0268160Y0186802D01*
X0268296Y0186881D01*
X0268435Y0186958D01*
X0268576Y0187030D01*
X0268718Y0187100D01*
X0268862Y0187165D01*
X0269008Y0187227D01*
X0269155Y0187285D01*
X0269304Y0187340D01*
X0269454Y0187391D01*
X0269605Y0187438D01*
X0269757Y0187481D01*
X0269910Y0187520D01*
X0270065Y0187556D01*
X0270220Y0187587D01*
X0270376Y0187615D01*
X0270532Y0187639D01*
X0270689Y0187659D01*
X0270847Y0187675D01*
X0271004Y0187687D01*
X0271163Y0187695D01*
X0271321Y0187699D01*
X0271479Y0187699D01*
X0271637Y0187695D01*
X0271796Y0187687D01*
X0271953Y0187675D01*
X0272111Y0187659D01*
X0272268Y0187639D01*
X0272424Y0187615D01*
X0272580Y0187587D01*
X0272735Y0187556D01*
X0272890Y0187520D01*
X0273043Y0187481D01*
X0273195Y0187438D01*
X0273346Y0187391D01*
X0273496Y0187340D01*
X0273645Y0187285D01*
X0273792Y0187227D01*
X0273938Y0187165D01*
X0274082Y0187100D01*
X0274224Y0187030D01*
X0274365Y0186958D01*
X0274504Y0186881D01*
X0274640Y0186802D01*
X0274775Y0186718D01*
X0274908Y0186632D01*
X0275038Y0186542D01*
X0275166Y0186449D01*
X0275292Y0186353D01*
X0275415Y0186253D01*
X0275536Y0186151D01*
X0275654Y0186046D01*
X0275769Y0185937D01*
X0275882Y0185826D01*
X0275992Y0185712D01*
X0276099Y0185595D01*
X0276203Y0185476D01*
X0276304Y0185354D01*
X0276401Y0185229D01*
X0276496Y0185102D01*
X0276587Y0184973D01*
X0276676Y0184842D01*
X0276760Y0184708D01*
X0276842Y0184572D01*
X0276920Y0184435D01*
X0276994Y0184295D01*
X0277065Y0184153D01*
X0277133Y0184010D01*
X0277197Y0183865D01*
X0277257Y0183719D01*
X0277313Y0183571D01*
X0277366Y0183422D01*
X0277415Y0183271D01*
X0277460Y0183119D01*
X0277501Y0182966D01*
X0277539Y0182813D01*
X0277572Y0182658D01*
X0277602Y0182502D01*
X0277628Y0182346D01*
X0277649Y0182189D01*
X0277667Y0182032D01*
X0277681Y0181874D01*
X0277691Y0181716D01*
X0277697Y0181558D01*
X0277699Y0181400D01*
X0277697Y0181242D01*
X0277691Y0181084D01*
X0277681Y0180926D01*
X0277667Y0180768D01*
X0277649Y0180611D01*
X0277628Y0180454D01*
X0277602Y0180298D01*
X0277572Y0180142D01*
X0277539Y0179987D01*
X0277501Y0179834D01*
X0277460Y0179681D01*
X0277415Y0179529D01*
X0277366Y0179378D01*
X0277313Y0179229D01*
X0277257Y0179081D01*
X0277197Y0178935D01*
X0277133Y0178790D01*
X0277065Y0178647D01*
X0276994Y0178505D01*
X0276920Y0178365D01*
X0276842Y0178228D01*
X0276760Y0178092D01*
X0276676Y0177958D01*
X0276587Y0177827D01*
X0276496Y0177698D01*
X0276401Y0177571D01*
X0276304Y0177446D01*
X0276203Y0177324D01*
X0276099Y0177205D01*
X0275992Y0177088D01*
X0275882Y0176974D01*
X0275769Y0176863D01*
X0275654Y0176754D01*
X0275536Y0176649D01*
X0275415Y0176547D01*
X0275292Y0176447D01*
X0275166Y0176351D01*
X0275038Y0176258D01*
X0274908Y0176168D01*
X0274775Y0176082D01*
X0274640Y0175998D01*
X0274504Y0175919D01*
X0274365Y0175842D01*
X0274224Y0175770D01*
X0274082Y0175700D01*
X0273938Y0175635D01*
X0273792Y0175573D01*
X0273645Y0175515D01*
X0273496Y0175460D01*
X0273346Y0175409D01*
X0273195Y0175362D01*
X0273043Y0175319D01*
X0272890Y0175280D01*
X0272735Y0175244D01*
X0272580Y0175213D01*
X0272424Y0175185D01*
X0272268Y0175161D01*
X0272111Y0175141D01*
X0271953Y0175125D01*
X0271796Y0175113D01*
X0271637Y0175105D01*
X0271479Y0175101D01*
X0271321Y0175101D01*
X0271163Y0175105D01*
X0271004Y0175113D01*
X0270847Y0175125D01*
X0270689Y0175141D01*
X0270532Y0175161D01*
X0270376Y0175185D01*
X0270220Y0175213D01*
X0270065Y0175244D01*
X0269910Y0175280D01*
X0269757Y0175319D01*
X0269605Y0175362D01*
X0269454Y0175409D01*
X0269304Y0175460D01*
X0269155Y0175515D01*
X0269008Y0175573D01*
X0268862Y0175635D01*
X0268718Y0175700D01*
X0268576Y0175770D01*
X0268435Y0175842D01*
X0268296Y0175919D01*
X0268160Y0175998D01*
X0268025Y0176082D01*
X0267892Y0176168D01*
X0267762Y0176258D01*
X0267634Y0176351D01*
X0267508Y0176447D01*
X0267385Y0176547D01*
X0267264Y0176649D01*
X0267146Y0176754D01*
X0267031Y0176863D01*
X0266918Y0176974D01*
X0266808Y0177088D01*
X0266701Y0177205D01*
X0266597Y0177324D01*
X0266496Y0177446D01*
X0266399Y0177571D01*
X0266304Y0177698D01*
X0266213Y0177827D01*
X0266124Y0177958D01*
X0266040Y0178092D01*
X0265958Y0178228D01*
X0265880Y0178365D01*
X0265806Y0178505D01*
X0265735Y0178647D01*
X0265667Y0178790D01*
X0265603Y0178935D01*
X0265543Y0179081D01*
X0265487Y0179229D01*
X0265434Y0179378D01*
X0265385Y0179529D01*
X0265340Y0179681D01*
X0265299Y0179834D01*
X0265261Y0179987D01*
X0265228Y0180142D01*
X0265198Y0180298D01*
X0265172Y0180454D01*
X0265151Y0180611D01*
X0265133Y0180768D01*
X0265119Y0180926D01*
X0265109Y0181084D01*
X0265103Y0181242D01*
X0265101Y0181400D01*
X0265101Y0061400D02*
X0265103Y0061558D01*
X0265109Y0061716D01*
X0265119Y0061874D01*
X0265133Y0062032D01*
X0265151Y0062189D01*
X0265172Y0062346D01*
X0265198Y0062502D01*
X0265228Y0062658D01*
X0265261Y0062813D01*
X0265299Y0062966D01*
X0265340Y0063119D01*
X0265385Y0063271D01*
X0265434Y0063422D01*
X0265487Y0063571D01*
X0265543Y0063719D01*
X0265603Y0063865D01*
X0265667Y0064010D01*
X0265735Y0064153D01*
X0265806Y0064295D01*
X0265880Y0064435D01*
X0265958Y0064572D01*
X0266040Y0064708D01*
X0266124Y0064842D01*
X0266213Y0064973D01*
X0266304Y0065102D01*
X0266399Y0065229D01*
X0266496Y0065354D01*
X0266597Y0065476D01*
X0266701Y0065595D01*
X0266808Y0065712D01*
X0266918Y0065826D01*
X0267031Y0065937D01*
X0267146Y0066046D01*
X0267264Y0066151D01*
X0267385Y0066253D01*
X0267508Y0066353D01*
X0267634Y0066449D01*
X0267762Y0066542D01*
X0267892Y0066632D01*
X0268025Y0066718D01*
X0268160Y0066802D01*
X0268296Y0066881D01*
X0268435Y0066958D01*
X0268576Y0067030D01*
X0268718Y0067100D01*
X0268862Y0067165D01*
X0269008Y0067227D01*
X0269155Y0067285D01*
X0269304Y0067340D01*
X0269454Y0067391D01*
X0269605Y0067438D01*
X0269757Y0067481D01*
X0269910Y0067520D01*
X0270065Y0067556D01*
X0270220Y0067587D01*
X0270376Y0067615D01*
X0270532Y0067639D01*
X0270689Y0067659D01*
X0270847Y0067675D01*
X0271004Y0067687D01*
X0271163Y0067695D01*
X0271321Y0067699D01*
X0271479Y0067699D01*
X0271637Y0067695D01*
X0271796Y0067687D01*
X0271953Y0067675D01*
X0272111Y0067659D01*
X0272268Y0067639D01*
X0272424Y0067615D01*
X0272580Y0067587D01*
X0272735Y0067556D01*
X0272890Y0067520D01*
X0273043Y0067481D01*
X0273195Y0067438D01*
X0273346Y0067391D01*
X0273496Y0067340D01*
X0273645Y0067285D01*
X0273792Y0067227D01*
X0273938Y0067165D01*
X0274082Y0067100D01*
X0274224Y0067030D01*
X0274365Y0066958D01*
X0274504Y0066881D01*
X0274640Y0066802D01*
X0274775Y0066718D01*
X0274908Y0066632D01*
X0275038Y0066542D01*
X0275166Y0066449D01*
X0275292Y0066353D01*
X0275415Y0066253D01*
X0275536Y0066151D01*
X0275654Y0066046D01*
X0275769Y0065937D01*
X0275882Y0065826D01*
X0275992Y0065712D01*
X0276099Y0065595D01*
X0276203Y0065476D01*
X0276304Y0065354D01*
X0276401Y0065229D01*
X0276496Y0065102D01*
X0276587Y0064973D01*
X0276676Y0064842D01*
X0276760Y0064708D01*
X0276842Y0064572D01*
X0276920Y0064435D01*
X0276994Y0064295D01*
X0277065Y0064153D01*
X0277133Y0064010D01*
X0277197Y0063865D01*
X0277257Y0063719D01*
X0277313Y0063571D01*
X0277366Y0063422D01*
X0277415Y0063271D01*
X0277460Y0063119D01*
X0277501Y0062966D01*
X0277539Y0062813D01*
X0277572Y0062658D01*
X0277602Y0062502D01*
X0277628Y0062346D01*
X0277649Y0062189D01*
X0277667Y0062032D01*
X0277681Y0061874D01*
X0277691Y0061716D01*
X0277697Y0061558D01*
X0277699Y0061400D01*
X0277697Y0061242D01*
X0277691Y0061084D01*
X0277681Y0060926D01*
X0277667Y0060768D01*
X0277649Y0060611D01*
X0277628Y0060454D01*
X0277602Y0060298D01*
X0277572Y0060142D01*
X0277539Y0059987D01*
X0277501Y0059834D01*
X0277460Y0059681D01*
X0277415Y0059529D01*
X0277366Y0059378D01*
X0277313Y0059229D01*
X0277257Y0059081D01*
X0277197Y0058935D01*
X0277133Y0058790D01*
X0277065Y0058647D01*
X0276994Y0058505D01*
X0276920Y0058365D01*
X0276842Y0058228D01*
X0276760Y0058092D01*
X0276676Y0057958D01*
X0276587Y0057827D01*
X0276496Y0057698D01*
X0276401Y0057571D01*
X0276304Y0057446D01*
X0276203Y0057324D01*
X0276099Y0057205D01*
X0275992Y0057088D01*
X0275882Y0056974D01*
X0275769Y0056863D01*
X0275654Y0056754D01*
X0275536Y0056649D01*
X0275415Y0056547D01*
X0275292Y0056447D01*
X0275166Y0056351D01*
X0275038Y0056258D01*
X0274908Y0056168D01*
X0274775Y0056082D01*
X0274640Y0055998D01*
X0274504Y0055919D01*
X0274365Y0055842D01*
X0274224Y0055770D01*
X0274082Y0055700D01*
X0273938Y0055635D01*
X0273792Y0055573D01*
X0273645Y0055515D01*
X0273496Y0055460D01*
X0273346Y0055409D01*
X0273195Y0055362D01*
X0273043Y0055319D01*
X0272890Y0055280D01*
X0272735Y0055244D01*
X0272580Y0055213D01*
X0272424Y0055185D01*
X0272268Y0055161D01*
X0272111Y0055141D01*
X0271953Y0055125D01*
X0271796Y0055113D01*
X0271637Y0055105D01*
X0271479Y0055101D01*
X0271321Y0055101D01*
X0271163Y0055105D01*
X0271004Y0055113D01*
X0270847Y0055125D01*
X0270689Y0055141D01*
X0270532Y0055161D01*
X0270376Y0055185D01*
X0270220Y0055213D01*
X0270065Y0055244D01*
X0269910Y0055280D01*
X0269757Y0055319D01*
X0269605Y0055362D01*
X0269454Y0055409D01*
X0269304Y0055460D01*
X0269155Y0055515D01*
X0269008Y0055573D01*
X0268862Y0055635D01*
X0268718Y0055700D01*
X0268576Y0055770D01*
X0268435Y0055842D01*
X0268296Y0055919D01*
X0268160Y0055998D01*
X0268025Y0056082D01*
X0267892Y0056168D01*
X0267762Y0056258D01*
X0267634Y0056351D01*
X0267508Y0056447D01*
X0267385Y0056547D01*
X0267264Y0056649D01*
X0267146Y0056754D01*
X0267031Y0056863D01*
X0266918Y0056974D01*
X0266808Y0057088D01*
X0266701Y0057205D01*
X0266597Y0057324D01*
X0266496Y0057446D01*
X0266399Y0057571D01*
X0266304Y0057698D01*
X0266213Y0057827D01*
X0266124Y0057958D01*
X0266040Y0058092D01*
X0265958Y0058228D01*
X0265880Y0058365D01*
X0265806Y0058505D01*
X0265735Y0058647D01*
X0265667Y0058790D01*
X0265603Y0058935D01*
X0265543Y0059081D01*
X0265487Y0059229D01*
X0265434Y0059378D01*
X0265385Y0059529D01*
X0265340Y0059681D01*
X0265299Y0059834D01*
X0265261Y0059987D01*
X0265228Y0060142D01*
X0265198Y0060298D01*
X0265172Y0060454D01*
X0265151Y0060611D01*
X0265133Y0060768D01*
X0265119Y0060926D01*
X0265109Y0061084D01*
X0265103Y0061242D01*
X0265101Y0061400D01*
D15*
X0139400Y0166400D03*
X0143400Y0176400D03*
X0125400Y0166400D03*
D16*
X0139400Y0166400D01*
X0143400Y0176400D02*
X0143400Y0186400D01*
D17*
X0140414Y0171500D02*
X0138386Y0171500D01*
X0136696Y0170800D01*
X0128104Y0170800D01*
X0126414Y0171500D01*
X0124386Y0171500D01*
X0122511Y0170724D01*
X0121076Y0169289D01*
X0120300Y0167414D01*
X0120300Y0165386D01*
X0120708Y0164400D01*
X0112604Y0164400D01*
X0111134Y0163791D01*
X0110009Y0162666D01*
X0109400Y0161196D01*
X0109400Y0107525D01*
X0106510Y0108299D01*
X0103377Y0108299D01*
X0100350Y0107488D01*
X0097637Y0105922D01*
X0095422Y0103706D01*
X0093855Y0100993D01*
X0093044Y0097967D01*
X0093044Y0094833D01*
X0093855Y0091807D01*
X0095422Y0089094D01*
X0097637Y0086878D01*
X0100350Y0085312D01*
X0103377Y0084501D01*
X0106510Y0084501D01*
X0109400Y0085275D01*
X0109400Y0050050D01*
X0055050Y0050050D01*
X0055050Y0192356D01*
X0283970Y0192356D01*
X0283970Y0050050D01*
X0233400Y0050050D01*
X0233400Y0161196D01*
X0232791Y0162666D01*
X0231666Y0163791D01*
X0230196Y0164400D01*
X0144092Y0164400D01*
X0144500Y0165386D01*
X0144500Y0167414D01*
X0143724Y0169289D01*
X0142289Y0170724D01*
X0140414Y0171500D01*
X0141699Y0170968D02*
X0283970Y0170968D01*
X0283970Y0171766D02*
X0274010Y0171766D01*
X0273369Y0171501D02*
X0277007Y0173008D01*
X0279792Y0175793D01*
X0281299Y0179431D01*
X0281299Y0183369D01*
X0279792Y0187007D01*
X0277007Y0189792D01*
X0273369Y0191299D01*
X0269431Y0191299D01*
X0265793Y0189792D01*
X0263008Y0187007D01*
X0261501Y0183369D01*
X0261501Y0179431D01*
X0263008Y0175793D01*
X0265793Y0173008D01*
X0269431Y0171501D01*
X0273369Y0171501D01*
X0275938Y0172565D02*
X0283970Y0172565D01*
X0283970Y0173363D02*
X0277363Y0173363D01*
X0278161Y0174162D02*
X0283970Y0174162D01*
X0283970Y0174960D02*
X0278960Y0174960D01*
X0279758Y0175759D02*
X0283970Y0175759D01*
X0283970Y0176557D02*
X0280109Y0176557D01*
X0280440Y0177356D02*
X0283970Y0177356D01*
X0283970Y0178154D02*
X0280770Y0178154D01*
X0281101Y0178953D02*
X0283970Y0178953D01*
X0283970Y0179751D02*
X0281299Y0179751D01*
X0281299Y0180550D02*
X0283970Y0180550D01*
X0283970Y0181348D02*
X0281299Y0181348D01*
X0281299Y0182147D02*
X0283970Y0182147D01*
X0283970Y0182945D02*
X0281299Y0182945D01*
X0281144Y0183744D02*
X0283970Y0183744D01*
X0283970Y0184542D02*
X0280813Y0184542D01*
X0280482Y0185341D02*
X0283970Y0185341D01*
X0283970Y0186139D02*
X0280152Y0186139D01*
X0279821Y0186938D02*
X0283970Y0186938D01*
X0283970Y0187737D02*
X0279063Y0187737D01*
X0278265Y0188535D02*
X0283970Y0188535D01*
X0283970Y0189334D02*
X0277466Y0189334D01*
X0276187Y0190132D02*
X0283970Y0190132D01*
X0283970Y0190931D02*
X0274259Y0190931D01*
X0268541Y0190931D02*
X0069259Y0190931D01*
X0068369Y0191299D02*
X0064431Y0191299D01*
X0060793Y0189792D01*
X0058008Y0187007D01*
X0056501Y0183369D01*
X0056501Y0179431D01*
X0058008Y0175793D01*
X0060793Y0173008D01*
X0064431Y0171501D01*
X0068369Y0171501D01*
X0072007Y0173008D01*
X0074792Y0175793D01*
X0076299Y0179431D01*
X0076299Y0183369D01*
X0074792Y0187007D01*
X0072007Y0189792D01*
X0068369Y0191299D01*
X0071187Y0190132D02*
X0266613Y0190132D01*
X0265334Y0189334D02*
X0072466Y0189334D01*
X0073265Y0188535D02*
X0264535Y0188535D01*
X0263737Y0187737D02*
X0074063Y0187737D01*
X0074821Y0186938D02*
X0262979Y0186938D01*
X0262648Y0186139D02*
X0075152Y0186139D01*
X0075482Y0185341D02*
X0262318Y0185341D01*
X0261987Y0184542D02*
X0075813Y0184542D01*
X0076144Y0183744D02*
X0261656Y0183744D01*
X0261501Y0182945D02*
X0076299Y0182945D01*
X0076299Y0182147D02*
X0261501Y0182147D01*
X0261501Y0181348D02*
X0076299Y0181348D01*
X0076299Y0180550D02*
X0261501Y0180550D01*
X0261501Y0179751D02*
X0076299Y0179751D01*
X0076101Y0178953D02*
X0261699Y0178953D01*
X0262030Y0178154D02*
X0075770Y0178154D01*
X0075440Y0177356D02*
X0262360Y0177356D01*
X0262691Y0176557D02*
X0075109Y0176557D01*
X0074758Y0175759D02*
X0263042Y0175759D01*
X0263840Y0174960D02*
X0073960Y0174960D01*
X0073161Y0174162D02*
X0264639Y0174162D01*
X0265437Y0173363D02*
X0072363Y0173363D01*
X0070938Y0172565D02*
X0266862Y0172565D01*
X0268790Y0171766D02*
X0069010Y0171766D01*
X0063790Y0171766D02*
X0055050Y0171766D01*
X0055050Y0170968D02*
X0123101Y0170968D01*
X0121957Y0170169D02*
X0055050Y0170169D01*
X0055050Y0169371D02*
X0121158Y0169371D01*
X0120780Y0168572D02*
X0055050Y0168572D01*
X0055050Y0167774D02*
X0120449Y0167774D01*
X0120300Y0166975D02*
X0055050Y0166975D01*
X0055050Y0166177D02*
X0120300Y0166177D01*
X0120303Y0165378D02*
X0055050Y0165378D01*
X0055050Y0164580D02*
X0120634Y0164580D01*
X0113400Y0160400D02*
X0113400Y0104771D01*
X0114465Y0103706D01*
X0116032Y0100993D01*
X0116843Y0097967D01*
X0116843Y0094833D01*
X0116032Y0091807D01*
X0114465Y0089094D01*
X0113400Y0088029D01*
X0113400Y0050050D01*
X0229400Y0050050D01*
X0229400Y0160400D01*
X0113400Y0160400D01*
X0113400Y0159789D02*
X0229400Y0159789D01*
X0229400Y0158990D02*
X0113400Y0158990D01*
X0113400Y0158192D02*
X0229400Y0158192D01*
X0229400Y0157393D02*
X0113400Y0157393D01*
X0113400Y0156595D02*
X0229400Y0156595D01*
X0229400Y0155796D02*
X0113400Y0155796D01*
X0113400Y0154998D02*
X0229400Y0154998D01*
X0229400Y0154199D02*
X0113400Y0154199D01*
X0113400Y0153401D02*
X0229400Y0153401D01*
X0229400Y0152602D02*
X0113400Y0152602D01*
X0113400Y0151803D02*
X0229400Y0151803D01*
X0229400Y0151005D02*
X0113400Y0151005D01*
X0113400Y0150206D02*
X0229400Y0150206D01*
X0229400Y0149408D02*
X0113400Y0149408D01*
X0113400Y0148609D02*
X0229400Y0148609D01*
X0229400Y0147811D02*
X0113400Y0147811D01*
X0113400Y0147012D02*
X0229400Y0147012D01*
X0229400Y0146214D02*
X0113400Y0146214D01*
X0113400Y0145415D02*
X0229400Y0145415D01*
X0229400Y0144617D02*
X0113400Y0144617D01*
X0113400Y0143818D02*
X0229400Y0143818D01*
X0229400Y0143020D02*
X0113400Y0143020D01*
X0113400Y0142221D02*
X0229400Y0142221D01*
X0229400Y0141423D02*
X0113400Y0141423D01*
X0113400Y0140624D02*
X0229400Y0140624D01*
X0229400Y0139826D02*
X0113400Y0139826D01*
X0113400Y0139027D02*
X0229400Y0139027D01*
X0229400Y0138229D02*
X0113400Y0138229D01*
X0113400Y0137430D02*
X0229400Y0137430D01*
X0229400Y0136632D02*
X0113400Y0136632D01*
X0113400Y0135833D02*
X0229400Y0135833D01*
X0229400Y0135035D02*
X0113400Y0135035D01*
X0113400Y0134236D02*
X0229400Y0134236D01*
X0229400Y0133438D02*
X0113400Y0133438D01*
X0113400Y0132639D02*
X0229400Y0132639D01*
X0229400Y0131841D02*
X0113400Y0131841D01*
X0113400Y0131042D02*
X0229400Y0131042D01*
X0229400Y0130244D02*
X0113400Y0130244D01*
X0113400Y0129445D02*
X0229400Y0129445D01*
X0229400Y0128647D02*
X0113400Y0128647D01*
X0113400Y0127848D02*
X0229400Y0127848D01*
X0229400Y0127050D02*
X0113400Y0127050D01*
X0113400Y0126251D02*
X0229400Y0126251D01*
X0229400Y0125453D02*
X0113400Y0125453D01*
X0113400Y0124654D02*
X0229400Y0124654D01*
X0229400Y0123856D02*
X0113400Y0123856D01*
X0113400Y0123057D02*
X0229400Y0123057D01*
X0229400Y0122259D02*
X0113400Y0122259D01*
X0113400Y0121460D02*
X0229400Y0121460D01*
X0229400Y0120662D02*
X0113400Y0120662D01*
X0113400Y0119863D02*
X0229400Y0119863D01*
X0229400Y0119065D02*
X0113400Y0119065D01*
X0113400Y0118266D02*
X0229400Y0118266D01*
X0229400Y0117468D02*
X0113400Y0117468D01*
X0113400Y0116669D02*
X0229400Y0116669D01*
X0229400Y0115870D02*
X0113400Y0115870D01*
X0113400Y0115072D02*
X0229400Y0115072D01*
X0229400Y0114273D02*
X0113400Y0114273D01*
X0113400Y0113475D02*
X0229400Y0113475D01*
X0229400Y0112676D02*
X0113400Y0112676D01*
X0113400Y0111878D02*
X0229400Y0111878D01*
X0229400Y0111079D02*
X0113400Y0111079D01*
X0113400Y0110281D02*
X0229400Y0110281D01*
X0229400Y0109482D02*
X0113400Y0109482D01*
X0113400Y0108684D02*
X0229400Y0108684D01*
X0229400Y0107885D02*
X0113400Y0107885D01*
X0113400Y0107087D02*
X0229400Y0107087D01*
X0229400Y0106288D02*
X0113400Y0106288D01*
X0113400Y0105490D02*
X0229400Y0105490D01*
X0229400Y0104691D02*
X0113480Y0104691D01*
X0114278Y0103893D02*
X0229400Y0103893D01*
X0229400Y0103094D02*
X0114818Y0103094D01*
X0115279Y0102296D02*
X0229400Y0102296D01*
X0229400Y0101497D02*
X0115740Y0101497D01*
X0116110Y0100699D02*
X0229400Y0100699D01*
X0229400Y0099900D02*
X0116324Y0099900D01*
X0116538Y0099102D02*
X0229400Y0099102D01*
X0229400Y0098303D02*
X0116752Y0098303D01*
X0116843Y0097505D02*
X0229400Y0097505D01*
X0229400Y0096706D02*
X0116843Y0096706D01*
X0116843Y0095908D02*
X0229400Y0095908D01*
X0229400Y0095109D02*
X0116843Y0095109D01*
X0116702Y0094311D02*
X0229400Y0094311D01*
X0229400Y0093512D02*
X0116488Y0093512D01*
X0116275Y0092714D02*
X0229400Y0092714D01*
X0229400Y0091915D02*
X0116061Y0091915D01*
X0115633Y0091117D02*
X0229400Y0091117D01*
X0229400Y0090318D02*
X0115172Y0090318D01*
X0114711Y0089520D02*
X0229400Y0089520D01*
X0229400Y0088721D02*
X0114092Y0088721D01*
X0113400Y0087923D02*
X0229400Y0087923D01*
X0229400Y0087124D02*
X0113400Y0087124D01*
X0113400Y0086326D02*
X0229400Y0086326D01*
X0229400Y0085527D02*
X0113400Y0085527D01*
X0113400Y0084729D02*
X0229400Y0084729D01*
X0229400Y0083930D02*
X0113400Y0083930D01*
X0113400Y0083132D02*
X0229400Y0083132D01*
X0229400Y0082333D02*
X0113400Y0082333D01*
X0113400Y0081534D02*
X0229400Y0081534D01*
X0229400Y0080736D02*
X0113400Y0080736D01*
X0113400Y0079937D02*
X0229400Y0079937D01*
X0229400Y0079139D02*
X0113400Y0079139D01*
X0113400Y0078340D02*
X0229400Y0078340D01*
X0229400Y0077542D02*
X0113400Y0077542D01*
X0113400Y0076743D02*
X0229400Y0076743D01*
X0229400Y0075945D02*
X0113400Y0075945D01*
X0113400Y0075146D02*
X0229400Y0075146D01*
X0229400Y0074348D02*
X0113400Y0074348D01*
X0113400Y0073549D02*
X0229400Y0073549D01*
X0229400Y0072751D02*
X0113400Y0072751D01*
X0113400Y0071952D02*
X0229400Y0071952D01*
X0229400Y0071154D02*
X0113400Y0071154D01*
X0113400Y0070355D02*
X0229400Y0070355D01*
X0229400Y0069557D02*
X0113400Y0069557D01*
X0113400Y0068758D02*
X0229400Y0068758D01*
X0229400Y0067960D02*
X0113400Y0067960D01*
X0113400Y0067161D02*
X0229400Y0067161D01*
X0229400Y0066363D02*
X0113400Y0066363D01*
X0113400Y0065564D02*
X0229400Y0065564D01*
X0229400Y0064766D02*
X0113400Y0064766D01*
X0113400Y0063967D02*
X0229400Y0063967D01*
X0229400Y0063169D02*
X0113400Y0063169D01*
X0113400Y0062370D02*
X0229400Y0062370D01*
X0229400Y0061572D02*
X0113400Y0061572D01*
X0113400Y0060773D02*
X0229400Y0060773D01*
X0229400Y0059975D02*
X0113400Y0059975D01*
X0113400Y0059176D02*
X0229400Y0059176D01*
X0229400Y0058378D02*
X0113400Y0058378D01*
X0113400Y0057579D02*
X0229400Y0057579D01*
X0229400Y0056781D02*
X0113400Y0056781D01*
X0113400Y0055982D02*
X0229400Y0055982D01*
X0229400Y0055184D02*
X0113400Y0055184D01*
X0113400Y0054385D02*
X0229400Y0054385D01*
X0229400Y0053587D02*
X0113400Y0053587D01*
X0113400Y0052788D02*
X0229400Y0052788D01*
X0229400Y0051990D02*
X0113400Y0051990D01*
X0113400Y0051191D02*
X0229400Y0051191D01*
X0229400Y0050393D02*
X0113400Y0050393D01*
X0109400Y0050393D02*
X0055050Y0050393D01*
X0055050Y0051191D02*
X0109400Y0051191D01*
X0109400Y0051990D02*
X0069549Y0051990D01*
X0068369Y0051501D02*
X0072007Y0053008D01*
X0074792Y0055793D01*
X0076299Y0059431D01*
X0076299Y0063369D01*
X0074792Y0067007D01*
X0072007Y0069792D01*
X0068369Y0071299D01*
X0064431Y0071299D01*
X0060793Y0069792D01*
X0058008Y0067007D01*
X0056501Y0063369D01*
X0056501Y0059431D01*
X0058008Y0055793D01*
X0060793Y0053008D01*
X0064431Y0051501D01*
X0068369Y0051501D01*
X0071477Y0052788D02*
X0109400Y0052788D01*
X0109400Y0053587D02*
X0072586Y0053587D01*
X0073385Y0054385D02*
X0109400Y0054385D01*
X0109400Y0055184D02*
X0074183Y0055184D01*
X0074871Y0055982D02*
X0109400Y0055982D01*
X0109400Y0056781D02*
X0075201Y0056781D01*
X0075532Y0057579D02*
X0109400Y0057579D01*
X0109400Y0058378D02*
X0075863Y0058378D01*
X0076194Y0059176D02*
X0109400Y0059176D01*
X0109400Y0059975D02*
X0076299Y0059975D01*
X0076299Y0060773D02*
X0109400Y0060773D01*
X0109400Y0061572D02*
X0076299Y0061572D01*
X0076299Y0062370D02*
X0109400Y0062370D01*
X0109400Y0063169D02*
X0076299Y0063169D01*
X0076051Y0063967D02*
X0109400Y0063967D01*
X0109400Y0064766D02*
X0075721Y0064766D01*
X0075390Y0065564D02*
X0109400Y0065564D01*
X0109400Y0066363D02*
X0075059Y0066363D01*
X0074638Y0067161D02*
X0109400Y0067161D01*
X0109400Y0067960D02*
X0073840Y0067960D01*
X0073041Y0068758D02*
X0091923Y0068758D01*
X0091980Y0068743D02*
X0093139Y0068591D01*
X0093323Y0068591D01*
X0093323Y0077102D01*
X0094123Y0077102D01*
X0094123Y0068591D01*
X0094307Y0068591D01*
X0095465Y0068743D01*
X0096594Y0069045D01*
X0097673Y0069492D01*
X0098685Y0070077D01*
X0099611Y0070788D01*
X0100437Y0071614D01*
X0101149Y0072541D01*
X0101733Y0073552D01*
X0102180Y0074632D01*
X0102482Y0075760D01*
X0102635Y0076918D01*
X0102635Y0077102D01*
X0094123Y0077102D01*
X0094123Y0077902D01*
X0102635Y0077902D01*
X0102635Y0078086D01*
X0102482Y0079245D01*
X0102180Y0080373D01*
X0101733Y0081452D01*
X0101149Y0082464D01*
X0100437Y0083391D01*
X0099611Y0084217D01*
X0098685Y0084928D01*
X0097673Y0085512D01*
X0096594Y0085959D01*
X0095465Y0086262D01*
X0094307Y0086414D01*
X0094123Y0086414D01*
X0094123Y0077902D01*
X0093323Y0077902D01*
X0093323Y0077102D01*
X0084811Y0077102D01*
X0084811Y0076918D01*
X0084964Y0075760D01*
X0085266Y0074632D01*
X0085713Y0073552D01*
X0086297Y0072541D01*
X0087008Y0071614D01*
X0087834Y0070788D01*
X0088761Y0070077D01*
X0089773Y0069492D01*
X0090852Y0069045D01*
X0091980Y0068743D01*
X0093323Y0068758D02*
X0094123Y0068758D01*
X0094123Y0069557D02*
X0093323Y0069557D01*
X0093323Y0070355D02*
X0094123Y0070355D01*
X0094123Y0071154D02*
X0093323Y0071154D01*
X0093323Y0071952D02*
X0094123Y0071952D01*
X0094123Y0072751D02*
X0093323Y0072751D01*
X0093323Y0073549D02*
X0094123Y0073549D01*
X0094123Y0074348D02*
X0093323Y0074348D01*
X0093323Y0075146D02*
X0094123Y0075146D01*
X0094123Y0075945D02*
X0093323Y0075945D01*
X0093323Y0076743D02*
X0094123Y0076743D01*
X0094123Y0077542D02*
X0109400Y0077542D01*
X0109400Y0078340D02*
X0102601Y0078340D01*
X0102496Y0079139D02*
X0109400Y0079139D01*
X0109400Y0079937D02*
X0102297Y0079937D01*
X0102030Y0080736D02*
X0109400Y0080736D01*
X0109400Y0081534D02*
X0101685Y0081534D01*
X0101224Y0082333D02*
X0109400Y0082333D01*
X0109400Y0083132D02*
X0100637Y0083132D01*
X0099898Y0083930D02*
X0109400Y0083930D01*
X0109400Y0084729D02*
X0107360Y0084729D01*
X0102527Y0084729D02*
X0098945Y0084729D01*
X0099977Y0085527D02*
X0097637Y0085527D01*
X0098594Y0086326D02*
X0094980Y0086326D01*
X0094123Y0086326D02*
X0093323Y0086326D01*
X0093323Y0086414D02*
X0093139Y0086414D01*
X0091980Y0086262D01*
X0090852Y0085959D01*
X0089773Y0085512D01*
X0088761Y0084928D01*
X0087834Y0084217D01*
X0087008Y0083391D01*
X0086297Y0082464D01*
X0085713Y0081452D01*
X0085266Y0080373D01*
X0084964Y0079245D01*
X0084811Y0078086D01*
X0084811Y0077902D01*
X0093323Y0077902D01*
X0093323Y0086414D01*
X0092466Y0086326D02*
X0055050Y0086326D01*
X0055050Y0087124D02*
X0097391Y0087124D01*
X0096593Y0087923D02*
X0083131Y0087923D01*
X0083208Y0087943D02*
X0084287Y0088390D01*
X0085299Y0088974D01*
X0086226Y0089685D01*
X0087052Y0090511D01*
X0087763Y0091438D01*
X0088347Y0092450D01*
X0088794Y0093529D01*
X0089096Y0094658D01*
X0089249Y0095816D01*
X0089249Y0096000D01*
X0080737Y0096000D01*
X0080737Y0096800D01*
X0079937Y0096800D01*
X0079937Y0096000D01*
X0071425Y0096000D01*
X0071425Y0095816D01*
X0071578Y0094658D01*
X0071880Y0093529D01*
X0072327Y0092450D01*
X0072911Y0091438D01*
X0073622Y0090511D01*
X0074448Y0089685D01*
X0075375Y0088974D01*
X0076387Y0088390D01*
X0077466Y0087943D01*
X0078595Y0087641D01*
X0079753Y0087488D01*
X0079937Y0087488D01*
X0079937Y0096000D01*
X0080737Y0096000D01*
X0080737Y0087488D01*
X0080921Y0087488D01*
X0082079Y0087641D01*
X0083208Y0087943D01*
X0084860Y0088721D02*
X0095794Y0088721D01*
X0095176Y0089520D02*
X0086010Y0089520D01*
X0086858Y0090318D02*
X0094715Y0090318D01*
X0094254Y0091117D02*
X0087516Y0091117D01*
X0088038Y0091915D02*
X0093826Y0091915D01*
X0093612Y0092714D02*
X0088456Y0092714D01*
X0088787Y0093512D02*
X0093398Y0093512D01*
X0093184Y0094311D02*
X0089003Y0094311D01*
X0089156Y0095109D02*
X0093044Y0095109D01*
X0093044Y0095908D02*
X0089249Y0095908D01*
X0089249Y0096800D02*
X0089249Y0096984D01*
X0089096Y0098142D01*
X0088794Y0099271D01*
X0088347Y0100350D01*
X0087763Y0101362D01*
X0087052Y0102289D01*
X0086226Y0103115D01*
X0085299Y0103826D01*
X0084287Y0104410D01*
X0083208Y0104857D01*
X0082079Y0105159D01*
X0080921Y0105312D01*
X0080737Y0105312D01*
X0080737Y0096800D01*
X0089249Y0096800D01*
X0089180Y0097505D02*
X0093044Y0097505D01*
X0093044Y0096706D02*
X0080737Y0096706D01*
X0080737Y0095908D02*
X0079937Y0095908D01*
X0079937Y0096706D02*
X0055050Y0096706D01*
X0055050Y0095908D02*
X0071425Y0095908D01*
X0071518Y0095109D02*
X0055050Y0095109D01*
X0055050Y0094311D02*
X0071671Y0094311D01*
X0071887Y0093512D02*
X0055050Y0093512D01*
X0055050Y0092714D02*
X0072218Y0092714D01*
X0072636Y0091915D02*
X0055050Y0091915D01*
X0055050Y0091117D02*
X0073158Y0091117D01*
X0073816Y0090318D02*
X0055050Y0090318D01*
X0055050Y0089520D02*
X0074664Y0089520D01*
X0075814Y0088721D02*
X0055050Y0088721D01*
X0055050Y0087923D02*
X0077543Y0087923D01*
X0079937Y0087923D02*
X0080737Y0087923D01*
X0080737Y0088721D02*
X0079937Y0088721D01*
X0079937Y0089520D02*
X0080737Y0089520D01*
X0080737Y0090318D02*
X0079937Y0090318D01*
X0079937Y0091117D02*
X0080737Y0091117D01*
X0080737Y0091915D02*
X0079937Y0091915D01*
X0079937Y0092714D02*
X0080737Y0092714D01*
X0080737Y0093512D02*
X0079937Y0093512D01*
X0079937Y0094311D02*
X0080737Y0094311D01*
X0080737Y0095109D02*
X0079937Y0095109D01*
X0079937Y0096800D02*
X0071425Y0096800D01*
X0071425Y0096984D01*
X0071578Y0098142D01*
X0071880Y0099271D01*
X0072327Y0100350D01*
X0072911Y0101362D01*
X0073622Y0102289D01*
X0074448Y0103115D01*
X0075375Y0103826D01*
X0076387Y0104410D01*
X0077466Y0104857D01*
X0078595Y0105159D01*
X0079753Y0105312D01*
X0079937Y0105312D01*
X0079937Y0096800D01*
X0079937Y0097505D02*
X0080737Y0097505D01*
X0080737Y0098303D02*
X0079937Y0098303D01*
X0079937Y0099102D02*
X0080737Y0099102D01*
X0080737Y0099900D02*
X0079937Y0099900D01*
X0079937Y0100699D02*
X0080737Y0100699D01*
X0080737Y0101497D02*
X0079937Y0101497D01*
X0079937Y0102296D02*
X0080737Y0102296D01*
X0080737Y0103094D02*
X0079937Y0103094D01*
X0079937Y0103893D02*
X0080737Y0103893D01*
X0080737Y0104691D02*
X0079937Y0104691D01*
X0077066Y0104691D02*
X0055050Y0104691D01*
X0055050Y0103893D02*
X0075491Y0103893D01*
X0074428Y0103094D02*
X0055050Y0103094D01*
X0055050Y0102296D02*
X0073630Y0102296D01*
X0073015Y0101497D02*
X0055050Y0101497D01*
X0055050Y0100699D02*
X0072528Y0100699D01*
X0072141Y0099900D02*
X0055050Y0099900D01*
X0055050Y0099102D02*
X0071835Y0099102D01*
X0071621Y0098303D02*
X0055050Y0098303D01*
X0055050Y0097505D02*
X0071494Y0097505D01*
X0083608Y0104691D02*
X0096407Y0104691D01*
X0097205Y0105490D02*
X0055050Y0105490D01*
X0055050Y0106288D02*
X0098272Y0106288D01*
X0099655Y0107087D02*
X0055050Y0107087D01*
X0055050Y0107885D02*
X0101832Y0107885D01*
X0108054Y0107885D02*
X0109400Y0107885D01*
X0109400Y0108684D02*
X0055050Y0108684D01*
X0055050Y0109482D02*
X0109400Y0109482D01*
X0109400Y0110281D02*
X0055050Y0110281D01*
X0055050Y0111079D02*
X0109400Y0111079D01*
X0109400Y0111878D02*
X0055050Y0111878D01*
X0055050Y0112676D02*
X0109400Y0112676D01*
X0109400Y0113475D02*
X0055050Y0113475D01*
X0055050Y0114273D02*
X0109400Y0114273D01*
X0109400Y0115072D02*
X0055050Y0115072D01*
X0055050Y0115870D02*
X0109400Y0115870D01*
X0109400Y0116669D02*
X0055050Y0116669D01*
X0055050Y0117468D02*
X0109400Y0117468D01*
X0109400Y0118266D02*
X0055050Y0118266D01*
X0055050Y0119065D02*
X0109400Y0119065D01*
X0109400Y0119863D02*
X0055050Y0119863D01*
X0055050Y0120662D02*
X0109400Y0120662D01*
X0109400Y0121460D02*
X0055050Y0121460D01*
X0055050Y0122259D02*
X0109400Y0122259D01*
X0109400Y0123057D02*
X0078731Y0123057D01*
X0078111Y0122800D02*
X0081272Y0124109D01*
X0083691Y0126528D01*
X0085000Y0129689D01*
X0085000Y0133111D01*
X0083691Y0136272D01*
X0081272Y0138691D01*
X0078111Y0140000D01*
X0074689Y0140000D01*
X0071528Y0138691D01*
X0069109Y0136272D01*
X0067800Y0133111D01*
X0067800Y0129689D01*
X0069109Y0126528D01*
X0071528Y0124109D01*
X0074689Y0122800D01*
X0078111Y0122800D01*
X0080659Y0123856D02*
X0109400Y0123856D01*
X0109400Y0124654D02*
X0081816Y0124654D01*
X0082615Y0125453D02*
X0109400Y0125453D01*
X0109400Y0126251D02*
X0083413Y0126251D01*
X0083907Y0127050D02*
X0109400Y0127050D01*
X0109400Y0127848D02*
X0084237Y0127848D01*
X0084568Y0128647D02*
X0109400Y0128647D01*
X0109400Y0129445D02*
X0084899Y0129445D01*
X0085000Y0130244D02*
X0109400Y0130244D01*
X0109400Y0131042D02*
X0085000Y0131042D01*
X0085000Y0131841D02*
X0109400Y0131841D01*
X0109400Y0132639D02*
X0085000Y0132639D01*
X0084865Y0133438D02*
X0109400Y0133438D01*
X0109400Y0134236D02*
X0084534Y0134236D01*
X0084203Y0135035D02*
X0109400Y0135035D01*
X0109400Y0135833D02*
X0083872Y0135833D01*
X0083330Y0136632D02*
X0109400Y0136632D01*
X0109400Y0137430D02*
X0082532Y0137430D01*
X0081733Y0138229D02*
X0109400Y0138229D01*
X0109400Y0139027D02*
X0080459Y0139027D01*
X0078531Y0139826D02*
X0109400Y0139826D01*
X0109400Y0140624D02*
X0055050Y0140624D01*
X0055050Y0139826D02*
X0074269Y0139826D01*
X0072341Y0139027D02*
X0055050Y0139027D01*
X0055050Y0138229D02*
X0071067Y0138229D01*
X0070268Y0137430D02*
X0055050Y0137430D01*
X0055050Y0136632D02*
X0069470Y0136632D01*
X0068928Y0135833D02*
X0055050Y0135833D01*
X0055050Y0135035D02*
X0068597Y0135035D01*
X0068266Y0134236D02*
X0055050Y0134236D01*
X0055050Y0133438D02*
X0067935Y0133438D01*
X0067800Y0132639D02*
X0055050Y0132639D01*
X0055050Y0131841D02*
X0067800Y0131841D01*
X0067800Y0131042D02*
X0055050Y0131042D01*
X0055050Y0130244D02*
X0067800Y0130244D01*
X0067901Y0129445D02*
X0055050Y0129445D01*
X0055050Y0128647D02*
X0068232Y0128647D01*
X0068563Y0127848D02*
X0055050Y0127848D01*
X0055050Y0127050D02*
X0068893Y0127050D01*
X0069387Y0126251D02*
X0055050Y0126251D01*
X0055050Y0125453D02*
X0070185Y0125453D01*
X0070984Y0124654D02*
X0055050Y0124654D01*
X0055050Y0123856D02*
X0072141Y0123856D01*
X0074069Y0123057D02*
X0055050Y0123057D01*
X0055050Y0141423D02*
X0109400Y0141423D01*
X0109400Y0142221D02*
X0055050Y0142221D01*
X0055050Y0143020D02*
X0109400Y0143020D01*
X0109400Y0143818D02*
X0055050Y0143818D01*
X0055050Y0144617D02*
X0109400Y0144617D01*
X0109400Y0145415D02*
X0078676Y0145415D01*
X0078462Y0145327D02*
X0079237Y0145648D01*
X0079963Y0146067D01*
X0080629Y0146578D01*
X0081222Y0147171D01*
X0081733Y0147837D01*
X0082152Y0148563D01*
X0082473Y0149338D01*
X0082690Y0150149D01*
X0082800Y0150981D01*
X0082800Y0151000D01*
X0076800Y0151000D01*
X0076800Y0151800D01*
X0076000Y0151800D01*
X0076000Y0157800D01*
X0075981Y0157800D01*
X0075149Y0157690D01*
X0074338Y0157473D01*
X0073563Y0157152D01*
X0072837Y0156733D01*
X0072171Y0156222D01*
X0071578Y0155629D01*
X0071067Y0154963D01*
X0070648Y0154237D01*
X0070327Y0153462D01*
X0070110Y0152651D01*
X0070000Y0151819D01*
X0070000Y0151800D01*
X0076000Y0151800D01*
X0076000Y0151000D01*
X0070000Y0151000D01*
X0070000Y0150981D01*
X0070110Y0150149D01*
X0070327Y0149338D01*
X0070648Y0148563D01*
X0071067Y0147837D01*
X0071578Y0147171D01*
X0072171Y0146578D01*
X0072837Y0146067D01*
X0073563Y0145648D01*
X0074338Y0145327D01*
X0075149Y0145110D01*
X0075981Y0145000D01*
X0076000Y0145000D01*
X0076000Y0151000D01*
X0076800Y0151000D01*
X0076800Y0145000D01*
X0076819Y0145000D01*
X0077651Y0145110D01*
X0078462Y0145327D01*
X0076800Y0145415D02*
X0076000Y0145415D01*
X0076000Y0146214D02*
X0076800Y0146214D01*
X0076800Y0147012D02*
X0076000Y0147012D01*
X0076000Y0147811D02*
X0076800Y0147811D01*
X0076800Y0148609D02*
X0076000Y0148609D01*
X0076000Y0149408D02*
X0076800Y0149408D01*
X0076800Y0150206D02*
X0076000Y0150206D01*
X0076000Y0151005D02*
X0055050Y0151005D01*
X0055050Y0151803D02*
X0070000Y0151803D01*
X0070103Y0152602D02*
X0055050Y0152602D01*
X0055050Y0153401D02*
X0070310Y0153401D01*
X0070632Y0154199D02*
X0055050Y0154199D01*
X0055050Y0154998D02*
X0071093Y0154998D01*
X0071745Y0155796D02*
X0055050Y0155796D01*
X0055050Y0156595D02*
X0072657Y0156595D01*
X0074145Y0157393D02*
X0055050Y0157393D01*
X0055050Y0158192D02*
X0109400Y0158192D01*
X0109400Y0158990D02*
X0055050Y0158990D01*
X0055050Y0159789D02*
X0109400Y0159789D01*
X0109400Y0160587D02*
X0055050Y0160587D01*
X0055050Y0161386D02*
X0109479Y0161386D01*
X0109809Y0162184D02*
X0055050Y0162184D01*
X0055050Y0162983D02*
X0110326Y0162983D01*
X0111124Y0163781D02*
X0055050Y0163781D01*
X0055050Y0172565D02*
X0061862Y0172565D01*
X0060437Y0173363D02*
X0055050Y0173363D01*
X0055050Y0174162D02*
X0059639Y0174162D01*
X0058840Y0174960D02*
X0055050Y0174960D01*
X0055050Y0175759D02*
X0058042Y0175759D01*
X0057691Y0176557D02*
X0055050Y0176557D01*
X0055050Y0177356D02*
X0057360Y0177356D01*
X0057030Y0178154D02*
X0055050Y0178154D01*
X0055050Y0178953D02*
X0056699Y0178953D01*
X0056501Y0179751D02*
X0055050Y0179751D01*
X0055050Y0180550D02*
X0056501Y0180550D01*
X0056501Y0181348D02*
X0055050Y0181348D01*
X0055050Y0182147D02*
X0056501Y0182147D01*
X0056501Y0182945D02*
X0055050Y0182945D01*
X0055050Y0183744D02*
X0056656Y0183744D01*
X0056987Y0184542D02*
X0055050Y0184542D01*
X0055050Y0185341D02*
X0057318Y0185341D01*
X0057648Y0186139D02*
X0055050Y0186139D01*
X0055050Y0186938D02*
X0057979Y0186938D01*
X0058737Y0187737D02*
X0055050Y0187737D01*
X0055050Y0188535D02*
X0059535Y0188535D01*
X0060334Y0189334D02*
X0055050Y0189334D01*
X0055050Y0190132D02*
X0061613Y0190132D01*
X0063541Y0190931D02*
X0055050Y0190931D01*
X0055050Y0191729D02*
X0283970Y0191729D01*
X0283970Y0170169D02*
X0142843Y0170169D01*
X0143642Y0169371D02*
X0283970Y0169371D01*
X0283970Y0168572D02*
X0144020Y0168572D01*
X0144351Y0167774D02*
X0283970Y0167774D01*
X0283970Y0166975D02*
X0144500Y0166975D01*
X0144500Y0166177D02*
X0283970Y0166177D01*
X0283970Y0165378D02*
X0144497Y0165378D01*
X0144166Y0164580D02*
X0257675Y0164580D01*
X0258689Y0165000D02*
X0255528Y0163691D01*
X0253109Y0161272D01*
X0251800Y0158111D01*
X0251800Y0154689D01*
X0253109Y0151528D01*
X0255528Y0149109D01*
X0258689Y0147800D01*
X0262111Y0147800D01*
X0265272Y0149109D01*
X0267691Y0151528D01*
X0269000Y0154689D01*
X0269000Y0158111D01*
X0267691Y0161272D01*
X0265272Y0163691D01*
X0262111Y0165000D01*
X0258689Y0165000D01*
X0255747Y0163781D02*
X0231676Y0163781D01*
X0232474Y0162983D02*
X0254820Y0162983D01*
X0254022Y0162184D02*
X0232991Y0162184D01*
X0233321Y0161386D02*
X0253223Y0161386D01*
X0252826Y0160587D02*
X0233400Y0160587D01*
X0233400Y0159789D02*
X0252495Y0159789D01*
X0252164Y0158990D02*
X0233400Y0158990D01*
X0233400Y0158192D02*
X0251834Y0158192D01*
X0251800Y0157393D02*
X0233400Y0157393D01*
X0233400Y0156595D02*
X0251800Y0156595D01*
X0251800Y0155796D02*
X0233400Y0155796D01*
X0233400Y0154998D02*
X0251800Y0154998D01*
X0252003Y0154199D02*
X0233400Y0154199D01*
X0233400Y0153401D02*
X0252334Y0153401D01*
X0252665Y0152602D02*
X0233400Y0152602D01*
X0233400Y0151803D02*
X0252995Y0151803D01*
X0253633Y0151005D02*
X0233400Y0151005D01*
X0233400Y0150206D02*
X0254431Y0150206D01*
X0255230Y0149408D02*
X0233400Y0149408D01*
X0233400Y0148609D02*
X0256735Y0148609D01*
X0258663Y0147811D02*
X0233400Y0147811D01*
X0233400Y0147012D02*
X0283970Y0147012D01*
X0283970Y0146214D02*
X0233400Y0146214D01*
X0233400Y0145415D02*
X0283970Y0145415D01*
X0283970Y0144617D02*
X0233400Y0144617D01*
X0233400Y0143818D02*
X0283970Y0143818D01*
X0283970Y0143020D02*
X0233400Y0143020D01*
X0233400Y0142221D02*
X0257730Y0142221D01*
X0257563Y0142152D02*
X0256837Y0141733D01*
X0256171Y0141222D01*
X0255578Y0140629D01*
X0255067Y0139963D01*
X0254648Y0139237D01*
X0254327Y0138462D01*
X0254110Y0137651D01*
X0254000Y0136819D01*
X0254000Y0136800D01*
X0260000Y0136800D01*
X0260000Y0142800D01*
X0259981Y0142800D01*
X0259149Y0142690D01*
X0258338Y0142473D01*
X0257563Y0142152D01*
X0256433Y0141423D02*
X0233400Y0141423D01*
X0233400Y0140624D02*
X0255574Y0140624D01*
X0254988Y0139826D02*
X0233400Y0139826D01*
X0233400Y0139027D02*
X0254561Y0139027D01*
X0254264Y0138229D02*
X0233400Y0138229D01*
X0233400Y0137430D02*
X0254080Y0137430D01*
X0254000Y0136000D02*
X0254000Y0135981D01*
X0254110Y0135149D01*
X0254327Y0134338D01*
X0254648Y0133563D01*
X0255067Y0132837D01*
X0255578Y0132171D01*
X0256171Y0131578D01*
X0256837Y0131067D01*
X0257563Y0130648D01*
X0258338Y0130327D01*
X0259149Y0130110D01*
X0259981Y0130000D01*
X0260000Y0130000D01*
X0260000Y0136000D01*
X0254000Y0136000D01*
X0254019Y0135833D02*
X0233400Y0135833D01*
X0233400Y0135035D02*
X0254140Y0135035D01*
X0254369Y0134236D02*
X0233400Y0134236D01*
X0233400Y0133438D02*
X0254720Y0133438D01*
X0255219Y0132639D02*
X0233400Y0132639D01*
X0233400Y0131841D02*
X0255908Y0131841D01*
X0256880Y0131042D02*
X0233400Y0131042D01*
X0233400Y0130244D02*
X0258648Y0130244D01*
X0260000Y0130244D02*
X0260800Y0130244D01*
X0260800Y0130000D02*
X0260819Y0130000D01*
X0261651Y0130110D01*
X0262462Y0130327D01*
X0263237Y0130648D01*
X0263963Y0131067D01*
X0264629Y0131578D01*
X0265222Y0132171D01*
X0265733Y0132837D01*
X0266152Y0133563D01*
X0266473Y0134338D01*
X0266690Y0135149D01*
X0266800Y0135981D01*
X0266800Y0136000D01*
X0260800Y0136000D01*
X0260800Y0136800D01*
X0260000Y0136800D01*
X0260000Y0136000D01*
X0260800Y0136000D01*
X0260800Y0130000D01*
X0260800Y0131042D02*
X0260000Y0131042D01*
X0260000Y0131841D02*
X0260800Y0131841D01*
X0260800Y0132639D02*
X0260000Y0132639D01*
X0260000Y0133438D02*
X0260800Y0133438D01*
X0260800Y0134236D02*
X0260000Y0134236D01*
X0260000Y0135035D02*
X0260800Y0135035D01*
X0260800Y0135833D02*
X0260000Y0135833D01*
X0260000Y0136632D02*
X0233400Y0136632D01*
X0233400Y0129445D02*
X0283970Y0129445D01*
X0283970Y0128647D02*
X0233400Y0128647D01*
X0233400Y0127848D02*
X0283970Y0127848D01*
X0283970Y0127050D02*
X0233400Y0127050D01*
X0233400Y0126251D02*
X0283970Y0126251D01*
X0283970Y0125453D02*
X0233400Y0125453D01*
X0233400Y0124654D02*
X0283970Y0124654D01*
X0283970Y0123856D02*
X0233400Y0123856D01*
X0233400Y0123057D02*
X0283970Y0123057D01*
X0283970Y0122259D02*
X0233400Y0122259D01*
X0233400Y0121460D02*
X0283970Y0121460D01*
X0283970Y0120662D02*
X0233400Y0120662D01*
X0233400Y0119863D02*
X0283970Y0119863D01*
X0283970Y0119065D02*
X0233400Y0119065D01*
X0233400Y0118266D02*
X0283970Y0118266D01*
X0283970Y0117468D02*
X0233400Y0117468D01*
X0233400Y0116669D02*
X0283970Y0116669D01*
X0283970Y0115870D02*
X0233400Y0115870D01*
X0233400Y0115072D02*
X0283970Y0115072D01*
X0283970Y0114273D02*
X0263865Y0114273D01*
X0265272Y0113691D02*
X0262111Y0115000D01*
X0258689Y0115000D01*
X0255528Y0113691D01*
X0253109Y0111272D01*
X0251800Y0108111D01*
X0251800Y0104689D01*
X0253109Y0101528D01*
X0255528Y0099109D01*
X0258689Y0097800D01*
X0262111Y0097800D01*
X0265272Y0099109D01*
X0267691Y0101528D01*
X0269000Y0104689D01*
X0269000Y0108111D01*
X0267691Y0111272D01*
X0265272Y0113691D01*
X0265487Y0113475D02*
X0283970Y0113475D01*
X0283970Y0112676D02*
X0266286Y0112676D01*
X0267084Y0111878D02*
X0283970Y0111878D01*
X0283970Y0111079D02*
X0267770Y0111079D01*
X0268101Y0110281D02*
X0283970Y0110281D01*
X0283970Y0109482D02*
X0268432Y0109482D01*
X0268763Y0108684D02*
X0283970Y0108684D01*
X0283970Y0107885D02*
X0269000Y0107885D01*
X0269000Y0107087D02*
X0283970Y0107087D01*
X0283970Y0106288D02*
X0269000Y0106288D01*
X0269000Y0105490D02*
X0283970Y0105490D01*
X0283970Y0104691D02*
X0269000Y0104691D01*
X0268670Y0103893D02*
X0283970Y0103893D01*
X0283970Y0103094D02*
X0268339Y0103094D01*
X0268009Y0102296D02*
X0283970Y0102296D01*
X0283970Y0101497D02*
X0267660Y0101497D01*
X0266861Y0100699D02*
X0283970Y0100699D01*
X0283970Y0099900D02*
X0266063Y0099900D01*
X0265253Y0099102D02*
X0283970Y0099102D01*
X0283970Y0098303D02*
X0263326Y0098303D01*
X0257474Y0098303D02*
X0233400Y0098303D01*
X0233400Y0097505D02*
X0283970Y0097505D01*
X0283970Y0096706D02*
X0233400Y0096706D01*
X0233400Y0095908D02*
X0283970Y0095908D01*
X0283970Y0095109D02*
X0233400Y0095109D01*
X0233400Y0094311D02*
X0283970Y0094311D01*
X0283970Y0093512D02*
X0233400Y0093512D01*
X0233400Y0092714D02*
X0259325Y0092714D01*
X0259149Y0092690D02*
X0258338Y0092473D01*
X0257563Y0092152D01*
X0256837Y0091733D01*
X0256171Y0091222D01*
X0255578Y0090629D01*
X0255067Y0089963D01*
X0254648Y0089237D01*
X0254327Y0088462D01*
X0254110Y0087651D01*
X0254000Y0086819D01*
X0254000Y0086800D01*
X0260000Y0086800D01*
X0260000Y0092800D01*
X0259981Y0092800D01*
X0259149Y0092690D01*
X0260000Y0092714D02*
X0260800Y0092714D01*
X0260800Y0092800D02*
X0260800Y0086800D01*
X0260000Y0086800D01*
X0260000Y0086000D01*
X0254000Y0086000D01*
X0254000Y0085981D01*
X0254110Y0085149D01*
X0254327Y0084338D01*
X0254648Y0083563D01*
X0255067Y0082837D01*
X0255578Y0082171D01*
X0256171Y0081578D01*
X0256837Y0081067D01*
X0257563Y0080648D01*
X0258338Y0080327D01*
X0259149Y0080110D01*
X0259981Y0080000D01*
X0260000Y0080000D01*
X0260000Y0086000D01*
X0260800Y0086000D01*
X0260800Y0086800D01*
X0266800Y0086800D01*
X0266800Y0086819D01*
X0266690Y0087651D01*
X0266473Y0088462D01*
X0266152Y0089237D01*
X0265733Y0089963D01*
X0265222Y0090629D01*
X0264629Y0091222D01*
X0263963Y0091733D01*
X0263237Y0092152D01*
X0262462Y0092473D01*
X0261651Y0092690D01*
X0260819Y0092800D01*
X0260800Y0092800D01*
X0261475Y0092714D02*
X0283970Y0092714D01*
X0283970Y0091915D02*
X0263647Y0091915D01*
X0264734Y0091117D02*
X0283970Y0091117D01*
X0283970Y0090318D02*
X0265461Y0090318D01*
X0265989Y0089520D02*
X0283970Y0089520D01*
X0283970Y0088721D02*
X0266366Y0088721D01*
X0266618Y0087923D02*
X0283970Y0087923D01*
X0283970Y0087124D02*
X0266760Y0087124D01*
X0266800Y0086000D02*
X0260800Y0086000D01*
X0260800Y0080000D01*
X0260819Y0080000D01*
X0261651Y0080110D01*
X0262462Y0080327D01*
X0263237Y0080648D01*
X0263963Y0081067D01*
X0264629Y0081578D01*
X0265222Y0082171D01*
X0265733Y0082837D01*
X0266152Y0083563D01*
X0266473Y0084338D01*
X0266690Y0085149D01*
X0266800Y0085981D01*
X0266800Y0086000D01*
X0266740Y0085527D02*
X0283970Y0085527D01*
X0283970Y0084729D02*
X0266578Y0084729D01*
X0266304Y0083930D02*
X0283970Y0083930D01*
X0283970Y0083132D02*
X0265903Y0083132D01*
X0265346Y0082333D02*
X0283970Y0082333D01*
X0283970Y0081534D02*
X0264572Y0081534D01*
X0263390Y0080736D02*
X0283970Y0080736D01*
X0283970Y0079937D02*
X0233400Y0079937D01*
X0233400Y0079139D02*
X0283970Y0079139D01*
X0283970Y0078340D02*
X0233400Y0078340D01*
X0233400Y0077542D02*
X0283970Y0077542D01*
X0283970Y0076743D02*
X0233400Y0076743D01*
X0233400Y0075945D02*
X0283970Y0075945D01*
X0283970Y0075146D02*
X0233400Y0075146D01*
X0233400Y0074348D02*
X0283970Y0074348D01*
X0283970Y0073549D02*
X0233400Y0073549D01*
X0233400Y0072751D02*
X0283970Y0072751D01*
X0283970Y0071952D02*
X0233400Y0071952D01*
X0233400Y0071154D02*
X0269080Y0071154D01*
X0269431Y0071299D02*
X0265793Y0069792D01*
X0263008Y0067007D01*
X0261501Y0063369D01*
X0261501Y0059431D01*
X0263008Y0055793D01*
X0265793Y0053008D01*
X0269431Y0051501D01*
X0273369Y0051501D01*
X0277007Y0053008D01*
X0279792Y0055793D01*
X0281299Y0059431D01*
X0281299Y0063369D01*
X0279792Y0067007D01*
X0277007Y0069792D01*
X0273369Y0071299D01*
X0269431Y0071299D01*
X0267152Y0070355D02*
X0233400Y0070355D01*
X0233400Y0069557D02*
X0265557Y0069557D01*
X0264759Y0068758D02*
X0233400Y0068758D01*
X0233400Y0067960D02*
X0263960Y0067960D01*
X0263162Y0067161D02*
X0233400Y0067161D01*
X0233400Y0066363D02*
X0262741Y0066363D01*
X0262410Y0065564D02*
X0233400Y0065564D01*
X0233400Y0064766D02*
X0262079Y0064766D01*
X0261749Y0063967D02*
X0233400Y0063967D01*
X0233400Y0063169D02*
X0261501Y0063169D01*
X0261501Y0062370D02*
X0233400Y0062370D01*
X0233400Y0061572D02*
X0261501Y0061572D01*
X0261501Y0060773D02*
X0233400Y0060773D01*
X0233400Y0059975D02*
X0261501Y0059975D01*
X0261606Y0059176D02*
X0233400Y0059176D01*
X0233400Y0058378D02*
X0261937Y0058378D01*
X0262268Y0057579D02*
X0233400Y0057579D01*
X0233400Y0056781D02*
X0262599Y0056781D01*
X0262929Y0055982D02*
X0233400Y0055982D01*
X0233400Y0055184D02*
X0263617Y0055184D01*
X0264415Y0054385D02*
X0233400Y0054385D01*
X0233400Y0053587D02*
X0265214Y0053587D01*
X0266323Y0052788D02*
X0233400Y0052788D01*
X0233400Y0051990D02*
X0268251Y0051990D01*
X0274549Y0051990D02*
X0283970Y0051990D01*
X0283970Y0052788D02*
X0276477Y0052788D01*
X0277586Y0053587D02*
X0283970Y0053587D01*
X0283970Y0054385D02*
X0278385Y0054385D01*
X0279183Y0055184D02*
X0283970Y0055184D01*
X0283970Y0055982D02*
X0279871Y0055982D01*
X0280201Y0056781D02*
X0283970Y0056781D01*
X0283970Y0057579D02*
X0280532Y0057579D01*
X0280863Y0058378D02*
X0283970Y0058378D01*
X0283970Y0059176D02*
X0281194Y0059176D01*
X0281299Y0059975D02*
X0283970Y0059975D01*
X0283970Y0060773D02*
X0281299Y0060773D01*
X0281299Y0061572D02*
X0283970Y0061572D01*
X0283970Y0062370D02*
X0281299Y0062370D01*
X0281299Y0063169D02*
X0283970Y0063169D01*
X0283970Y0063967D02*
X0281051Y0063967D01*
X0280721Y0064766D02*
X0283970Y0064766D01*
X0283970Y0065564D02*
X0280390Y0065564D01*
X0280059Y0066363D02*
X0283970Y0066363D01*
X0283970Y0067161D02*
X0279638Y0067161D01*
X0278840Y0067960D02*
X0283970Y0067960D01*
X0283970Y0068758D02*
X0278041Y0068758D01*
X0277243Y0069557D02*
X0283970Y0069557D01*
X0283970Y0070355D02*
X0275648Y0070355D01*
X0273720Y0071154D02*
X0283970Y0071154D01*
X0283970Y0086326D02*
X0260800Y0086326D01*
X0260800Y0087124D02*
X0260000Y0087124D01*
X0260000Y0086326D02*
X0233400Y0086326D01*
X0233400Y0087124D02*
X0254040Y0087124D01*
X0254182Y0087923D02*
X0233400Y0087923D01*
X0233400Y0088721D02*
X0254434Y0088721D01*
X0254811Y0089520D02*
X0233400Y0089520D01*
X0233400Y0090318D02*
X0255339Y0090318D01*
X0256066Y0091117D02*
X0233400Y0091117D01*
X0233400Y0091915D02*
X0257153Y0091915D01*
X0260000Y0091915D02*
X0260800Y0091915D01*
X0260800Y0091117D02*
X0260000Y0091117D01*
X0260000Y0090318D02*
X0260800Y0090318D01*
X0260800Y0089520D02*
X0260000Y0089520D01*
X0260000Y0088721D02*
X0260800Y0088721D01*
X0260800Y0087923D02*
X0260000Y0087923D01*
X0260000Y0085527D02*
X0260800Y0085527D01*
X0260800Y0084729D02*
X0260000Y0084729D01*
X0260000Y0083930D02*
X0260800Y0083930D01*
X0260800Y0083132D02*
X0260000Y0083132D01*
X0260000Y0082333D02*
X0260800Y0082333D01*
X0260800Y0081534D02*
X0260000Y0081534D01*
X0260000Y0080736D02*
X0260800Y0080736D01*
X0257410Y0080736D02*
X0233400Y0080736D01*
X0233400Y0081534D02*
X0256228Y0081534D01*
X0255454Y0082333D02*
X0233400Y0082333D01*
X0233400Y0083132D02*
X0254897Y0083132D01*
X0254496Y0083930D02*
X0233400Y0083930D01*
X0233400Y0084729D02*
X0254222Y0084729D01*
X0254060Y0085527D02*
X0233400Y0085527D01*
X0233400Y0099102D02*
X0255547Y0099102D01*
X0254737Y0099900D02*
X0233400Y0099900D01*
X0233400Y0100699D02*
X0253939Y0100699D01*
X0253140Y0101497D02*
X0233400Y0101497D01*
X0233400Y0102296D02*
X0252791Y0102296D01*
X0252461Y0103094D02*
X0233400Y0103094D01*
X0233400Y0103893D02*
X0252130Y0103893D01*
X0251800Y0104691D02*
X0233400Y0104691D01*
X0233400Y0105490D02*
X0251800Y0105490D01*
X0251800Y0106288D02*
X0233400Y0106288D01*
X0233400Y0107087D02*
X0251800Y0107087D01*
X0251800Y0107885D02*
X0233400Y0107885D01*
X0233400Y0108684D02*
X0252037Y0108684D01*
X0252368Y0109482D02*
X0233400Y0109482D01*
X0233400Y0110281D02*
X0252699Y0110281D01*
X0253030Y0111079D02*
X0233400Y0111079D01*
X0233400Y0111878D02*
X0253716Y0111878D01*
X0254514Y0112676D02*
X0233400Y0112676D01*
X0233400Y0113475D02*
X0255313Y0113475D01*
X0256935Y0114273D02*
X0233400Y0114273D01*
X0262152Y0130244D02*
X0283970Y0130244D01*
X0283970Y0131042D02*
X0263920Y0131042D01*
X0264892Y0131841D02*
X0283970Y0131841D01*
X0283970Y0132639D02*
X0265581Y0132639D01*
X0266080Y0133438D02*
X0283970Y0133438D01*
X0283970Y0134236D02*
X0266431Y0134236D01*
X0266660Y0135035D02*
X0283970Y0135035D01*
X0283970Y0135833D02*
X0266781Y0135833D01*
X0266800Y0136800D02*
X0266800Y0136819D01*
X0266690Y0137651D01*
X0266473Y0138462D01*
X0266152Y0139237D01*
X0265733Y0139963D01*
X0265222Y0140629D01*
X0264629Y0141222D01*
X0263963Y0141733D01*
X0263237Y0142152D01*
X0262462Y0142473D01*
X0261651Y0142690D01*
X0260819Y0142800D01*
X0260800Y0142800D01*
X0260800Y0136800D01*
X0266800Y0136800D01*
X0266720Y0137430D02*
X0283970Y0137430D01*
X0283970Y0136632D02*
X0260800Y0136632D01*
X0260800Y0137430D02*
X0260000Y0137430D01*
X0260000Y0138229D02*
X0260800Y0138229D01*
X0260800Y0139027D02*
X0260000Y0139027D01*
X0260000Y0139826D02*
X0260800Y0139826D01*
X0260800Y0140624D02*
X0260000Y0140624D01*
X0260000Y0141423D02*
X0260800Y0141423D01*
X0260800Y0142221D02*
X0260000Y0142221D01*
X0263070Y0142221D02*
X0283970Y0142221D01*
X0283970Y0141423D02*
X0264367Y0141423D01*
X0265226Y0140624D02*
X0283970Y0140624D01*
X0283970Y0139826D02*
X0265812Y0139826D01*
X0266239Y0139027D02*
X0283970Y0139027D01*
X0283970Y0138229D02*
X0266536Y0138229D01*
X0262137Y0147811D02*
X0283970Y0147811D01*
X0283970Y0148609D02*
X0264065Y0148609D01*
X0265570Y0149408D02*
X0283970Y0149408D01*
X0283970Y0150206D02*
X0266369Y0150206D01*
X0267167Y0151005D02*
X0283970Y0151005D01*
X0283970Y0151803D02*
X0267805Y0151803D01*
X0268135Y0152602D02*
X0283970Y0152602D01*
X0283970Y0153401D02*
X0268466Y0153401D01*
X0268797Y0154199D02*
X0283970Y0154199D01*
X0283970Y0154998D02*
X0269000Y0154998D01*
X0269000Y0155796D02*
X0283970Y0155796D01*
X0283970Y0156595D02*
X0269000Y0156595D01*
X0269000Y0157393D02*
X0283970Y0157393D01*
X0283970Y0158192D02*
X0268966Y0158192D01*
X0268636Y0158990D02*
X0283970Y0158990D01*
X0283970Y0159789D02*
X0268305Y0159789D01*
X0267974Y0160587D02*
X0283970Y0160587D01*
X0283970Y0161386D02*
X0267577Y0161386D01*
X0266778Y0162184D02*
X0283970Y0162184D01*
X0283970Y0162983D02*
X0265980Y0162983D01*
X0265053Y0163781D02*
X0283970Y0163781D01*
X0283970Y0164580D02*
X0263125Y0164580D01*
X0137101Y0170968D02*
X0127699Y0170968D01*
X0109400Y0157393D02*
X0078655Y0157393D01*
X0078462Y0157473D02*
X0077651Y0157690D01*
X0076819Y0157800D01*
X0076800Y0157800D01*
X0076800Y0151800D01*
X0082800Y0151800D01*
X0082800Y0151819D01*
X0082690Y0152651D01*
X0082473Y0153462D01*
X0082152Y0154237D01*
X0081733Y0154963D01*
X0081222Y0155629D01*
X0080629Y0156222D01*
X0079963Y0156733D01*
X0079237Y0157152D01*
X0078462Y0157473D01*
X0076800Y0157393D02*
X0076000Y0157393D01*
X0076000Y0156595D02*
X0076800Y0156595D01*
X0076800Y0155796D02*
X0076000Y0155796D01*
X0076000Y0154998D02*
X0076800Y0154998D01*
X0076800Y0154199D02*
X0076000Y0154199D01*
X0076000Y0153401D02*
X0076800Y0153401D01*
X0076800Y0152602D02*
X0076000Y0152602D01*
X0076000Y0151803D02*
X0076800Y0151803D01*
X0076800Y0151005D02*
X0109400Y0151005D01*
X0109400Y0151803D02*
X0082800Y0151803D01*
X0082697Y0152602D02*
X0109400Y0152602D01*
X0109400Y0153401D02*
X0082490Y0153401D01*
X0082168Y0154199D02*
X0109400Y0154199D01*
X0109400Y0154998D02*
X0081707Y0154998D01*
X0081055Y0155796D02*
X0109400Y0155796D01*
X0109400Y0156595D02*
X0080143Y0156595D01*
X0082698Y0150206D02*
X0109400Y0150206D01*
X0109400Y0149408D02*
X0082492Y0149408D01*
X0082171Y0148609D02*
X0109400Y0148609D01*
X0109400Y0147811D02*
X0081713Y0147811D01*
X0081063Y0147012D02*
X0109400Y0147012D01*
X0109400Y0146214D02*
X0080155Y0146214D01*
X0074124Y0145415D02*
X0055050Y0145415D01*
X0055050Y0146214D02*
X0072645Y0146214D01*
X0071737Y0147012D02*
X0055050Y0147012D01*
X0055050Y0147811D02*
X0071087Y0147811D01*
X0070629Y0148609D02*
X0055050Y0148609D01*
X0055050Y0149408D02*
X0070308Y0149408D01*
X0070102Y0150206D02*
X0055050Y0150206D01*
X0085183Y0103893D02*
X0095608Y0103893D01*
X0095068Y0103094D02*
X0086246Y0103094D01*
X0087044Y0102296D02*
X0094607Y0102296D01*
X0094146Y0101497D02*
X0087659Y0101497D01*
X0088146Y0100699D02*
X0093776Y0100699D01*
X0093562Y0099900D02*
X0088533Y0099900D01*
X0088839Y0099102D02*
X0093348Y0099102D01*
X0093134Y0098303D02*
X0089053Y0098303D01*
X0089808Y0085527D02*
X0055050Y0085527D01*
X0055050Y0084729D02*
X0088501Y0084729D01*
X0087547Y0083930D02*
X0055050Y0083930D01*
X0055050Y0083132D02*
X0086809Y0083132D01*
X0086221Y0082333D02*
X0055050Y0082333D01*
X0055050Y0081534D02*
X0085760Y0081534D01*
X0085416Y0080736D02*
X0055050Y0080736D01*
X0055050Y0079937D02*
X0085149Y0079937D01*
X0084950Y0079139D02*
X0055050Y0079139D01*
X0055050Y0078340D02*
X0084844Y0078340D01*
X0084834Y0076743D02*
X0055050Y0076743D01*
X0055050Y0075945D02*
X0084939Y0075945D01*
X0085128Y0075146D02*
X0055050Y0075146D01*
X0055050Y0074348D02*
X0085383Y0074348D01*
X0085715Y0073549D02*
X0055050Y0073549D01*
X0055050Y0072751D02*
X0086176Y0072751D01*
X0086748Y0071952D02*
X0055050Y0071952D01*
X0055050Y0071154D02*
X0064080Y0071154D01*
X0062152Y0070355D02*
X0055050Y0070355D01*
X0055050Y0069557D02*
X0060557Y0069557D01*
X0059759Y0068758D02*
X0055050Y0068758D01*
X0055050Y0067960D02*
X0058960Y0067960D01*
X0058162Y0067161D02*
X0055050Y0067161D01*
X0055050Y0066363D02*
X0057741Y0066363D01*
X0057410Y0065564D02*
X0055050Y0065564D01*
X0055050Y0064766D02*
X0057079Y0064766D01*
X0056749Y0063967D02*
X0055050Y0063967D01*
X0055050Y0063169D02*
X0056501Y0063169D01*
X0056501Y0062370D02*
X0055050Y0062370D01*
X0055050Y0061572D02*
X0056501Y0061572D01*
X0056501Y0060773D02*
X0055050Y0060773D01*
X0055050Y0059975D02*
X0056501Y0059975D01*
X0056606Y0059176D02*
X0055050Y0059176D01*
X0055050Y0058378D02*
X0056937Y0058378D01*
X0057268Y0057579D02*
X0055050Y0057579D01*
X0055050Y0056781D02*
X0057599Y0056781D01*
X0057929Y0055982D02*
X0055050Y0055982D01*
X0055050Y0055184D02*
X0058617Y0055184D01*
X0059415Y0054385D02*
X0055050Y0054385D01*
X0055050Y0053587D02*
X0060214Y0053587D01*
X0061323Y0052788D02*
X0055050Y0052788D01*
X0055050Y0051990D02*
X0063251Y0051990D01*
X0072243Y0069557D02*
X0089661Y0069557D01*
X0088398Y0070355D02*
X0070648Y0070355D01*
X0068720Y0071154D02*
X0087468Y0071154D01*
X0095522Y0068758D02*
X0109400Y0068758D01*
X0109400Y0069557D02*
X0097784Y0069557D01*
X0099048Y0070355D02*
X0109400Y0070355D01*
X0109400Y0071154D02*
X0099978Y0071154D01*
X0100697Y0071952D02*
X0109400Y0071952D01*
X0109400Y0072751D02*
X0101270Y0072751D01*
X0101731Y0073549D02*
X0109400Y0073549D01*
X0109400Y0074348D02*
X0102062Y0074348D01*
X0102318Y0075146D02*
X0109400Y0075146D01*
X0109400Y0075945D02*
X0102506Y0075945D01*
X0102612Y0076743D02*
X0109400Y0076743D01*
X0094123Y0078340D02*
X0093323Y0078340D01*
X0093323Y0077542D02*
X0055050Y0077542D01*
X0093323Y0079139D02*
X0094123Y0079139D01*
X0094123Y0079937D02*
X0093323Y0079937D01*
X0093323Y0080736D02*
X0094123Y0080736D01*
X0094123Y0081534D02*
X0093323Y0081534D01*
X0093323Y0082333D02*
X0094123Y0082333D01*
X0094123Y0083132D02*
X0093323Y0083132D01*
X0093323Y0083930D02*
X0094123Y0083930D01*
X0094123Y0084729D02*
X0093323Y0084729D01*
X0093323Y0085527D02*
X0094123Y0085527D01*
X0233400Y0051191D02*
X0283970Y0051191D01*
X0283970Y0050393D02*
X0233400Y0050393D01*
D18*
X0251400Y0086400D02*
X0260400Y0086400D01*
X0251400Y0086400D02*
X0245400Y0092400D01*
X0245400Y0098400D01*
X0245400Y0121400D01*
X0260400Y0136400D01*
X0243400Y0153400D01*
X0243400Y0180400D01*
X0237400Y0186400D01*
X0141400Y0186400D01*
X0143400Y0186400D01*
X0141400Y0186400D02*
X0097400Y0186400D01*
X0076400Y0165400D01*
X0076400Y0151400D01*
X0063400Y0138400D01*
X0063400Y0134400D01*
X0063400Y0113337D01*
X0080337Y0096400D01*
X0080337Y0090888D01*
X0093723Y0077502D01*
D19*
X0169400Y0076400D03*
X0181400Y0076400D03*
X0191400Y0076400D03*
X0201400Y0076400D03*
X0201400Y0066400D03*
X0211400Y0066400D03*
X0223400Y0066400D03*
X0223400Y0056400D03*
X0211400Y0056400D03*
X0201400Y0056400D03*
X0191400Y0056400D03*
X0181400Y0056400D03*
X0171400Y0056400D03*
X0171400Y0066400D03*
X0181400Y0066400D03*
X0191400Y0066400D03*
X0191400Y0086400D03*
X0181400Y0086400D03*
X0169400Y0086400D03*
X0201400Y0086400D03*
D20*
X0191400Y0086400D01*
X0181400Y0086400D01*
X0181400Y0076400D01*
X0191400Y0076400D01*
X0191400Y0066400D01*
X0181400Y0066400D01*
X0171400Y0066400D02*
X0171400Y0056400D01*
X0181400Y0056400D01*
X0191400Y0056400D01*
X0201400Y0056400D01*
X0201400Y0066400D01*
X0201400Y0076400D01*
X0201400Y0086400D01*
X0201400Y0066400D02*
X0211400Y0066400D01*
X0223400Y0066400D01*
X0223400Y0056400D01*
X0211400Y0056400D02*
X0211400Y0066400D01*
X0171400Y0066400D02*
X0169400Y0068400D01*
X0169400Y0076400D01*
X0169400Y0086400D01*
M02*
