                                                                             Bill Of Materials

Part        Value              Device                     Package            Description                                                        DIGIKEY                     HANRUN    LINK                                                                                     PRICE_PER_100UNIT PRICE_PER_100UNITS PRICE_PER_UNIT PRIC_PER_UNIT
3.3V        RED                LED-RED                    LED0603                                                                               475-2512-1-ND                                                                                                                                                       0.09                        
3V3         TESTPAD'           TESTPAD'                   B5.08                                                                                                                                                                                                                                                                                 
5V          RED                LED-RED                    LED0603                                                                               475-2512-1-ND                                                                                                                                                       0.09                        
ANT         RF-SMA             RF-SMA                     BU-SMA-H                                                                               A97593-ND                                                                                                                     2.04                                 2.81                        
C1          1UF/6.3V           CAPACITOR-1UF/6.3V         C0603              CAPACITOR                                                          1276-1024-1-ND                                                                                                                                                      0.1                         
C2          0.1UF              CAPACITOR-0.1UF/6.3V       C0603              CAPACITOR                                                          490-9730-1-ND                                                                                                                                                       0.1                         
C3          0.1UF              CAPACITOR-0.1UF/6.3V       C0603              CAPACITOR                                                          490-9730-1-ND                                                                                                                                                       0.1                         
C4          10UF               CAPACITOR-10UF/25V         C1206              CAPACITOR                                                          587-1353-1-ND                                                                                                                                                       0.21                        
C5          10UF               CAPACITOR-10UF/25V         C1206              CAPACITOR                                                          587-1353-1-ND                                                                                                                                                       0.21                        
C8          0.1UF              CAPACITOR-0.1UF/6.3V       C0603              CAPACITOR                                                          490-9730-1-ND                                                                                                                                                       0.1                         
C10         0.1UF              CAPACITOR-0.1UF/6.3V       C0603              CAPACITOR                                                          490-9730-1-ND                                                                                                                                                       0.1                         
C11         0.1UF              CAPACITOR-0.1UF/6.3V       C0603              CAPACITOR                                                          490-9730-1-ND                                                                                                                                                       0.1                         
C12         10NF               CAPACITOR-10NF/16V         C0603              CAPACITOR                                                          1276-1926-1-ND                                                                                                                                                      0.1                         
C13         1UF                CAPACITOR-1UF/50V          C0805              CAPACITOR                                                          311-1909-1-ND                                                                                                                                    0.0367             0.11                        
C14                            CAPACITOR-10UF/25V         C1206              CAPACITOR                                                          587-1353-1-ND                                                                                                                                                       0.21                        
C15                            CAPACITOR-10UF/25V         C1206              CAPACITOR                                                          587-1353-1-ND                                                                                                                                                       0.21                        
C16         0.1UF              CAPACITOR-0.1UF/6.3V       C0603              CAPACITOR                                                          490-9730-1-ND                                                                                                                                                       0.1                         
C17         0.1UF              CAPACITOR-0.1UF/6.3V       C0603              CAPACITOR                                                          490-9730-1-ND                                                                                                                                                       0.1                         
C18         0.1UF              CAPACITOR-0.1UF/6.3V       C0603              CAPACITOR                                                          490-9730-1-ND                                                                                                                                                       0.1                         
CPOL1                          CPOL-220UF/16V             CPOL-6.6X6.6                                                                          493-2179-2-ND                                                                                                                                                       0.35                        
CPOL2                          CPOL-220UF/16V             CPOL-6.6X6.6                                                                          493-2179-2-ND                                                                                                                                                       0.35                        
D1                             SCHOTTKY-DIODE-5A/40V      SMA/DO-214AC                                                                          641-1707-1-ND                                                                                                                                                                      0.46         
D2                             SCHOTTKY-DIODE-5A/40V      SMA/DO-214AC                                                                          641-1707-1-ND                                                                                                                                                                      0.46         
DL1                            DUOLED-1X2                 DUOLED-C-0603                                                                        160-1171-1-ND                                                                                                                                                       0.44                        
DLED2                          DUOLED-1X2                 DUOLED-C-0603                                                                         160-1171-1-ND                                                                                                                                                       0.44                        
FB1         42R@100MHZ         FERRITE-BEAD-42R_100MHZ/4A L0805                                                                                 587-1768-1-ND                                                                                                                                                       0.1                         
FB3         42R@100MHZ         FERRITE-BEAD-42R_100MHZ/4A L0805                                                                                 587-1768-1-ND                                                                                                                                                       0.1                         
FID1                           FIDUCIAL                   FIDUCIAL_1MM                                                                          No_Part. Plain Copper Pads.                                                                                                                                         0                           
FID2                           FIDUCIAL                   FIDUCIAL_1MM                                                                          No_Part. Plain Copper Pads.                                                                                                                                         0                           
FID3                           FIDUCIAL                   FIDUCIAL_1MM                                                                          No_Part. Plain Copper Pads.                                                                                                                                         0                           
FID4                           FIDUCIAL                   FIDUCIAL_1MM                                                                          No_Part. Plain Copper Pads.                                                                                                                                         0                           
GND         TESTPAD'           TESTPAD'                   B5.08                                                                                                                                                                                                                                                                                 
HEADER1     XH2Pin20cm         M02POLAR                   MOLEX-1X2           50 sets 2pin 2.54mm Pitch 20cm 26AWG Wire Pin Header              https://www.aliexpress.com/item/50-sets-2pin-2-54mm-Pitch-20cm-wire-Pin-Header-Housing-Terminal-Connector-Wire-Connectors-Adaptor/32695736152.html                                                                                                                                                                                
HEADER2     XH2Pin20cm         M02POLAR                   MOLEX-1X2           50 sets 2pin 2.54mm Pitch 20cm 26AWG Wire Pin Header              https://www.aliexpress.com/item/50-sets-2pin-2-54mm-Pitch-20cm-wire-Pin-Header-Housing-Terminal-Connector-Wire-Connectors-Adaptor/32695736152.html                                    
J1          PINHEAD-1X4-2.54MM PINHEAD-1X4-2.54MM         PINHEAD-1X4-2.54MM                                                                    952-2265-ND                                                                                                                                                         0.17                        
JP1         PINHEAD-2X5        PINHEAD-2X5                PINHEAD-2X5                                                                           609-3243-ND                                                                                                                                                         0.26                        
L1                          LED-YELLOW                 LED0603                                                                               475-1196-1-ND                                                                                                                                                       0.17                        
L3                             INDUCTOR-3.3UH/3.2A        INDUCTOR-6*6                                                                          SRN6045-3R3YCT-ND                                                                                                                                                   0.43                        
LINKIT7688. LINKIT7688         LINKIT7688                 LINKIT7688                                                                                                                                                                                                                                                                            
MAGJACK2    MAGJACK            MAGJACK                    MAGJACK                               HR911105A                                       HR911105A http://imall.itead.cc/electronic-components/connectors/connector-socket/im120814005.html                                      3                           
Q1          PMOS-FDN340        PMOS-FDN340                SOT23-W                                                                               FDN340PCT-ND                                                                                                                                                        0.44                        
R1          0R                 RESISTOR-0R                R0603              Resistance                                                         P0.0GCT-ND                                                                                                                                                          0.1                         
R2          47K                RESISTOR-47K_1/8W          R0603              Resistance                                                         MCT0603-47.0K-CFCT-ND                                                                                                                                               0.08                        
R3          10K                RESISTOR-10K_1/8W          R0603              Resistance                                                         MCT0603-10.0K-CFCT-ND                                                                                                                                               0.08                        
R4          10K                RESISTOR-10K_1/8W          R0603              Resistance                                                         MCT0603-10.0K-CFCT-ND                                                                                                                                               0.08                        
R5          22R                RESISTOR-22R_1/10W         R0603              Resistance                                                         311-22GRCT-ND                                                                                                                                                       0.1                         
R6          15K                RESISTOR-15K_1/8W          C0603              Resistance                                                         MCT0603-15.0K-CFCT-ND                                                                                                                                               0.08                        
R7          22R                RESISTOR-22R_1/10W         R0603              Resistance                                                         311-22GRCT-ND                                                                                                                                                       0.1                         
R8          15K                RESISTOR-15K_1/8W          C0603              Resistance                                                         MCT0603-15.0K-CFCT-ND                                                                                                                                               0.08                        
R9          330R               RESISTOR-330R_1/10W        R0603              Resistance                                                         RMCF0603JT330RCT-ND                                                                                                                                                 0.1                         
R10         330R               RESISTOR-330R_1/10W        R0603              Resistance                                                         RMCF0603JT330RCT-ND                                                                                                                                                 0.1                         
R11         330R               RESISTOR-330R_1/10W        R0603              Resistance                                                         RMCF0603JT330RCT-ND                                                                                                                                                 0.1                         
R12         330R               RESISTOR-330R_1/10W        R0603              Resistance                                                         RMCF0603JT330RCT-ND                                                                                                                                                 0.1                         
R13         330R               RESISTOR-330R_1/10W        R0603              Resistance                                                         RMCF0603JT330RCT-ND                                                                                                                                                 0.1                         
R18         10K                RESISTOR-10K_1/8W          R0603              RESISTOR                                                           MCT0603-10.0K-CFCT-ND                                                                                                                                               0.08                        
R19         10K                RESISTOR-10K_1/8W          R0603              Resistance                                                         MCT0603-10.0K-CFCT-ND                                                                                                                                               0.08                        
R20         52.3K              RESISTOR-52.3K_1/10W       R0603              RESISTOR                                                           311-52.3KHRCT-ND                                                                                                                                                    0.1                         
R21         330R               RESISTOR-330R_1/10W        R0603              RESISTOR                                                           RMCF0603JT330RCT-ND                                                                                                                                                 0.1                         
R22         47K                RESISTOR-47K_1/8W          R0603              Resistance                                                         MCT0603-47.0K-CFCT-ND                                                                                                                                               0.08                        
R24         330R               RESISTOR-330R_1/10W        R0603              RESISTOR                                                           RMCF0603JT330RCT-ND                                                                                                                                                 0.1                         
R25         10K                RESISTOR-10K_1/8W          R0603              Resistance                                                         MCT0603-10.0K-CFCT-ND                                                                                                                                               0.08                        
R26         10K                RESISTOR-10K_1/8W          R0603              Resistance                                                         MCT0603-10.0K-CFCT-ND                                                                                                                                               0.08                        
R27         12K                RESISTOR-12K_1/8W          R0603              RESISTOR                                                           MCT0603-12.0K-CFCT-ND                                                                                                                                               0.08                        
R28         330R               RESISTOR-330R_1/10W        R0603              Resistance                                                         RMCF0603JT330RCT-ND                                                                                                                                                 0.1                         
R29         10K                RESISTOR-10K_1/8W          R0603              RESISTOR                                                           MCT0603-10.0K-CFCT-ND                                                                                                                                               0.08                        
R30         1K                 RESISTOR-1K_1/4W           R0603              RESISTOR                                                           RHM1.0KDCT-ND                                                                                                                                                       0.1                         
R31         50R                RESISTOR-50R_1/8W_RF       R0603              Resistance                                                         311-49.9HRCT-ND                                                                                                                                                     0.1                         
R32         50R                RESISTOR-50R_1/8W_RF       R0603              Resistance                                                         311-49.9HRCT-ND                                                                                                                                                     0.1                         
R33         50R                RESISTOR-50R_1/8W_RF       R0603              Resistance                                                         311-49.9HRCT-ND                                                                                                                                                     0.1                         
R34         50R                RESISTOR-50R_1/8W_RF       R0603              Resistance                                                         311-49.9HRCT-ND                                                                                                                                                     0.1                         
R35         330R               RESISTOR-330R_1/10W        R0603              Resistance                                                         RMCF0603JT330RCT-ND                                                                                                                                                 0.1                         
REG         AOZ1284PI          AOZ1284PI                  SO8-EXPOSED_PAD                                                                       785-1689-1-ND                                                                                                                                                       0.99                        
RFM69HW     RFM69HW            RFM69HW                    RFM69HW                                                                               RFM69HW-433S2-ND                                                                                                                                                    10.34                       
STM8L       STM8L051F3         STM8L051F3                 20TSSOP                                                                               497-13042-5-ND                                                                                                                                                      1.32                        
U$4         ZENER-DIODE-4.7V   ZENER-DIODE-4.7V           SOD-123                                                                               MMSZ4688-TPMSCT-ND                                                                                                                                                  0.21                        
UART        PINHEAD-1X3        PINHEAD-1X3                PINHEAD-1X3                                                                           952-2264-ND                                                                                                                                                         0.14                        
USB1        USB_A              USB-A-H                    USB-A-H                                                                               ED2989-ND                                                                                                                                                           0.48                        
VCC         TESTPAD'           TESTPAD'                   B5.08                                                                                                                                                                                                                                                                                 
DC Jack     DC Power Jack      Copper 5.5mm x 2.1mm       DC-022B           5.5 mm x 2.1mm DC Power Jack Socket Female                          https://www.aliexpress.com/item/50pcs-lot-Copper-5-5mm-x-2-1mm-DC-Power-Jack-Socket-Female-Panel-Mount-plug/32492598609.html